\relax 
\providecommand\hyper@newdestlabel[2]{}
\@writefile{toc}{\contentsline {chapter}{\numberline {5}Experiments}{23}{chapter.5}\protected@file@percent }
\@writefile{lof}{\addvspace {10\p@ }}
\@writefile{lot}{\addvspace {10\p@ }}
\@writefile{lol}{\addvspace {10\p@ }}
\@writefile{toc}{\contentsline {section}{\numberline {5.1}Baseline Experiment}{23}{section.5.1}\protected@file@percent }
\@writefile{lof}{\contentsline {figure}{\numberline {5.1}{\ignorespaces Structures of All Prompts Used for Zero-Shotting and Passage Retrieval in the Baseline Experiment}}{24}{figure.caption.8}\protected@file@percent }
\newlabel{fig:allprompts}{{5.1}{24}{Structures of All Prompts Used for Zero-Shotting and Passage Retrieval in the Baseline Experiment}{figure.caption.8}{}}
\@writefile{toc}{\contentsline {subsection}{\numberline {5.1.1}Results}{26}{subsection.5.1.1}\protected@file@percent }
\@writefile{lof}{\contentsline {figure}{\numberline {5.2}{\ignorespaces Scatterplot of BLEUScores of character descriptions generated with Mixtral7b without ($P^{z}$) and with baseline passage retrieval ($P^{r}$) plotted against each other}}{26}{figure.caption.9}\protected@file@percent }
\newlabel{fig:base_bleu}{{5.2}{26}{Scatterplot of BLEUScores of character descriptions generated with Mixtral7b without ($P^{z}$) and with baseline passage retrieval ($P^{r}$) plotted against each other}{figure.caption.9}{}}
\newlabel{fig:basebert}{{\caption@xref {fig:basebert}{ on input line 617}}{27}{Results}{figure.caption.10}{}}
\@writefile{lof}{\contentsline {figure}{\numberline {5.3}{\ignorespaces Scatterplot of BERTScores of character descriptions generated with Mixtral7b without ($P^{z}$) and with baseline passage retrieval ($P^{r}$) plotted against each other}}{27}{figure.caption.10}\protected@file@percent }
\newlabel{fig:basediff}{{\caption@xref {fig:basediff}{ on input line 761}}{28}{Results}{figure.caption.11}{}}
\@writefile{lof}{\contentsline {figure}{\numberline {5.4}{\ignorespaces  Sorted differences between BLEUScores of character descriptions generated with Mixtral7b without ($P^{z}$) and with baseline passage retrieval ($P^{r}$) for every prompt ($P_{1}, P_{2}, P_{3}, P_{4}$).}}{28}{figure.caption.11}\protected@file@percent }
\newlabel{fig:basediff}{{\caption@xref {fig:basediff}{ on input line 900}}{29}{Results}{figure.caption.12}{}}
\@writefile{lof}{\contentsline {figure}{\numberline {5.5}{\ignorespaces  Sorted differences between BERTScores of character descriptions generated with Mixtral7b without ($P^{z}$) and with baseline passage retrieval ($P^{r}$) for every prompt ($P_{1}, P_{2}, P_{3}, P_{4}$).}}{29}{figure.caption.12}\protected@file@percent }
\newlabel{fig:basebox}{{\caption@xref {fig:basebox}{ on input line 1189}}{30}{Results}{figure.caption.13}{}}
\@writefile{lof}{\contentsline {figure}{\numberline {5.6}{\ignorespaces Boxplots of BLEU- and BERTScores of character descriptions generated with Mixtral7b for every prompt ($P_{1}, P_{2}, P_{3}, P_{4}$) with and without baseline passage retrieval.}}{30}{figure.caption.13}\protected@file@percent }
\@writefile{lof}{\contentsline {figure}{\numberline {5.7}{\ignorespaces T-Test and Spearman's correlation (with Corresponding p-values) of BLEU- and BERTScores of character descriptions generated with Mixtral7b for every prompt ($P_{1}, P_{2}, P_{3}, P_{4}$) with and without baseline passage retrieval.}}{31}{figure.caption.14}\protected@file@percent }
\newlabel{fig:base_test}{{5.7}{31}{T-Test and Spearman's correlation (with Corresponding p-values) of BLEU- and BERTScores of character descriptions generated with Mixtral7b for every prompt ($P_{1}, P_{2}, P_{3}, P_{4}$) with and without baseline passage retrieval}{figure.caption.14}{}}
\@writefile{toc}{\contentsline {subsection}{\numberline {5.1.2}Analysis}{31}{subsection.5.1.2}\protected@file@percent }
\@writefile{toc}{\contentsline {section}{\numberline {5.2}Passage Embedding Experiment}{33}{section.5.2}\protected@file@percent }
\@writefile{toc}{\contentsline {subsection}{\numberline {5.2.1}Results}{34}{subsection.5.2.1}\protected@file@percent }
\@writefile{lof}{\contentsline {figure}{\numberline {5.8}{\ignorespaces Scatterplot of BLEUScores of character descriptions generated with Llama3 and Gemma2 on $P_1$ without ($P^{z}$) and with passage embedding retrieval ($P^{r}$) plotted against each other.}}{34}{figure.caption.15}\protected@file@percent }
\newlabel{fig:passagebleu}{{5.8}{34}{Scatterplot of BLEUScores of character descriptions generated with Llama3 and Gemma2 on $P_1$ without ($P^{z}$) and with passage embedding retrieval ($P^{r}$) plotted against each other}{figure.caption.15}{}}
\@writefile{lof}{\contentsline {figure}{\numberline {5.9}{\ignorespaces Scatterplot of BERTScore of character descriptions generated with Llama3 and Gemma2 on $P_1$ without ($P^{z}$) and with passage embedding retrieval ($P^{r}$) plotted against each other.}}{34}{figure.caption.16}\protected@file@percent }
\newlabel{fig:passagebert}{{5.9}{34}{Scatterplot of BERTScore of character descriptions generated with Llama3 and Gemma2 on $P_1$ without ($P^{z}$) and with passage embedding retrieval ($P^{r}$) plotted against each other}{figure.caption.16}{}}
\@writefile{lof}{\contentsline {figure}{\numberline {5.10}{\ignorespaces T-Test and Spearman's Correlation (with Corresponding p-values) after prompting Llama3 and Gemma2 with $P_{1}$ with and without passage embedding retrieval}}{35}{figure.caption.17}\protected@file@percent }
\newlabel{fig:passagetest}{{5.10}{35}{T-Test and Spearman's Correlation (with Corresponding p-values) after prompting Llama3 and Gemma2 with $P_{1}$ with and without passage embedding retrieval}{figure.caption.17}{}}
\@writefile{lof}{\contentsline {figure}{\numberline {5.11}{\ignorespaces Sorted differences between BLEU- and BERTScores of character descriptions generated with Llama3 and Gemma2 of $P_{1}$ without ($P_{1}^{z}$) and with passage embedding retrieval ($P_{1}^{r}$).}}{35}{figure.caption.18}\protected@file@percent }
\newlabel{fig:passagediffbleu}{{5.11}{35}{Sorted differences between BLEU- and BERTScores of character descriptions generated with Llama3 and Gemma2 of $P_{1}$ without ($P_{1}^{z}$) and with passage embedding retrieval ($P_{1}^{r}$)}{figure.caption.18}{}}
\@writefile{toc}{\contentsline {subsection}{\numberline {5.2.2}Analysis}{35}{subsection.5.2.2}\protected@file@percent }
\@writefile{lof}{\contentsline {figure}{\numberline {5.12}{\ignorespaces Prompting result for the character ``Nymphadora Tonks'' from the Harry Potter franchise generated with $P_{1}^{r}$ (passage embedding retrieval) in Gemma2.}}{36}{figure.caption.19}\protected@file@percent }
\@writefile{toc}{\contentsline {section}{\numberline {5.3}Method Comparison}{38}{section.5.3}\protected@file@percent }
\@writefile{toc}{\contentsline {subsection}{\numberline {5.3.1}Results}{38}{subsection.5.3.1}\protected@file@percent }
\@writefile{lof}{\contentsline {figure}{\numberline {5.13}{\ignorespaces Sorted Differences of BLEU- and BERTScores for $P_{1}$ Between Baseline Retrieval on Mixtral7b and Passage Embedding Retrieval on Llama3 Before and After Retrieval}}{38}{figure.caption.20}\protected@file@percent }
\newlabel{fig:comparedifflama}{{5.13}{38}{Sorted Differences of BLEU- and BERTScores for $P_{1}$ Between Baseline Retrieval on Mixtral7b and Passage Embedding Retrieval on Llama3 Before and After Retrieval}{figure.caption.20}{}}
\@writefile{lof}{\contentsline {figure}{\numberline {5.14}{\ignorespaces Sorted Differences of BLEU- and BERTScores for $P_{1}$ Between Baseline Retrieval on Mixtral7b and Passage Embedding Retrieval on Gemma2 Before and After Retrieval}}{39}{figure.caption.21}\protected@file@percent }
\newlabel{fig:comparediffgemma}{{5.14}{39}{Sorted Differences of BLEU- and BERTScores for $P_{1}$ Between Baseline Retrieval on Mixtral7b and Passage Embedding Retrieval on Gemma2 Before and After Retrieval}{figure.caption.21}{}}
\@writefile{lof}{\contentsline {figure}{\numberline {5.15}{\ignorespaces T-Test and Spearman's Correlation (with Corresponding p-values) of BLEU- and BERTScore for $P_{1}$ Using Base Retrieval and Selected Embedded Chunk Retrieval on Llama3 and Gemma2}}{39}{figure.caption.22}\protected@file@percent }
\newlabel{fig:comparetest}{{5.15}{39}{T-Test and Spearman's Correlation (with Corresponding p-values) of BLEU- and BERTScore for $P_{1}$ Using Base Retrieval and Selected Embedded Chunk Retrieval on Llama3 and Gemma2}{figure.caption.22}{}}
\@writefile{toc}{\contentsline {subsection}{\numberline {5.3.2}Analysis}{40}{subsection.5.3.2}\protected@file@percent }
\@writefile{lof}{\contentsline {figure}{\numberline {5.16}{\ignorespaces Distribution of the embedding scores of all passages used for passage retrieval computed with e5-mistral.}}{40}{figure.caption.23}\protected@file@percent }
\newlabel{fig:histogram_scores}{{5.16}{40}{Distribution of the embedding scores of all passages used for passage retrieval computed with e5-mistral}{figure.caption.23}{}}
\@writefile{lof}{\contentsline {figure}{\numberline {5.17}{\ignorespaces Distribution of embedding similarity scores (in percentages) for all passages used for retrieval, categorized by fandom and score interval, calculated using e5-mistral.}}{41}{figure.caption.24}\protected@file@percent }
\newlabel{fig:compare_percent_book}{{5.17}{41}{Distribution of embedding similarity scores (in percentages) for all passages used for retrieval, categorized by fandom and score interval, calculated using e5-mistral}{figure.caption.24}{}}
\@writefile{lof}{\contentsline {figure}{\numberline {5.18}{\ignorespaces T-Test and Spearman's Correlation (with Corresponding p-values) of BLEU and BERTScore for $P_{1}$ Using Mixtral7b Base Retrieval and Embedded Chunk Retrieval on Llama3 and Gemma2 only on Characters with all Selected Embedded Chunks having a Score of 75 or higher }}{42}{figure.caption.25}\protected@file@percent }
\newlabel{fig:comparetest75}{{5.18}{42}{T-Test and Spearman's Correlation (with Corresponding p-values) of BLEU and BERTScore for $P_{1}$ Using Mixtral7b Base Retrieval and Embedded Chunk Retrieval on Llama3 and Gemma2 only on Characters with all Selected Embedded Chunks having a Score of 75 or higher}{figure.caption.25}{}}
\newlabel{fig:scattercolorbleu}{{\caption@xref {fig:scattercolorbleu}{ on input line 2168}}{43}{Analysis}{figure.caption.26}{}}
\@writefile{lof}{\contentsline {figure}{\numberline {5.19}{\ignorespaces Scatterplot of BLEUScores of character descriptions generated with Llama3 on $P_{1}$ without ($P^{z}$) and with passage embedding retrieval ($P^{r}$) plotted against each other, color-coded and dissected into franchises and surrounded with convex hulls.}}{43}{figure.caption.27}\protected@file@percent }
\newlabel{fig:compareconvex}{{5.19}{43}{Scatterplot of BLEUScores of character descriptions generated with Llama3 on $P_{1}$ without ($P^{z}$) and with passage embedding retrieval ($P^{r}$) plotted against each other, color-coded and dissected into franchises and surrounded with convex hulls}{figure.caption.27}{}}
\newlabel{fig:scattercolorbert}{{\caption@xref {fig:scattercolorbert}{ on input line 2480}}{44}{Analysis}{figure.caption.28}{}}
\@writefile{lof}{\contentsline {figure}{\numberline {5.20}{\ignorespaces Scatterplot of BERTScores of character descriptions generated with Llama3 on $P_{1}$ without ($P^{z}$) and with passage embedding retrieval ($P^{r}$) plotted against each other, color-coded and dissected into franchises and surrounded with convex hulls.}}{44}{figure.caption.29}\protected@file@percent }
\newlabel{fig:compareconvex}{{5.20}{44}{Scatterplot of BERTScores of character descriptions generated with Llama3 on $P_{1}$ without ($P^{z}$) and with passage embedding retrieval ($P^{r}$) plotted against each other, color-coded and dissected into franchises and surrounded with convex hulls}{figure.caption.29}{}}
\@setckpt{experiments}{
\setcounter{page}{45}
\setcounter{equation}{0}
\setcounter{enumi}{0}
\setcounter{enumii}{0}
\setcounter{enumiii}{0}
\setcounter{enumiv}{0}
\setcounter{footnote}{0}
\setcounter{mpfootnote}{0}
\setcounter{part}{0}
\setcounter{chapter}{5}
\setcounter{section}{3}
\setcounter{subsection}{2}
\setcounter{subsubsection}{0}
\setcounter{paragraph}{0}
\setcounter{subparagraph}{0}
\setcounter{figure}{20}
\setcounter{table}{0}
\setcounter{lstnumber}{2}
\setcounter{section@level}{2}
\setcounter{Item}{0}
\setcounter{Hfootnote}{0}
\setcounter{bookmark@seq@number}{0}
\setcounter{caption@flags}{6}
\setcounter{continuedfloat}{0}
\setcounter{subfigure}{0}
\setcounter{subtable}{0}
\setcounter{tabx@nest}{0}
\setcounter{listtotal}{0}
\setcounter{listcount}{0}
\setcounter{liststart}{0}
\setcounter{liststop}{0}
\setcounter{citecount}{0}
\setcounter{citetotal}{0}
\setcounter{multicitecount}{0}
\setcounter{multicitetotal}{0}
\setcounter{instcount}{22}
\setcounter{maxnames}{3}
\setcounter{minnames}{1}
\setcounter{maxitems}{3}
\setcounter{minitems}{1}
\setcounter{citecounter}{0}
\setcounter{maxcitecounter}{0}
\setcounter{savedcitecounter}{0}
\setcounter{uniquelist}{0}
\setcounter{uniquename}{0}
\setcounter{refsection}{0}
\setcounter{refsegment}{0}
\setcounter{maxextratitle}{0}
\setcounter{maxextratitleyear}{0}
\setcounter{maxextraname}{0}
\setcounter{maxextradate}{0}
\setcounter{maxextraalpha}{0}
\setcounter{abbrvpenalty}{50}
\setcounter{highnamepenalty}{50}
\setcounter{lownamepenalty}{25}
\setcounter{maxparens}{3}
\setcounter{parenlevel}{0}
\setcounter{blx@maxsection}{0}
\setcounter{mincomprange}{10}
\setcounter{maxcomprange}{100000}
\setcounter{mincompwidth}{1}
\setcounter{afterword}{0}
\setcounter{savedafterword}{0}
\setcounter{annotator}{0}
\setcounter{savedannotator}{0}
\setcounter{author}{0}
\setcounter{savedauthor}{0}
\setcounter{bookauthor}{0}
\setcounter{savedbookauthor}{0}
\setcounter{commentator}{0}
\setcounter{savedcommentator}{0}
\setcounter{editor}{0}
\setcounter{savededitor}{0}
\setcounter{editora}{0}
\setcounter{savededitora}{0}
\setcounter{editorb}{0}
\setcounter{savededitorb}{0}
\setcounter{editorc}{0}
\setcounter{savededitorc}{0}
\setcounter{foreword}{0}
\setcounter{savedforeword}{0}
\setcounter{holder}{0}
\setcounter{savedholder}{0}
\setcounter{introduction}{0}
\setcounter{savedintroduction}{0}
\setcounter{namea}{0}
\setcounter{savednamea}{0}
\setcounter{nameb}{0}
\setcounter{savednameb}{0}
\setcounter{namec}{0}
\setcounter{savednamec}{0}
\setcounter{translator}{0}
\setcounter{savedtranslator}{0}
\setcounter{shortauthor}{0}
\setcounter{savedshortauthor}{0}
\setcounter{shorteditor}{0}
\setcounter{savedshorteditor}{0}
\setcounter{labelname}{0}
\setcounter{savedlabelname}{0}
\setcounter{institution}{0}
\setcounter{savedinstitution}{0}
\setcounter{lista}{0}
\setcounter{savedlista}{0}
\setcounter{listb}{0}
\setcounter{savedlistb}{0}
\setcounter{listc}{0}
\setcounter{savedlistc}{0}
\setcounter{listd}{0}
\setcounter{savedlistd}{0}
\setcounter{liste}{0}
\setcounter{savedliste}{0}
\setcounter{listf}{0}
\setcounter{savedlistf}{0}
\setcounter{location}{0}
\setcounter{savedlocation}{0}
\setcounter{organization}{0}
\setcounter{savedorganization}{0}
\setcounter{origlocation}{0}
\setcounter{savedoriglocation}{0}
\setcounter{origpublisher}{0}
\setcounter{savedorigpublisher}{0}
\setcounter{publisher}{0}
\setcounter{savedpublisher}{0}
\setcounter{language}{0}
\setcounter{savedlanguage}{0}
\setcounter{origlanguage}{0}
\setcounter{savedoriglanguage}{0}
\setcounter{pageref}{0}
\setcounter{savedpageref}{0}
\setcounter{textcitecount}{0}
\setcounter{textcitetotal}{0}
\setcounter{textcitemaxnames}{0}
\setcounter{biburlbigbreakpenalty}{100}
\setcounter{biburlbreakpenalty}{200}
\setcounter{biburlnumpenalty}{0}
\setcounter{biburlucpenalty}{0}
\setcounter{biburllcpenalty}{0}
\setcounter{smartand}{1}
\setcounter{bbx:relatedcount}{0}
\setcounter{bbx:relatedtotal}{0}
\setcounter{parentequation}{0}
\setcounter{float@type}{8}
\setcounter{dirtytalk@qdepth}{0}
\setcounter{lstlisting}{0}
}
