Book,Character,F1,h,wF1,wh,F1_to_wF1,h_to_wh
Harry Potter,Hokey,0.5624920129776001,1.0192781336516663,0.4403316676616668,0.0007637035054289,-0.12216034531593328,-1.0185144301462374
Harry Potter,Broderick Bode,0.493981122970581,0.329247563996245,0.4099574387073517,6.71566092915343e-14,-0.08402368426322931,-0.32924756399617783
The Hunger Games,Festus Creed,0.5137855410575867,0.4488251552008332,0.4304147660732269,1.1489411666581085e-07,-0.0833707749843598,-0.44882504030671655
Twilight,Amun,0.507752001285553,0.0532664143586604,0.4271788001060486,2.712021848055028e-15,-0.0805732011795044,-0.053266414358657685
The Lord of the Rings,Erendis,0.5087628960609436,0.8706285962587988,0.428654134273529,0.007316702674519,-0.0801087617874146,-0.8633118935842798
Harry Potter,Herbert Beery,0.49589803814888,2.8443517176706856,0.4173962473869324,4.830428471126465e-05,-0.07850179076194763,-2.8443034133859744
The Hunger Games,Casca Highbottom,0.4940409958362579,0.0587936886949867,0.4224543273448944,1.3918421137300102e-09,-0.07158666849136347,-0.05879368730314458
Dune,Lady Jessica,0.527129590511322,1.0146471545741351,0.4561772346496582,0.0774615841061969,-0.07095235586166382,-0.9371855704679383
The Hunger Games,Persephone Price,0.4980650544166565,1.0352154585984468,0.4277696311473846,0.0001228294344017,-0.0702954232692719,-1.035092629164045
The Hunger Games,Mizzen,0.52642822265625,0.0647341297750277,0.4569679498672485,8.724480654851951e-09,-0.06946027278900152,-0.06473412105054704
Dune,Ziarenko Javid,0.4817750751972198,1.2164039946239296,0.412378579378128,0.003792379896148,-0.0693964958190918,-1.2126116147277817
Twilight,Kebi,0.5147552490234375,0.3721088239934548,0.4482637941837311,6.781821117860223e-06,-0.06649145483970642,-0.37210204217233694
Twilight,Senna,0.5137305855751038,0.7764955341732236,0.4481615424156189,0.0017553523032034,-0.06556904315948486,-0.7747401818700201
The Hunger Games,Lysistrata Vickers,0.5213034749031067,0.3922486209001253,0.4561924338340759,3.3421247235283436e-10,-0.06511104106903076,-0.3922486205659128
Harry Potter,Petunia Dursley,0.4716936647891998,0.276449701886468,0.4066319465637207,0.8251450452212465,-0.06506171822547907,0.5486953433347785
The Hunger Games,Felix Ravinstill,0.5016847252845764,2.291929646798982,0.4419227540493011,0.0122104275031614,-0.059761971235275324,-2.2797192192958207
Dune,Tylwyth Waff,0.509412407875061,1.1437715938563466,0.451562762260437,0.058983343730529,-0.05784964561462402,-1.0847882501258177
The Hunger Games,Domitia Whimsiwick,0.5107499361038208,1.2525096842108003,0.4531517624855041,0.0118776767947972,-0.057598173618316706,-1.240632007416003
The Lord of the Rings,Belemir,0.4778252243995666,0.4576622905168591,0.4229112863540649,1.2257453854580285,-0.05491393804550171,0.7680830949411694
Twilight,Heidi,0.4885730743408203,0.3045840415013427,0.4366976916790008,5.880942816393087e-09,-0.051875382661819514,-0.3045840356203999
Twilight,Bella Swan,0.4832690060138702,0.7247361055412566,0.4325412809848785,0.7365166028075251,-0.0507277250289917,0.011780497266268508
The Hunger Games,Livia Cardew,0.4863074123859405,1.0567839430066268,0.43594691157341,0.0002431795767737,-0.05036050081253052,-1.0565407634298531
Twilight,Mary,0.4860509932041168,0.7267298526381508,0.4364092946052551,0.0079322244466564,-0.049641698598861694,-0.7187976281914944
The Hitchhiker's Guide to the Galaxy,Majikthise,0.5712370276451111,10.386016033098292,0.5231562852859497,2.245254897374209,-0.04808074235916138,-8.140761135724084
The Lord of the Rings,Aegnor,0.5125909447669983,1.498046685500856,0.4651370346546173,0.0296654542630147,-0.04745391011238098,-1.4683812312378413
Dune,Mohandas Suk,0.4980094134807586,0.777807305732695,0.4519886970520019,0.0335985023101957,-0.046020716428756714,-0.7442088034224993
Harry Potter,Regulus Black I,0.4791207909584045,0.6593988606866316,0.4364158809185028,0.4298111408084292,-0.04270491003990168,-0.22958771987820237
The Lord of the Rings,Eilinel,0.4749866425991058,0.3264001740397163,0.4330871403217315,1.4391811008157722,-0.04189950227737427,1.112780926776056
The Lord of the Rings,Haleth,0.5136412382125854,0.8894122996936564,0.4729166328907013,0.0353501158327627,-0.040724605321884155,-0.8540621838608937
The Hunger Games,Dill,0.4879874885082245,0.9374200025446748,0.4474625587463379,0.0008715085921698,-0.0405249297618866,-0.9365484939525051
The Lord of the Rings,Gelmir,0.5109872817993164,1.3328831640981806,0.4709084331989288,0.3053119583828561,-0.04007884860038763,-1.0275712057153246
The Hunger Games,Vipsania Sickle,0.4687986373901367,0.6673281913400538,0.4317727088928222,0.0093496491249441,-0.03702592849731451,-0.6579785422151098
Harry Potter,Arthur Weasley,0.4567022621631622,0.4251668865434073,0.4197328090667724,0.3568288856396605,-0.03696945309638977,-0.06833800090374681
Dune,Alma Mavis Taraza,0.5058012008666992,1.3960892703791925,0.4692151844501495,0.0009345553339762,-0.03658601641654974,-1.3951547150452164
Harry Potter,Cornelius Fudge,0.4691202938556671,0.7548587542510679,0.4327090084552765,2.140909251467067,-0.036411285400390625,1.386050497215999
Dune,Feyd-Rautha Harkonnen,0.5162959694862366,1.1772004111068048,0.4807954728603363,0.3885420702506556,-0.03550049662590027,-0.7886583408561492
Dune,Miles Teg,0.557686984539032,0.6657775249077086,0.5225208401679993,0.0391958714219403,-0.035166144371032715,-0.6265816534857683
Dune,Tlaloc,0.5012189149856567,0.7486960201354296,0.4670414626598358,0.070786805708445,-0.03417745232582092,-0.6779092144269846
The Hunger Games,Haymitch Abernathy,0.4719663858413696,0.2746674204021431,0.4384087026119232,1.578231987325297,-0.033557683229446356,1.303564566923154
Harry Potter,Mosag,0.4920565187931061,0.8782917616700553,0.4586452543735504,0.1613183485781155,-0.033411264419555664,-0.7169734130919398
Harry Potter,Rose Granger-Weasley,0.5170115232467651,0.0367348878962947,0.483674019575119,9.293178665924588e-05,-0.03333750367164612,-0.03664195610963545
Harry Potter,Draco Malfoy,0.4593364298343658,0.6527910367546879,0.4268490672111511,0.4857270193493909,-0.032487362623214666,-0.16706401740529697
Twilight,Kachiri,0.511444628238678,1.431598498390504,0.4789679944515228,0.1002454252921603,-0.03247663378715515,-1.3313530730983436
Harry Potter,William Weasley,0.4686269164085388,0.4513134857116254,0.4364808201789856,0.6737239296386476,-0.03214609622955322,0.2224104439270222
Twilight,Santiago,0.4853374063968658,0.5795768905286605,0.4533033072948456,0.0020581764638911,-0.03203409910202021,-0.5775187140647694
Harry Potter,Emeric the Evil,0.5236355662345886,1.2274087848206603,0.491738349199295,0.2050445204834039,-0.031897217035293635,-1.0223642643372564
The Lord of the Rings,Baran,0.4921049177646637,0.5796325470572229,0.4608911573886871,1.405526150459263,-0.031213760375976618,0.8258936034020402
The Lord of the Rings,Bilbo Baggins,0.4849622249603271,0.4667388614757454,0.4552127122879028,1.5087656836859384,-0.029749512672424316,1.0420268222101932
Dune,Octa Butler,0.4880781173706054,0.6217094571902593,0.4583471715450287,0.1195954437816999,-0.029730945825576727,-0.5021140134085593
Harry Potter,Horace Slughorn,0.4715592563152313,0.3495036987996052,0.442171037197113,0.7886036662666432,-0.02938821911811834,0.43909996746703805
Harry Potter,Eloise Midgen,0.5077885389328003,2.7310612733937654,0.4787801802158355,0.0401969554614633,-0.029008358716964777,-2.690864317932302
Dune,Wellington Yueh,0.5484734773635864,1.4385439187818103,0.5203583240509033,0.0994703658148618,-0.028115153312683105,-1.3390735529669486
Twilight,Carlisle Cullen,0.4893444180488586,0.5470750454476965,0.4620271921157837,0.8207067943634325,-0.027317225933074896,0.27363174891573605
The Lord of the Rings,Berúthiel,0.5082423090934753,0.4980957631416123,0.4821400344371795,1.8618666625103754e-07,-0.026102274656295832,-0.49809557695494605
Dune,Xavier Harkonnen,0.5392778515815735,0.6381818425165202,0.5134580135345459,0.0014583260076786,-0.025819838047027588,-0.6367235165088416
Twilight,Victoria,0.4694638848304748,0.2857169373512564,0.4436642229557037,0.6672516060492069,-0.025799661874771118,0.38153466869795044
Twilight,Edward Cullen,0.4666794240474701,0.5013275577784613,0.4417260587215423,0.7004989690636835,-0.02495336532592779,0.1991714112852222
The Hitchhiker's Guide to the Galaxy,Rob McKenna,0.4893811643123626,0.5788952977260052,0.4645346999168396,0.1847243935123878,-0.024846464395523016,-0.39417090421361745
The Hunger Games,Coriolanus Snow,0.4579843580722809,0.9129836935607708,0.4332753419876098,1.7283589187069268,-0.024709016084671076,0.815375225146156
Harry Potter,Neville Longbottom,0.4250537157058716,0.4050310464467725,0.4007991254329681,0.703794524437064,-0.024254590272903498,0.2987634779902915
Twilight,Sasha,0.5193257927894592,1.3981505767285414,0.4952841997146606,0.0391430500603783,-0.02404159307479864,-1.3590075266681632
Harry Potter,Irma Crabbe,0.4557207524776459,0.500078484182119,0.4326726794242859,0.4128171740133438,-0.023048073053359985,-0.0872613101687752
The Lord of the Rings,Frodo Baggins,0.4845083951950073,1.1586468251538449,0.4625139534473419,1.4225173697938494,-0.021994441747665405,0.2638705446400045
The Hunger Games,Volumnia Gaul,0.4893183410167694,0.0217730469748523,0.4675764143466949,1.959404559271376e-11,-0.02174192667007452,-0.021773046955258255
Dune,Piter de Vries,0.5492623448371887,0.7538928578703038,0.5279063582420349,0.1856799652173605,-0.02135598659515381,-0.5682128926529433
The Lord of the Rings,Aragorn II,0.5159305930137634,0.8487244291573735,0.4953894317150116,2.043826256497426,-0.02054116129875183,1.1951018273400527
Dune,Vladimir Harkonnen,0.5316377282142639,0.1021486037107595,0.5116723775863647,0.0243300208480939,-0.01996535062789917,-0.0778185828626656
The Hunger Games,Reaper Ash,0.495331734418869,0.2943598198840083,0.4755721688270569,4.42166229972471e-06,-0.019759565591812134,-0.29435539822170853
Twilight,Alice Cullen,0.4551402628421783,0.4886141848937854,0.4358947873115539,0.7026150625583587,-0.01924547553062439,0.21400087766457332
Twilight,Brady Fuller,0.414991170167923,0.2777492253670694,0.3972945213317871,0.2222973154747086,-0.017696648836135864,-0.05545190989236082
The Hunger Games,Peeta Mellark,0.4702422022819519,0.2513760184516798,0.4527166187763214,1.5649296585705363,-0.017525583505630493,1.3135536401188566
Harry Potter,Bartemius Crouch Junior,0.4792044460773468,0.3325170388966956,0.4619598388671875,0.6034569700781027,-0.017244607210159302,0.27093993118140713
Harry Potter,Molly Weasley,0.4311411678791046,0.508030470417897,0.4139204919338226,0.3611856445629166,-0.017220675945282038,-0.14684482585498038
Harry Potter,Fleur Delacour,0.4630218148231506,0.4558779158492355,0.4460435211658478,0.2417134268423993,-0.0169782936573028,-0.21416448900683618
Harry Potter,Severus Snape,0.4444811940193176,0.6127870543993669,0.4277845025062561,0.9099762295329378,-0.016696691513061523,0.2971891751335709
Harry Potter,Fred Weasley,0.4470652341842651,0.5032112406830574,0.4320422708988189,0.482766600628391,-0.015022963285446167,-0.020444640054666452
Harry Potter,Minerva McGonagall,0.4822526574134826,0.2188552627094354,0.4676037728786468,4.567211100804414,-0.014648884534835815,4.348355838094979
Harry Potter,Dominique Weasley,0.489918440580368,0.6449057551469597,0.4752844870090484,0.5957920297400371,-0.01463395357131958,-0.049113725406922604
Harry Potter,Terry Boot,0.537269651889801,2.7182209576939864,0.5232139229774475,0.0006437601524779,-0.014055728912353516,-2.7175771975415084
The Hitchhiker's Guide to the Galaxy,Questular Rontok,0.4900446832180023,1.1360314227027488,0.4767529368400574,4.434786665064095,-0.013291746377944946,3.2987552423613464
Harry Potter,Phineas Nigellus Black,0.4521813094615936,0.000539000797748,0.4390638470649719,6.186878413479388e-05,-0.013117462396621649,-0.00047713201361320617
Harry Potter,Alastor Moody,0.4516765177249908,0.5009578795219183,0.4389686584472656,0.5182164274500778,-0.012707859277725164,0.017258547928159507
Harry Potter,Ernest Macmillan,0.5520151257514954,0.0005296513114701,0.5393288135528564,1.2384361177579228e-10,-0.012686312198638916,-0.0005296511876264883
Harry Potter,Vernon Dursley,0.4200600385665893,0.37807521127231,0.4079162180423736,0.6485248124973402,-0.012143820524215698,0.2704496012250302
Dune,Chani Kynes,0.519978404045105,0.6258408328432263,0.507990837097168,0.180328439611831,-0.011987566947937012,-0.44551239323139535
Harry Potter,Hermione Granger,0.4517130553722381,0.0933303298809143,0.4399486184120178,0.4492240611908405,-0.011764436960220281,0.3558937313099262
Harry Potter,Dolores Umbridge,0.440847098827362,0.4589686957480907,0.4294912815093994,3.086899216750264,-0.011355817317962591,2.627930521002173
Dune,Piter De Vries,0.5379225611686707,0.5988211129863868,0.526581346988678,0.9056059650963464,-0.011341214179992676,0.30678485210995954
The Lord of the Rings,Amrod,0.5072486996650696,0.6558058192188447,0.4968511462211609,0.4822242934610138,-0.010397553443908691,-0.17358152575783092
The Lord of the Rings,Túrin,0.5115970969200134,0.0049511909120823,0.5016611218452454,5.695012396675375e-07,-0.009935975074768066,-0.004950621410842632
Harry Potter,Ginevra Weasley,0.465539276599884,0.4473014815455565,0.4559850692749023,0.3413930808047621,-0.00955420732498169,-0.10590840074079438
Harry Potter,Myrtle Warren,0.4804550409317016,1.0701752161855695,0.4709806740283966,2.919664660674945,-0.009474366903304998,1.8494894444893755
Dune,Jessica Atreides,0.4802019000053406,0.4161399961091878,0.4718683063983917,0.0930419518554409,-0.008333593606948853,-0.3230980442537469
Twilight,Rebecca Black,0.4915410280227661,0.918700707863489,0.4832848310470581,0.2138217510688916,-0.008256196975708008,-0.7048789567945974
The Hunger Games,Cinna,0.4175937175750732,0.2197645120132099,0.4101203382015228,0.86300689448745,-0.0074733793735503595,0.6432423824742401
Dune,Shaddam Corrino IV,0.4909803569316864,0.4651901071166394,0.484107106924057,0.2707872922110672,-0.0068732500076293945,-0.1944028149055722
Harry Potter,Bellatrix Lestrange,0.4612173438072204,0.2534420421259237,0.4544133841991424,0.962492324603031,-0.006803959608078003,0.7090502824771073
Dune,Paul Atreides,0.475263386964798,1.0560189280223136,0.4689085483551025,0.6532529036219028,-0.00635483860969549,-0.40276602440041076
Harry Potter,Louis Weasley,0.4619789123535156,0.6541484749566165,0.4558188915252685,0.2578889840328823,-0.006160020828247126,-0.39625949092373425
The Lord of the Rings,Fëanor,0.4521108567714691,0.4860159708887687,0.4460250437259674,0.6571302757098753,-0.006085813045501709,0.17111430482110657
Harry Potter,Peeves,0.4605878293514251,1.233145913433488,0.4546980261802673,1.9797212847966736,-0.005889803171157837,0.7465753713631857
Twilight,Aro,0.4622293412685394,0.3203764627510057,0.4565318822860718,1.161789809079368,-0.005697458982467596,0.8414133463283622
Dune,Korba,0.5202980637550354,0.919296385613698,0.5151761174201965,1.1408700423282307,-0.005121946334838867,0.22157365671453277
Harry Potter,Bartemius Crouch Senior,0.4499427676200866,0.2890588740969484,0.4448238611221313,0.7820869080728803,-0.005118906497955322,0.49302803397593187
Harry Potter,Dobby,0.4430378079414367,0.4778912061664301,0.4382060468196869,0.8355269958401482,-0.004831761121749822,0.3576357896737181
Harry Potter,Peter Pettigrew,0.439274400472641,0.5518819575752251,0.4347728788852691,2.667822673409213,-0.004501521587371882,2.115940715833988
Twilight,Kate,0.5082175731658936,0.0092909007967654,0.5042892098426819,3.1359330333416675e-06,-0.00392836332321167,-0.009287764863732059
Twilight,Renesmee Cullen,0.4533692896366119,0.2003957739847295,0.449503093957901,0.6336242809830143,-0.003866195678710882,0.43322850699828475
Twilight,Carmen,0.4952872097492218,0.0745045757995176,0.4914722442626953,0.0001590148750256,-0.0038149654865264893,-0.07434556092449199
Dune,Vorian Atreides,0.4654883146286011,0.4810919510127356,0.461676150560379,0.6263714752302175,-0.0038121640682221014,0.14527952421748191
Harry Potter,Igor Karkaroff,0.4300591647624969,0.1185537496665181,0.426751434803009,1.8359158127641428,-0.003307729959487915,1.7173620630976247
Harry Potter,Luna Lovegood,0.4645767211914062,0.6238259022389653,0.4613429009914398,1.5649159172310567,-0.003233820199966375,0.9410900149920914
The Hunger Games,Katniss Everdeen,0.4845563769340515,0.1099882937826055,0.4817208051681518,1.510473580635784,-0.0028355717658997137,1.4004852868531785
Harry Potter,Ronald Weasley,0.4654512703418731,0.4721455504174071,0.4626748859882355,0.1901574130328153,-0.00277638435363764,-0.2819881373845918
Dune,Tertius Eileen Anteac,0.5171214938163757,0.9599716945215118,0.5144374966621399,0.2580117834826692,-0.00268399715423584,-0.7019599110388426
Harry Potter,Sirius Black,0.4392881393432617,0.4511392466785318,0.4366599321365356,0.6741745154140073,-0.0026282072067261297,0.22303526873547552
Harry Potter,James Potter II,0.4318004846572876,0.0360627203947301,0.4294745326042175,0.0774648256496093,-0.002325952053070124,0.041402105254879196
Dune,Alia Atreides,0.4822726249694824,0.5359149302021396,0.4800700843334198,0.3977599518639994,-0.002202540636062622,-0.13815497833814028
Dune,Logno,0.5146032571792603,1.9106249426370372,0.5130771398544312,0.2751950568614628,-0.0015261173248291016,-1.6354298857755745
The Lord of the Rings,Galdor,0.5094061493873596,1.1159833070496714,0.5091733932495117,3.4446855583506504,-0.0002327561378479004,2.328702251300979
Harry Potter,Quirinus Quirrell,0.4445041418075561,0.2189395014877245,0.4445823729038238,6.302162901989624,7.82310962677002e-05,6.0832234005018995
Harry Potter,Alice Longbottom,0.5431731939315796,0.7901745802159144,0.5435448884963989,0.0892343713793138,0.00037169456481933594,-0.7009402088366006
Dune,Irulan Corrino,0.5143793225288391,0.3348602584278514,0.5152375102043152,0.0094716067630267,0.0008581876754760742,-0.32538865166482467
The Lord of the Rings,Handir,0.4844471216201782,1.0750647162331015,0.4856396615505218,0.8722875514599088,0.0011925399303435724,-0.20277716477319274
Harry Potter,Ignatius Prewett,0.4871801137924194,0.4932023043441723,0.488484650850296,1.33017904409411,0.0013045370578766424,0.8369767397499377
Twilight,Jacob Black,0.4540936648845672,0.4625145459171214,0.4554227590560913,0.9136896879693291,0.0013290941715241034,0.45117514205220777
Harry Potter,Tom Riddle,0.4464183449745178,0.842250817484116,0.44793701171875,1.4625807262644352,0.0015186667442321777,0.6203299087803192
Twilight,Collin Littlesea,0.4267337918281555,0.1959290491151384,0.4282884001731872,0.2757751569891288,0.0015546083450316828,0.07984610787399041
The Lord of the Rings,Erestor,0.5305899977684021,4.162589726390359,0.5322591662406921,1.593003584680578,0.001669168472290039,-2.569586141709781
The Hunger Games,Gale Hawthorne,0.4236645400524139,0.1030074905618727,0.4258776605129242,1.255525948885735,0.0022131204605103094,1.1525184583238623
Dune,Ghanima Atreides,0.4968699812889099,0.8369040135915626,0.5,0.0190412889652953,0.003130018711090088,-0.8178627246262673
Harry Potter,Nicholas de Mimsy-Porpington,0.4421016573905945,0.448397511373179,0.4452903866767883,4.597857677043716,0.003188729286193792,4.149460165670536
The Lord of the Rings,Hareth,0.4906619787216186,0.6458685488562352,0.4939611554145813,2.514221027726332,0.003299176692962702,1.8683524788700967
Dune,Farad'n Corrino,0.5331212282180786,1.39141791221437,0.5365118384361267,0.8225163626763393,0.0033906102180480957,-0.5689015495380306
Dune,Daniel,0.5189328193664551,1.777215148070226,0.5223586559295654,0.8866722560686856,0.0034258365631103516,-0.8905428920015405
The Lord of the Rings,Legolas,0.449033111333847,0.4938407484802042,0.4525555372238159,0.7749630835867346,0.0035224258899689276,0.2811223351065304
Harry Potter,George Weasley,0.4404493868350982,0.4169702043282884,0.4440170228481293,0.7843570431009249,0.0035676360130310614,0.3673868387726365
Twilight,Benjamin,0.5235551595687866,0.2703467370796133,0.5271337032318115,1.699205690109834e-05,0.0035785436630249023,-0.27032974502271223
The Lord of the Rings,Halbarad,0.5402034521102905,1.5555165009375898,0.5443882346153259,0.9193734631361064,0.0041847825050354,-0.6361430378014834
Harry Potter,Newton Scamander,0.4526854157447815,0.5985131966469549,0.456913024187088,2.6860936758667258,0.0042276084423065186,2.087580479219771
Harry Potter,Remus Lupin,0.4404917955398559,0.4275229034952983,0.4447333812713623,2.4146510191986827,0.004241585731506403,1.9871281157033844
Harry Potter,Sirius Black II,0.4327516555786133,0.8886807851402021,0.4373545050621032,1.8498079363900768,0.004602849483489935,0.9611271512498747
Harry Potter,Nagini,0.4437938332557678,0.2742711416978758,0.4489191472530365,0.4947935457785631,0.005125313997268677,0.2205224040806873
The Lord of the Rings,Faramir,0.4891777634620666,1.9933056139062688,0.4946576356887817,1.0009769697555702,0.005479872226715088,-0.9923286441506987
The Hunger Games,Lucretius Flickerman,0.4977657794952392,0.1629415961848473,0.5035482048988342,0.0133227253071535,0.005782425403595026,-0.1496188708776938
Dune,Faykan Butler,0.4541927576065063,0.0249265380000891,0.459981620311737,5.552317787712694e-05,0.005788862705230713,-0.024871014822211972
Twilight,Jasper Hale,0.4543110728263855,0.6303001184999871,0.4601064324378967,1.2542932210216382,0.005795359611511175,0.6239931025216511
The Lord of the Rings,Shadowfax,0.5600701570510864,3.11919735731716,0.5659462809562683,1.640608785919145,0.005876123905181885,-1.4785885713980151
The Lord of the Rings,Hador,0.518173336982727,1.58841080246865,0.5241454839706421,1.088344472631796,0.005972146987915039,-0.5000663298368542
Harry Potter,Rubeus Hagrid,0.4621366262435913,0.6217401834300766,0.46903857588768,2.956571016403709,0.00690194964408869,2.3348308329736325
Harry Potter,Lucius Malfoy,0.4317816197872162,0.5335285303747163,0.4392226934432983,0.5163010165856022,0.007441073656082098,-0.017227513789114024
Harry Potter,Gregory Goyle,0.5011573433876038,0.0312549099996464,0.5086613297462463,6.408402044599532e-07,0.007503986358642578,-0.03125426915944194
Dune,Gurney Halleck,0.5444483160972595,0.5339192887295017,0.5520815253257751,0.0189497470896588,0.007633209228515625,-0.5149695416398429
The Lord of the Rings,Finduilas,0.5043450593948364,0.632274220881976,0.5123217701911926,0.2413040206072341,0.007976710796356201,-0.39097020027474194
Twilight,Esme Cullen,0.4578909873962402,0.5591127561137629,0.4658684730529785,1.4789642675409154,0.007977485656738337,0.9198515114271525
The Lord of the Rings,Morgoth,0.4952822923660278,0.7517437502222779,0.5033573508262634,3.605734869013335,0.008075058460235651,2.853991118791057
Dune,Bijaz,0.5071148872375488,0.6462591931943981,0.5156342387199402,0.0504894065961158,0.008519351482391357,-0.5957697865982823
Dune,Sheeana Brugh,0.5043639540672302,0.5192340812650102,0.5130999088287354,0.0895398934958691,0.008735954761505127,-0.42969418776914114
Harry Potter,Dexter Fortescue,0.4944321811199188,0.3049940554906587,0.5033755898475647,0.1596566055229994,0.008943408727645874,-0.14533744996765932
Harry Potter,Gellert Grindelwald,0.4383646845817566,0.2174232499546951,0.4474180936813354,0.6002849490572053,0.009053409099578802,0.3828616991025102
The Hitchhiker's Guide to the Galaxy,Zaphod Beeblebrox,0.5275055766105652,2.5190144602293043,0.5366738438606262,1.3347223191943811,0.009168267250061035,-1.1842921410349232
Harry Potter,Filius Flitwick,0.4815472960472107,1.630173243584934,0.4908182024955749,5.699280098700994,0.009270906448364202,4.069106855116059
Harry Potter,Nicolas Flamel,0.5289767980575562,0.0547113081362332,0.5383363962173462,0.0007020239162791,0.009359598159790039,-0.0540092842199541
Dune,Paulus Atreides,0.5223171710968018,0.5989475974585898,0.5316929817199707,0.503055581073807,0.009375810623168945,-0.09589201638478284
Harry Potter,Lee Jordan,0.4662820994853973,0.1744342835277183,0.4759213030338287,0.7629574823196934,0.009639203548431396,0.5885231987919751
Dune,Leto Atreides I,0.4865462183952331,0.4045024875718957,0.4962663054466247,0.024227455622362,0.009720087051391602,-0.3802750319495337
The Hitchhiker's Guide to the Galaxy,Almighty Bob,0.4905094504356384,0.5909423247352042,0.5002472996711731,1.8500763634272333,0.009737849235534668,1.2591340386920291
Harry Potter,Cadmus Peverell,0.5071195960044861,0.5474296398438426,0.5175254344940186,0.0029194528802785,0.01040583848953247,-0.5445101869635641
Dune,Dominic Vernius,0.4946116507053375,0.4389795634399044,0.5052716732025146,0.1023511971995467,0.010660022497177124,-0.3366283662403577
Twilight,Charlie Swan,0.4213856756687164,0.4498903362913304,0.4323393404483795,1.666027704785033,0.010953664779663141,1.2161373684937025
The Lord of the Rings,Gandalf,0.4683649241924286,1.8641340440344576,0.479445606470108,2.943566129836775,0.011080682277679388,1.0794320858023172
Harry Potter,Reginald Cattermole,0.4937774240970611,0.5067418689537313,0.5048711895942688,0.0443989936361694,0.011093765497207697,-0.4623428753175619
Harry Potter,Sybill Trelawney,0.4581634402275085,0.5482148829107473,0.4694057703018188,2.879841094200416,0.011242330074310303,2.3316262112896684
The Lord of the Rings,Thorin II,0.5045325756072998,0.0007322934482175,0.5158685445785522,6.198932369864243e-14,0.011335968971252441,-0.0007322934481555106
Dune,Edric,0.507510781288147,0.7897315362747146,0.5188983678817749,0.3442989693934002,0.01138758659362793,-0.4454325668813144
The Lord of the Rings,Fíli and Kíli,0.5192292332649231,0.2731083845726587,0.5307999849319458,3.5865667022029726e-06,0.011570751667022705,-0.2731047980059565
Twilight,Eric Yorkie,0.500085711479187,0.7050694621904712,0.5122127532958984,0.0416485098261703,0.012127041816711426,-0.6634209523643009
The Lord of the Rings,Fingolfin,0.5022886395454407,0.0253358059908491,0.5144557356834412,2.3619318025066533e-06,0.012167096138000488,-0.025333444059046594
The Hitchhiker's Guide to the Galaxy,Oolon Colluphid,0.5109764337539673,3.494924471198232,0.523297131061554,2.332563684862649,0.01232069730758667,-1.162360786335583
Harry Potter,Porpentina Goldstein,0.4521577656269073,0.2964207283392433,0.4645043909549713,0.7958961882745091,0.01234662532806402,0.4994754599352658
Harry Potter,Sirius Black I,0.4685958325862884,0.7059911402560716,0.4809549748897552,0.8610087759781347,0.012359142303466797,0.15501763572206317
Harry Potter,Seamus Finnigan,0.4365192055702209,0.2414835028043452,0.4489688575267792,0.4189462516119065,0.012449651956558283,0.17746274880756133
Harry Potter,Harry Potter,0.4443931877613067,0.087749434911205,0.4571187496185303,0.4741091192206796,0.012725561857223566,0.3863596843094746
The Hitchhiker's Guide to the Galaxy,Allitnils,0.4362064599990845,0.3346937327370324,0.4490273594856262,1.3148000331605807,0.012820899486541748,0.9801063004235483
Harry Potter,Victoire Weasley,0.4720750153064728,0.4276157716772918,0.4853424727916717,0.065764839997091,0.013267457485198919,-0.3618509316802008
Harry Potter,Piers Polkiss,0.5051007866859436,0.8832067491982498,0.5188909769058228,1.1059280777187028,0.01379019021987915,0.222721328520453
Harry Potter,Angelina Johnson,0.4544048607349396,0.4981234406919799,0.4686422944068908,0.4752837056976108,0.014237433671951238,-0.022839734994369087
The Lord of the Rings,Fingon,0.50736403465271,0.2331505481111715,0.5217533707618713,0.0008768081132217,0.014389336109161377,-0.2322737399979498
The Lord of the Rings,Ecthelion,0.4312361776828766,0.9034334532769908,0.4456978738307953,0.0528181546345158,0.014461696147918701,-0.850615298642475
The Hitchhiker's Guide to the Galaxy,Random Dent,0.4872552454471588,0.730590806312388,0.5017336010932922,0.5736767084024997,0.014478355646133423,-0.1569140979098883
Harry Potter,Ignotus Peverell,0.516290009021759,0.2539714131695451,0.5310029983520508,0.0064115286622258,0.014712989330291748,-0.24755988450731928
Harry Potter,Rita Skeeter,0.4587719142436981,0.9114597085491148,0.4738492369651794,1.0104308133364373,0.015077322721481268,0.0989711047873224
Dune,Darwi Odrade,0.536483108997345,0.0083372774090292,0.551603376865387,8.973373912887733e-05,0.015120267868041992,-0.008247543669900322
The Lord of the Rings,Smaug,0.4648820757865906,0.3524463914799617,0.4800652265548706,1.3515472953976442,0.01518315076828003,0.9991009039176825
The Lord of the Rings,Galadriel,0.4836136102676391,1.6749693381935893,0.4992484152317047,3.2063685807969784,0.015634804964065607,1.531399242603389
Twilight,Tia,0.4881680905818939,0.121222893372583,0.5040939450263977,6.961811002554015e-05,0.015925854444503784,-0.12115327526255747
Twilight,Huilen,0.4822165071964264,0.0970548485684503,0.4986706674098968,0.0099519003700454,0.016454160213470403,-0.0871029481984049
Harry Potter,Abraxas Malfoy,0.5116108059883118,2.722284294512817,0.528152585029602,0.4422563753049664,0.016541779041290283,-2.2800279192078508
The Lord of the Rings,Turgon,0.5152546167373657,0.7196076748658506,0.5317980051040649,0.0155983288966584,0.01654338836669922,-0.7040093459691923
Dune,Victor Atreides,0.5053738355636597,0.8780493156250442,0.5219838619232178,0.6441260360836389,0.016610026359558105,-0.23392327954140524
Harry Potter,Dean Thomas,0.4422601759433746,0.3565506139410043,0.4590863287448883,1.938231684929948,0.016826152801513727,1.5816810709889437
Twilight,Nahuel,0.4806161224842071,0.0030237759400889,0.4974486529827118,4.074022142901286e-06,0.016832530498504694,-0.003019701917945999
The Lord of the Rings,Haldir,0.5345706343650818,0.9740524529530928,0.5514468550682068,0.1798993731779006,0.016876220703125,-0.7941530797751922
The Lord of the Rings,Eöl,0.5101185441017151,0.6494136958348102,0.5270647406578064,0.2854043157767277,0.01694619655609131,-0.36400938005808253
Twilight,Rosalie Hale,0.4466276168823242,0.1881415226538212,0.4639298915863037,0.5961943617331009,0.017302274703979492,0.4080528390792797
The Hitchhiker's Guide to the Galaxy,God,0.4983585476875305,2.80915199636638,0.5157172679901123,3.0529506712113665,0.017358720302581787,0.24379867484498652
The Lord of the Rings,Elrond,0.4814432561397552,1.9066771373142477,0.4988417327404022,2.981981024107577,0.017398476600647028,1.0753038867933293
The Hitchhiker's Guide to the Galaxy,Arthur Dent,0.5104024410247803,0.8366529425578266,0.5278688669204712,0.082972603286987,0.017466425895690918,-0.7536803392708397
The Hitchhiker's Guide to the Galaxy,Agda,0.5112017393112183,0.0090290968271346,0.5287888646125793,2.0108659815402974,0.017587125301361084,2.0018368847131627
Harry Potter,Stanley Shunpike,0.5116391777992249,0.181094307668219,0.5294852256774902,0.0056967415733043,0.01784604787826538,-0.1753975660949147
Twilight,Sam Uley,0.4465399384498596,0.1580871110863526,0.4652275443077087,0.715707424161233,0.018687605857849066,0.5576203130748805
The Lord of the Rings,Morwen,0.5035339593887329,0.6349007574535617,0.5222731828689575,0.2733940888940075,0.01873922348022461,-0.36150666855955416
Dune,Liet-Kynes,0.5251116156578064,0.7487577307844114,0.544280469417572,1.1512298258502456,0.019168853759765625,0.40247209506583415
Twilight,Garrett,0.4824860095977783,0.1012772571840393,0.5020184516906738,0.0170618728211953,0.019532442092895508,-0.084215384362844
Dune,Tio Holtzman,0.5274263620376587,0.515163478282085,0.5471019148826599,0.023445820625701,0.01967555284500122,-0.491717657656384
The Hitchhiker's Guide to the Galaxy,Ford Prefect,0.5028705596923828,0.0487859876331937,0.5226372480392456,8.812170712380995e-05,0.019766688346862793,-0.048697865926069894
Dune,Marty,0.4792817533016205,0.7280740326746394,0.4993573129177093,0.1588863758641067,0.02007555961608881,-0.5691876568105327
Harry Potter,Evan Rosier,0.5070687532424927,0.6047670895687738,0.5272225737571716,0.946096669336646,0.020153820514678955,0.34132957976787226
Dune,Aramsham,0.4641391634941101,0.4544422923442146,0.4845773875713348,0.8127568286147788,0.020438224077224676,0.3583145362705642
The Lord of the Rings,Gimli,0.5107972621917725,0.1344380169885839,0.5312908291816711,0.0010502826036163,0.02049356698989868,-0.1333877343849676
Twilight,Quil Ateara III,0.5086703896522522,1.3297878312640377,0.5293914675712585,0.6705967737576495,0.020721077919006348,-0.6591910575063882
Harry Potter,Aberforth Dumbledore,0.439961314201355,0.3804661496601506,0.4609413743019104,1.5795610558685258,0.02098006010055542,1.199094906208375
The Hitchhiker's Guide to the Galaxy,Lintilla,0.4855124652385711,1.233854575936455,0.5066788196563721,0.1356336097707527,0.02116635441780096,-1.0982209661657023
Dune,Ramallo,0.4951575994491577,0.9747248480575008,0.5169386267662048,0.7338078391350811,0.02178102731704712,-0.24091700892241974
The Lord of the Rings,Rían,0.4961355924606323,0.9946956434845338,0.5180808901786804,0.8743378123412466,0.021945297718048096,-0.12035783114328713
The Hunger Games,Palmyra Monty,0.487560361623764,1.3511176525859887,0.5095211863517761,6.760745934657895,0.02196082472801214,5.409628282071907
Dune,Serena Butler,0.5059524774551392,0.1368107426912096,0.5279148817062378,6.365008228406361e-05,0.021962404251098633,-0.13674709260892554
Dune,Farok,0.4914568066596985,0.2526507789809973,0.513570249080658,1.2662744929738627,0.022113442420959473,1.0136237139928654
Twilight,Riley Biers,0.4901560544967651,0.0527097632436116,0.5125524401664734,0.0001648423605823,0.022396385669708307,-0.052544920883029304
Dune,Gaius Helen Mohiam,0.5053005814552307,0.5883202830516998,0.5277078747749329,0.486373662513295,0.02240729331970215,-0.10194662053840481
The Lord of the Rings,Curufin,0.5269293189048767,0.6972882576829325,0.5494112968444824,0.174801767292902,0.022481977939605713,-0.5224864903900305
Twilight,Eleazar,0.5092800259590149,0.0770331382266352,0.5318141579627991,0.0042686269341244,0.02253413200378418,-0.0727645112925108
Harry Potter,Millicent Bulstrode,0.5103342533111572,0.631463806450353,0.5328689217567444,0.0225966779625303,0.022534668445587158,-0.6088671284878228
Dune,Marcus Claire Luyseyal,0.4881881177425384,1.7373048076086937,0.5107654929161072,2.478274282387815,0.02257737517356878,0.7409694747791216
Dune,Hwi Noree,0.5152681469917297,1.0109310615941849,0.5379900336265564,0.1518654640025657,0.02272188663482666,-0.8590655975916192
The Lord of the Rings,Peregrin Took,0.5051109790802002,0.0387485409175478,0.5279164910316467,0.014012182356224,0.022805511951446533,-0.0247363585613238
The Lord of the Rings,Húrin,0.5138395428657532,0.2084805183714002,0.5366945266723633,0.0461826393221172,0.022854983806610107,-0.162297879049283
The Lord of the Rings,Baragund,0.5189000368118286,0.4838161711203855,0.5419530272483826,1.237998620880478,0.023052990436553955,0.7541824497600926
The Lord of the Rings,Celebrimbor,0.5067253708839417,1.057553330185533,0.5297908186912537,4.509701427063241,0.02306544780731201,3.4521480968777083
Harry Potter,Pomona Sprout,0.4553911685943603,0.5991124690808854,0.4785096645355224,9.7700966353358,0.02311849594116211,9.170984166254915
The Hitchhiker's Guide to the Galaxy,Mr Prosser,0.5088934302330017,4.318724304727283,0.5321364998817444,6.693953706336869,0.023243069648742676,2.3752294016095856
Harry Potter,Gilderoy Lockhart,0.4285164475440979,0.5575312214243104,0.451913446187973,6.319755578667511,0.023396998643875122,5.7622243572432
Harry Potter,Rosmerta,0.5229362845420837,0.0501180396390675,0.5464492440223694,0.0001213178578782,0.023512959480285645,-0.0499967217811893
Dune,Siona Atreides,0.525655210018158,0.760034515851974,0.5492343306541443,0.1137882348869456,0.023579120635986328,-0.6462462809650285
The Lord of the Rings,Sauron,0.4608953893184662,1.53141237184999,0.4845940172672272,3.1077663702399985,0.023698627948760986,1.5763539983900086
Twilight,Marcus,0.4986763596534729,0.0955367626922656,0.5225239396095276,0.0002537160997281,0.023847579956054688,-0.0952830465925375
Dune,Norma Cevna,0.504818320274353,0.9409330621425288,0.528740406036377,0.6579051343177426,0.023922085762023926,-0.28302792782478625
Twilight,Mexican coven,0.4761538505554199,0.617374634753648,0.5001615285873413,0.279628874873398,0.024007678031921387,-0.33774575988024996
The Lord of the Rings,Huor,0.5211780071258545,1.9514863175383212,0.5451857447624207,0.7122223494855264,0.024007737636566162,-1.2392639680527948
The Hunger Games,Mrs. Everdeen,0.4923335909843445,0.7042889756336381,0.5165349841117859,0.0354320732888684,0.024201393127441406,-0.6688569023447697
The Hunger Games,Alma Coin,0.4886846244335174,0.468572036166586,0.5130079388618469,2.4837320395148105e-05,0.024323314428329523,-0.46854719884619084
Dune,Liet Kynes,0.5239098072052002,1.0709727789405448,0.5483620166778564,0.3553751776220851,0.02445220947265625,-0.7155976013184597
The Lord of the Rings,Bard,0.5050056576728821,0.0263558218554472,0.5294986367225647,3.8916732286303865e-05,0.024492979049682617,-0.026316905123160896
Dune,Zufa Cenva,0.4905062317848205,0.4587798233452558,0.5150262713432312,0.0418490094817323,0.0245200395584107,-0.4169308138635235
The Hitchhiker's Guide to the Galaxy,Marvin,0.5021483302116394,0.177914968284265,0.5272244215011597,0.086622199027506,0.025076091289520264,-0.09129276925675901
Harry Potter,Hepzibah Smith,0.5040813088417053,0.0141398925730186,0.529179573059082,0.0016910745297791,0.02509826421737671,-0.012448818043239501
Harry Potter,Antioch Peverell,0.5058832168579102,0.5252931342712709,0.5311525464057922,0.1146582654783348,0.02526932954788208,-0.4106348687929361
The Lord of the Rings,Amlach,0.5124720931053162,0.9659121001635894,0.5379443764686584,1.7768019393816916,0.025472283363342285,0.8108898392181022
Twilight,Tanya,0.4948145747184753,0.0279751042987792,0.5204833745956421,8.002467585252991e-06,0.025668799877166804,-0.027967101831193948
Twilight,Randall,0.5105313062667847,0.7926058356692781,0.5362573862075806,0.6021940269499707,0.0257260799407959,-0.1904118087193074
Harry Potter,Nymphadora Tonks,0.4435421824455261,0.6859964459287748,0.469773381948471,0.5048507440186165,0.02623119950294489,-0.18114570191015833
Dune,Lucilla,0.5099300146102905,1.401826511542328,0.5361635088920593,0.4152892026386919,0.0262334942817688,-0.9865373089036362
The Lord of the Rings,Arwen,0.5305920243263245,0.3775532856238124,0.5569050312042236,0.0198458560674264,0.02631300687789917,-0.357707429556386
Dune,Duncan Idaho,0.4306022822856903,0.7432827616520465,0.4569325149059295,0.985797118046122,0.026330232620239202,0.24251435639407548
The Lord of the Rings,Thráin II,0.5144786238670349,0.207425169155333,0.5409236550331116,0.101525871987325,0.02644503116607666,-0.10589929716800799
The Hunger Games,Clemensia Dovecote,0.4968879520893097,0.0170611288397921,0.523499071598053,0.0001008222030743,0.026611119508743286,-0.016960306636717798
Dune,Scytale,0.5065829157829285,0.9726858826492012,0.533208966255188,0.0221545722323805,0.02662605047225952,-0.9505313104168207
Twilight,Caius,0.5130079388618469,0.0324452166180314,0.5396819114685059,1.3461209166752e-05,0.026673972606658936,-0.03243175540886465
Twilight,Billy Black,0.5037399530410767,0.0011753254804401,0.5305846333503723,3.265647245663343e-08,0.026844680309295654,-0.0011752928239676436
Harry Potter,Galatea Merrythought,0.5011895895004272,0.5909507568635429,0.5282485485076904,0.6287319449509017,0.027058959007263184,0.03778118808735875
Twilight,Vasilii,0.4976499378681183,1.2087148512733323,0.524995744228363,0.7252319602120292,0.02734580636024475,-0.48348289106130315
The Lord of the Rings,Nienor,0.5087598562240601,0.6209307330328973,0.5361229181289673,0.2534292511098346,0.027363061904907227,-0.36750148192306265
Twilight,Leah Clearwater,0.5022733211517334,0.0041175914692589,0.5302123427391052,4.384355372214623e-07,0.027939021587371826,-0.004117153033721679
The Hitchhiker's Guide to the Galaxy,Prostetnic Vogon Jeltz,0.4988266229629516,0.8692090518030713,0.5272074341773987,5.493615467566085,0.028380811214447077,4.624406415763014
The Lord of the Rings,Boromir,0.5241677165031433,0.1181406419667116,0.5525522828102112,0.0054846795923469,0.02838456630706787,-0.1126559623743647
The Lord of the Rings,Gríma,0.5452985763549805,0.1250742541756265,0.5739209651947021,0.0014445505754212,0.02862238883972168,-0.12362970360020531
The Lord of the Rings,Thingol,0.4958104193210602,0.2436274625626812,0.5246247053146362,0.0049826164501031,0.02881428599357605,-0.2386448461125781
The Hitchhiker's Guide to the Galaxy,Max Quordlepleen,0.4683612883090973,0.6472498624723172,0.4973364174365997,3.2147789399329074,0.028975129127502386,2.5675290774605903
Twilight,Embry Call,0.4736196398735046,0.6357518729027831,0.5026254653930664,0.0012737631569219,0.029005825519561823,-0.6344781097458613
Dune,Pardot Kynes,0.5138195753097534,0.3631800161713162,0.54291170835495,0.1188006488069928,0.029092133045196533,-0.24437936736432336
The Hunger Games,Coral,0.5041736960411072,0.0364129919837355,0.5333076119422913,0.0004916603460607,0.029133915901184082,-0.0359213316376748
The Hitchhiker's Guide to the Galaxy,Gag Halfrunt,0.4925911724567413,0.4585229949614054,0.5219084620475769,2.089596555298776,0.029317289590835627,1.6310735603373707
Harry Potter,Radolphus Lestrange,0.4698574244976043,1.1205566695908122,0.4993914067745209,1.2897678913866335,0.02953398227691656,0.16921122179582126
Dune,Thufir Hawat,0.5405481457710266,0.892894372436974,0.5702359080314636,0.0228922649099119,0.02968776226043701,-0.8700021075270621
The Hitchhiker's Guide to the Galaxy,Murray Bost Henson,0.5009537935256958,0.8650247165365152,0.5307431817054749,2.131904644327854,0.029789388179779053,1.266879927791339
Twilight,Emmett Cullen,0.4617887139320373,0.5848577373289497,0.4918141067028045,1.229882472097879,0.030025392770767212,0.6450247347689292
The Lord of the Rings,Saruman,0.4527406990528106,0.6746712656900681,0.482961505651474,3.480506052068393,0.030220806598663386,2.8058347863783246
Harry Potter,Justin Finch-Fletchley,0.5097084641456604,0.0030629468760824,0.5399928092956543,2.086270966029308e-06,0.030284345149993896,-0.003060860605116371
The Lord of the Rings,Denethor II,0.5090440511703491,0.4427748040732883,0.5393776297569275,0.0150714007096932,0.03033357858657837,-0.4277034033635951
Dune,Glossu Rabban Harkonnen,0.5234180092811584,1.040041833978686,0.5540176033973694,1.0121267484968228,0.030599594116210938,-0.027915085481863278
The Lord of the Rings,Thrór,0.5086534023284912,0.3902141821370657,0.5392593145370483,0.0189457615107746,0.03060591220855713,-0.3712684206262911
Harry Potter,Kingsley Shacklebolt,0.5153641104698181,0.0021496749559594,0.546042799949646,0.0003220251355843,0.03067868947982788,-0.0018276498203751
The Hitchhiker's Guide to the Galaxy,Mella,0.481859028339386,0.3536485779118626,0.5125448703765869,3.864342768834259,0.030685842037200928,3.5106941909223965
Harry Potter,Amos Diggory,0.5232454538345337,0.0455912122238546,0.5543674826622009,1.5437027989862657e-05,0.031122028827667236,-0.04557577519586474
The Lord of the Rings,Eärendil,0.5218246579170227,0.2374450139505609,0.5529740452766418,0.1858125783956537,0.03114938735961914,-0.05163243555490718
The Lord of the Rings,Tom Bombadil,0.5555573105812073,0.0046206003765287,0.5867260694503784,0.0001369321232673,0.031168758869171143,-0.004483668253261399
The Hitchhiker's Guide to the Galaxy,Reg Nullify,0.4718965590000152,0.732566560752424,0.5031888484954834,0.9387981627860932,0.031292289495468195,0.2062316020336692
The Lord of the Rings,Elendil,0.5218909978866577,0.0130834019210366,0.553233802318573,0.0039578209353234,0.03134280443191528,-0.0091255809857132
Dune,Jehanne Butler,0.4977191984653473,1.160610281011882,0.5291381478309631,0.3361658627024659,0.031418949365615845,-0.824444418309416
Dune,Harah,0.4790497124195099,0.7169978842049008,0.5105242133140564,0.0005540146539405,0.03147450089454651,-0.7164438695509604
The Hitchhiker's Guide to the Galaxy,Frankie and Benjy,0.4984708130359649,2.5810864289806434,0.529952347278595,0.4140006520024565,0.03148153424263006,-2.167085776978187
Dune,Leto Atreides II,0.435349702835083,0.3584839649690369,0.4671371281147003,1.162239077604367,0.03178742527961731,0.8037551126353301
Dune,Shando Vernius,0.4806986451148987,0.7962298181287515,0.5127638578414917,0.5847123792064839,0.03206521272659302,-0.2115174389222676
Dune,Bellonda,0.5110083222389221,1.4250345742292878,0.5434740781784058,1.319385444025332,0.03246575593948364,-0.10564913020395572
The Hitchhiker's Guide to the Galaxy,Loonquawl,0.4905512034893036,1.0880415049049648,0.5231997966766357,0.912282620068297,0.03264859318733215,-0.1757588848366678
Harry Potter,Viktor Krum,0.4503336548805237,0.3972958215585611,0.4830185174942016,1.094180660764281,0.03268486261367792,0.6968848392057199
Harry Potter,Astoria Malfoy,0.4970783293247223,0.190809508483697,0.529772162437439,0.0747296299500527,0.032693833112716675,-0.11607987853364429
Twilight,Jane,0.5112879276275635,0.0299260924886111,0.5439932942390442,2.910038324003551e-06,0.03270536661148071,-0.0299231824502871
The Hitchhiker's Guide to the Galaxy,Ruler of the Universe,0.5010707974433899,1.112097138724288,0.5338650941848755,3.4558857645636705,0.032794296741485596,2.3437886258393825
Harry Potter,Anthony Goldstein,0.4943319261074066,0.1704634474134773,0.5273448824882507,0.0288337394219602,0.033012956380844116,-0.14162970799151708
Dune,Jamis,0.4976398944854736,0.4601588857393504,0.5307971239089966,0.0620733998485597,0.033157229423523005,-0.3980854858907907
The Hitchhiker's Guide to the Galaxy,Deep Thought,0.5161760449409485,3.298440026837933,0.549379825592041,4.211763750328522,0.03320378065109253,0.9133237234905893
The Hitchhiker's Guide to the Galaxy,Hillman Hunter,0.5095416307449341,1.5175507068390162,0.5432708859443665,1.765636244338519,0.03372925519943237,0.2480855374995028
Harry Potter,Helga Hufflepuff,0.5153310298919678,0.95496777959474,0.5492783188819885,0.1160912609342659,0.03394728899002075,-0.8388765186604741
The Hitchhiker's Guide to the Galaxy,Lig Lury Jr,0.5063257217407227,4.814829618872357,0.5402927994728088,1.1890879353641042,0.03396707773208618,-3.625741683508253
The Hunger Games,Hilarius Heavensbee,0.4951103627681732,0.7161396962156683,0.5291473865509033,1.248197113966103,0.0340370237827301,0.5320574177504347
Twilight,Peter,0.4881868064403534,0.0055139473766313,0.5223390460014343,3.571632622594117e-07,0.03415223956108093,-0.005513590213369041
Harry Potter,Albus Dumbledore,0.4280836284160614,0.5300415154093028,0.4623830318450928,2.0296755559231205,0.03429940342903137,1.4996340405138178
Harry Potter,Dilys Derwent,0.4831989109516144,0.7765530075643879,0.5175477862358093,0.5046744596562014,0.034348875284194946,-0.27187854790818655
Twilight,Irina,0.470138281583786,0.0024579253265756,0.5045228004455566,1.5320277844471137e-05,0.03438451886177063,-0.002442605048731129
Harry Potter,Oliver Wood,0.512707531452179,0.01225683331355,0.547406017780304,0.0002267466862838,0.034698486328125,-0.0120300866272662
Harry Potter,Ludovic Bagman,0.4904271066188812,0.0108075230847896,0.52522212266922,0.0001411572842339,0.034795016050338745,-0.0106663658005557
The Lord of the Rings,Théoden,0.5182898044586182,0.7738611620859397,0.5532655715942383,0.0117856317736442,0.03497576713562012,-0.7620755303122955
The Hitchhiker's Guide to the Galaxy,Caveman,0.4493281543254852,0.8532140394068194,0.4843088090419769,1.553444973821121,0.0349806547164917,0.7002309344143015
The Hitchhiker's Guide to the Galaxy,Trillian,0.5225361585617065,0.996532849187981,0.5575310587882996,0.0165348861052277,0.03499490022659302,-0.9799979630827533
The Hitchhiker's Guide to the Galaxy,Alice Beeblebrox,0.4957469999790191,0.4318234513995117,0.5307592153549194,1.3733599282782645,0.035012215375900324,0.9415364768787527
Twilight,Quil Ateara V,0.5131765604019165,0.5332838435645686,0.5482388138771057,0.0046602708874737,0.03506225347518921,-0.5286235726770949
Dune,Hasimir Fenring,0.5153005123138428,1.5385246976002915,0.5507274270057678,1.985205607864301,0.03542691469192505,0.44668091026400947
The Lord of the Rings,Samwise Gamgee,0.516346275806427,0.0086353743028511,0.5517829060554504,6.587088113698992e-06,0.03543663024902344,-0.0086287872147374
Harry Potter,Amelia Bones,0.4853380024433136,0.0026813490019191,0.5207808613777161,6.355642097197657e-05,0.035442858934402466,-0.002617792580947123
Harry Potter,Cormac McLaggen,0.5016866326332092,0.0045685164798883,0.5371431112289429,4.969169167102703e-05,0.03545647859573364,-0.004518824788217273
The Lord of the Rings,Maedhros,0.5247319340705872,0.2123965678051731,0.5603326559066772,0.0002969941491448,0.03560072183609009,-0.2120995736560283
Twilight,Laurent,0.4904041588306427,0.0904030974613761,0.526269257068634,0.0005237260678788,0.03586509823799133,-0.0898793713934973
Harry Potter,Parvati Patil,0.4863580167293548,4.846955889740885e-05,0.5227300524711609,7.186875188866861e-10,0.036372035741806086,-4.846884020988996e-05
Dune,Stilgar,0.497808039188385,0.5928535300523808,0.5342109203338623,0.0981198917767718,0.036402881145477295,-0.494733638275609
Harry Potter,Augustus Rookwood,0.5091837048530579,0.635698482380658,0.5456185936927795,0.0487423070392276,0.03643488883972168,-0.5869561753414304
The Hitchhiker's Guide to the Galaxy,Lunkwill and Fook,0.4703220129013061,0.7222041232070177,0.50676429271698,1.3777189736983275,0.036442279815673884,0.6555148504913099
Twilight,Alec,0.4980205297470093,5.69776817895873e-05,0.5346221327781677,0.0001958884672121,0.03660160303115845,0.0001389107854225127
Twilight,Charlotte,0.475521981716156,0.2087086186847072,0.5121451616287231,0.0037026609804836,0.03662317991256714,-0.20500595770422358
Dune,Minotauros Atreides,0.4936800599098205,1.0926740097497365,0.5304136872291565,0.1683827785651912,0.03673362731933599,-0.9242912311845453
The Lord of the Rings,Glóredhel,0.4914701879024505,0.8106219507015622,0.5282789468765259,1.5200741821498482,0.03680875897407537,0.7094522314482861
The Hitchhiker's Guide to the Galaxy,Dan Streetmentioner,0.498556911945343,2.340850178909282,0.5353698134422302,2.77695805865376,0.03681290149688721,0.43610787974447796
The Hunger Games,Effie Trinket,0.5257339477539062,7.600320478722381e-05,0.5627817511558533,5.603280758866763e-09,0.03704780340194702,-7.599760150646494e-05
The Lord of the Rings,Meriadoc Brandybuck,0.5133464932441711,0.5250487917458937,0.550666332244873,0.0315829500147008,0.037319839000701904,-0.4934658417311929
Harry Potter,Cedric Diggory,0.4434936642646789,0.2648299538387257,0.4809842407703399,1.6465408930425656,0.03749057650566101,1.3817109392038398
Harry Potter,Hugo Granger-Weasley,0.4842070341110229,1.3436759752415224,0.5218991041183472,0.935146620592008,0.037692070007324274,-0.40852935464951434
Harry Potter,Michael Corner,0.4988413453102112,0.0587544529964834,0.5366568565368652,3.612369555651567e-06,0.03781551122665405,-0.05875084062692775
The Hitchhiker's Guide to the Galaxy,Lajestic Vantrashell of Lob,0.4946290254592895,0.788683257973526,0.5325215458869934,1.4285529850515457,0.03789252042770391,0.6398697270780197
Harry Potter,Penelope Clearwater,0.5008800029754639,0.1479451224093512,0.5388537645339966,0.0344081355231202,0.037973761558532715,-0.11353698688623101
The Lord of the Rings,Glaurung,0.5107595324516296,1.0976330498120732,0.5491192936897278,0.2809735471299492,0.038359761238098145,-0.816659502682124
The Lord of the Rings,Celegorm,0.5223082900047302,0.7356652172163988,0.560785710811615,0.7826825216451271,0.038477420806884766,0.04701730442872831
Harry Potter,Garrick Ollivander,0.503818154335022,0.0023961813414662,0.5423436760902405,6.208807353955185e-07,0.038525521755218506,-0.0023955604607308048
Twilight,Felix,0.5224718451499939,0.0693820901641001,0.5610885620117188,0.0005803898269925,0.038616716861724854,-0.0688017003371076
The Hitchhiker's Guide to the Galaxy,Old Man on the Pole,0.4790807068347931,1.1817041078963724,0.5179263353347778,5.0785527838217,0.03884562849998474,3.8968486759253276
Twilight,Sue Clearwater,0.5133580565452576,0.4495958995794494,0.5527017712593079,0.0077884962486747,0.03934371471405029,-0.4418074033307747
Twilight,Harry Clearwater,0.5209450721740723,2.484474152342066,0.5603581666946411,0.2954096021337358,0.03941309452056885,-2.1890645502083306
Twilight,J. Jenks,0.5021610856056213,1.1749364426276203,0.5415865182876587,0.0636886270483935,0.039425432682037354,-1.111247815579227
The Lord of the Rings,Lindir,0.5308339595794678,2.8669263177889683,0.5704033970832825,1.4879310709079154,0.0395694375038147,-1.378995246881053
Harry Potter,Gabrielle Delacour,0.482609212398529,0.4698235452780161,0.5222122669219971,0.2225815838969083,0.03960305452346807,-0.24724196138110782
The Lord of the Rings,Treebeard,0.5185574889183044,1.2924189206223544,0.5584478378295898,0.0426045557781971,0.0398903489112854,-1.2498143648441573
Dune,Wensicia Corrino,0.5032896399497986,0.5391336026435865,0.5432509183883667,0.4904736340133676,0.039961278438568115,-0.048659968630218875
The Lord of the Rings,Celeborn,0.5215296149253845,0.0167471083468386,0.5615239143371582,2.142140399366893e-05,0.03999429941177368,-0.01672568694284493
Harry Potter,Crookshanks,0.5288292169570923,0.219924038225042,0.5692062377929688,0.0064440835888607,0.040377020835876465,-0.2134799546361813
Harry Potter,Zacharias Smith,0.4820167422294616,0.1741637705911051,0.5226630568504333,0.0036741426064662,0.040646314620971735,-0.1704896279846389
Dune,Iakin Nefud,0.4791484773159027,0.2640108801746009,0.5199869871139526,0.98270983524692,0.04083850979804993,0.7186989550723191
Harry Potter,Vincent Crabbe,0.4900419116020202,0.019456977760415,0.5308857560157776,9.875276038060636e-07,0.04084384441375738,-0.019455990232811193
Harry Potter,Winky,0.5300799608230591,0.4985487122095663,0.5709412693977356,2.3353998210273716e-09,0.040861308574676514,-0.4985487098741665
The Hitchhiker's Guide to the Galaxy,Colin the Security Robot,0.4999342858791351,0.976077601788665,0.5409278273582458,1.6172071174414118,0.04099354147911077,0.6411295156527468
The Lord of the Rings,Glóin,0.5173260569572449,0.7753463717986114,0.5583321452140808,0.3580201109112615,0.04100608825683594,-0.4173262608873499
The Hitchhiker's Guide to the Galaxy,Prostetnic Vogon Kwaltz,0.4778609573841095,2.822516176868135,0.5188731551170349,6.296859603897407,0.041012197732925415,3.474343427029272
Dune,Kailea Vernius,0.5006990432739258,1.2819557902143066,0.5422921180725098,0.5114421845178385,0.041593074798583984,-0.7705136056964681
Dune,Hedley Tuek,0.4864819049835205,0.7164396077823254,0.5281742215156555,1.6249834470605626,0.04169231653213501,0.9085438392782372
The Lord of the Rings,Forlong,0.5085343718528748,1.549760866172044,0.5502689480781555,0.8266883258751802,0.04173457622528076,-0.7230725402968637
Harry Potter,Katie Bell,0.4919006526470184,0.0001769203239268,0.5337795615196228,9.19940473134516e-10,0.041878908872604426,-0.00017691940398632686
The Lord of the Rings,Finrod,0.5122394561767578,0.1775823841196118,0.5545536875724792,0.1981583361706848,0.042314231395721436,0.020575952051072988
Twilight,Zafrina,0.4987817406654358,0.2025233082579344,0.5411728620529175,0.0028857634549945,0.04239112138748169,-0.1996375448029399
Harry Potter,Frank Longbottom,0.5271263718605042,0.7464672395819767,0.5695174932479858,0.1059748523121532,0.04239112138748169,-0.6404923872698235
Harry Potter,Amycus Carrow,0.5033026933670044,0.7280029986174057,0.5457427501678467,0.000225987272032,0.042440056800842285,-0.7277770113453736
The Lord of the Rings,Glorfindel,0.5237315893173218,0.0247820014997296,0.5661776661872864,0.0005118026420829,0.0424460768699646,-0.0242701988576467
The Lord of the Rings,Balin,0.5085909962654114,0.1189396903892646,0.5512982606887817,0.000619367526984,0.04270726442337036,-0.1183203228622806
Twilight,Mike Newton,0.5011588335037231,0.141374825432708,0.5439550280570984,0.0013103557818105,0.042796194553375244,-0.1400644696508975
Harry Potter,Merope Riddle,0.4946983456611633,6.519697389556579e-05,0.5378767848014832,1.2872924920795641e-08,0.04317843914031988,-6.518410097064499e-05
Twilight,Bree Tanner,0.4895860850811004,0.0027619723448355,0.5328367352485657,4.932456015088068e-07,0.043250650167465265,-0.0027614790992339915
The Lord of the Rings,Barahir,0.4928971230983734,2.00003374129367,0.5363517999649048,0.4027738909449855,0.04345467686653137,-1.5972598503486846
Harry Potter,Beedle the Bard,0.5139830708503723,2.351525735391917,0.5576179623603821,7.8120300997627075,0.043634891510009766,5.460504364370791
Harry Potter,Walden Macnair,0.4983507692813873,0.0769456313264446,0.5421335101127625,0.0001062938212905,0.04378274083137518,-0.07683933750515409
Twilight,Tyler Crowley,0.5106507539749146,0.3095111610422963,0.5545148253440857,0.0622954379124793,0.04386407136917114,-0.24721572312981702
Dune,Raquella Berto-Anirul,0.4950067400932312,0.6736190323678809,0.5390993356704712,0.2187400306732795,0.04409259557723999,-0.4548790016946014
Harry Potter,Cho Chang,0.4231358468532562,0.3988075322288494,0.4674471914768219,0.6284094386050539,0.044311344623565674,0.22960190637620453
The Lord of the Rings,Beorn,0.5323838591575623,0.4035582584195729,0.5768317580223083,0.0997077545284254,0.044447898864746094,-0.3038505038911475
Dune,Rhombur Vernius,0.4708586931228637,0.1710636479778642,0.5153435468673706,0.3311951378907922,0.04448485374450689,0.160131489912928
The Lord of the Rings,Círdan,0.5244083404541016,0.0041011724128416,0.5692238807678223,0.0052680420482716,0.0448155403137207,0.0011668696354300004
Harry Potter,Ernest Prang,0.4916805922985077,0.9373748969752136,0.5365779995918274,0.4767209001120712,0.0448974072933197,-0.4606539968631424
Dune,Helena Atreides,0.4995802938938141,0.6356990969259351,0.54463130235672,0.2251058415891642,0.045051008462905884,-0.4105932553367709
Dune,Schwangyu,0.5012314915657043,1.6685941357419745,0.5462884306907654,2.5507629847737583,0.045056939125061035,0.8821688490317838
The Lord of the Rings,Éowyn,0.5037795305252075,0.361386855873899,0.5493127107620239,0.0015152985022966,0.045533180236816406,-0.3598715573716024
Harry Potter,Rufus Scrimgeour,0.515264093875885,0.0010522797096094,0.5608766674995422,3.615685831637234e-07,0.04561257362365723,-0.0010519181410262363
The Hunger Games,Treech,0.4814959466457367,0.1205940027584875,0.5275515913963318,0.020602210904005,0.04605564475059509,-0.09999179185448251
Twilight,Demetri,0.5160878300666809,0.0362002180763083,0.5621719360351562,3.9644251217159456e-05,0.04608410596847534,-0.03616057382509114
Harry Potter,Aurora Sinistra,0.532209038734436,0.1915202459688135,0.5783342123031616,0.0001246656519901,0.046125173568725586,-0.1913955803168234
Harry Potter,Corban Yaxley,0.5104935169219971,0.0072546288915912,0.5566244125366211,6.774941150943522e-05,0.04613089561462402,-0.007186879480081765
Harry Potter,Marietta Edgecombe,0.5108231902122498,0.0089645376260611,0.5571213960647583,5.566032796707329e-09,0.046298205852508545,-0.008964532060028304
The Lord of the Rings,Amras,0.5004374980926514,1.042931394413283,0.5468523502349854,1.3165392456723393,0.046414852142333984,0.2736078512590563
The Lord of the Rings,Gwindor,0.5087060928344727,0.8921264216760356,0.5551761388778687,0.4217306559239679,0.046470046043395996,-0.4703957657520677
Harry Potter,Irma Pince,0.5231602191925049,0.0013375510480742,0.5697351694107056,2.1363618379387013e-08,0.046574950218200684,-0.0013375296844558206
The Hitchhiker's Guide to the Galaxy,Genghis Khan,0.424543023109436,0.5671710824059766,0.4711781740188598,0.9350327254876516,0.04663515090942383,0.367861643081675
Dune,Glossu Rabban,0.5158686637878418,0.9112838441922432,0.5629866123199463,0.508575296527618,0.04711794853210449,-0.40270854766462516
The Lord of the Rings,Melian,0.5110530853271484,0.907273705024486,0.558221161365509,0.6104079360669264,0.047168076038360596,-0.29686576895755956
Twilight,Jared Cameron,0.4876453280448913,0.202755256826061,0.5355255603790283,0.0052561758728482,0.04788023233413702,-0.19749908095321278
The Lord of the Rings,Radagast,0.506693422794342,0.0213537349432444,0.5546278357505798,1.0152234499330084e-06,0.04793441295623779,-0.021352719719794466
Dune,Murbella,0.5210418105125427,0.4673540113703712,0.5690101981163025,0.0237317653805878,0.047968387603759766,-0.4436222459897834
The Hitchhiker's Guide to the Galaxy,Eddie the Computer,0.5143842101097107,0.7717861588622849,0.5626307725906372,0.6785563358824518,0.048246562480926514,-0.09322982297983307
The Lord of the Rings,Ungoliant,0.5175648331642151,0.5045119669209628,0.5658931136131287,0.1311805506644553,0.048328280448913574,-0.37333141625650745
The Hitchhiker's Guide to the Galaxy,Fenchurch,0.4988239705562591,1.7435050866733504,0.5471852421760559,2.912782449467957,0.04836127161979681,1.1692773627946067
Harry Potter,Pansy Parkinson,0.4770812690258026,7.574728996758107e-06,0.5257962346076965,3.058577800430968e-06,0.04871496558189392,-4.516151196327138e-06
Dune,Otheym,0.4998379051685333,0.9750208906999622,0.5489936470985413,1.6242758905300028,0.049155741930007935,0.6492549998300405
The Hitchhiker's Guide to the Galaxy,Googleplex Starthinker,0.49622243642807,0.7685041051682417,0.5458606481552124,1.4505408685686187,0.04963821172714239,0.682036763400377
The Lord of the Rings,Khamûl,0.5237871408462524,2.43887942795052,0.5735595226287842,0.1545603458683955,0.04977238178253174,-2.284319082082124
The Lord of the Rings,Éomer,0.5233268737792969,1.31307278010033,0.5731189846992493,0.0120439070935844,0.04979211091995239,-1.3010288730067454
Dune,Kwisatz Haderach,0.5288949608802795,0.6063077049825519,0.5786898732185364,0.003697619306239,0.049794912338256836,-0.6026100856763129
The Lord of the Rings,Isildur,0.5210660099983215,0.0171125267976959,0.5709381103515625,0.0036278594316332,0.04987210035324097,-0.013484667366062698
Twilight,Emily Young,0.4844948351383209,0.0241715203413158,0.5346267819404602,0.0071704607373847,0.05013194680213928,-0.0170010596039311
Harry Potter,Hedwig,0.4928203523159027,0.0057525108714085,0.543062150478363,0.0286175169629201,0.05024179816246033,0.0228650060915116
Harry Potter,Rowena Ravenclaw,0.4968787431716919,0.1967495290976658,0.5475223064422607,0.015548044139341,0.05064356327056885,-0.1812014849583248
The Hitchhiker's Guide to the Galaxy,Humma Kavula,0.4809923768043518,1.477938828676986,0.5316513776779175,5.388965569722715,0.050659000873565674,3.9110267410457293
The Hunger Games,Primrose Everdeen,0.5308364033699036,0.0677685928736543,0.5819083452224731,1.9057133578728183e-09,0.05107194185256958,-0.06776859096794095
The Hitchhiker's Guide to the Galaxy,Barman,0.4852215051651001,0.892994337150235,0.53641277551651,1.711163363707738,0.05119127035140991,0.8181690265575029
The Lord of the Rings,Beregond,0.4933965504169464,0.9584065938756756,0.5446121096611023,1.4934357387288448,0.051215559244155884,0.5350291448531692
The Lord of the Rings,Gilraen,0.5016113519668579,2.895608857519192,0.553003191947937,1.46865577370515,0.0513918399810791,-1.4269530838140418
Harry Potter,Griphook,0.5197423696517944,0.2121497726817984,0.5715857148170471,0.0066885518290285,0.051843345165252686,-0.2054612208527699
Twilight,Paul Lahote,0.4901941120624542,0.0053238377358169,0.5420800447463989,0.0003242660314437,0.0518859326839447,-0.0049995717043732
Dune,Leto I Atreides,0.4957177937030792,0.0713538467969338,0.5478718876838684,0.0030558619291654,0.052154093980789185,-0.06829798486776839
The Lord of the Rings,Mablung,0.5178106427192688,0.5325523006676214,0.569983720779419,0.5836129963765792,0.052173078060150146,0.05106069570895777
The Lord of the Rings,Gollum,0.4888666868209839,9.018845864385908e-07,0.5417248010635376,2.7974571228520384e-07,0.05285811424255371,-6.22138874153387e-07
The Lord of the Rings,Angrod,0.4995771050453186,0.9248858604226928,0.5527409911155701,2.049501854594676,0.053163886070251465,1.1246159941719833
The Lord of the Rings,Thranduil,0.5080153346061707,0.015795075382359,0.5616160035133362,0.0010448700161254,0.05360066890716553,-0.014750205366233601
Twilight,Seth Clearwater,0.4928677082061767,0.0003410076353034,0.5481706857681274,1.3472232653530088e-08,0.05530297756195074,-0.0003409941630707465
Harry Potter,Susan Bones,0.4826630353927612,0.0002503003020615,0.5379840731620789,1.6962886640131738e-06,0.05532103776931768,-0.0002486040133974868
Harry Potter,Hannah Abbott,0.4619835317134857,0.0002747233194499,0.5173898339271545,5.551692905006872e-08,0.05540630221366882,-0.00027466780252084994
Harry Potter,Elphias Doge,0.49515300989151,0.0579371862843533,0.5514315962791443,9.9745185061453e-05,0.05627858638763428,-0.05783744109929185
Harry Potter,Poppy Pomfrey,0.4935471415519714,0.0065686562695566,0.5500788688659668,2.983172235607373e-09,0.05653172731399542,-0.006568653286384365
Dune,Moneo Atreides,0.4783799648284912,0.4628469607843391,0.5353717803955078,0.0102032453119768,0.0569918155670166,-0.4526437154723623
The Hitchhiker's Guide to the Galaxy,Old Thrashbarg,0.4717856347560882,0.734133117188203,0.5298166275024414,2.8792323369555364,0.058030992746353205,2.1450992197673333
Dune,Tyros Reffa,0.4748443067073822,0.6859880148079427,0.5335310101509094,0.5082867544066283,0.05868670344352722,-0.1777012604013144
Twilight,James,0.4843384027481079,0.0001932872771006,0.5438632369041443,7.270975490567214e-08,0.05952483415603638,-0.00019321456734569433
Harry Potter,Wilhelmina Grubbly-Plank,0.5114792585372925,0.2627456816056188,0.5711089372634888,0.1351900272623571,0.05962967872619629,-0.1275556543432617
The Lord of the Rings,Gil-galad,0.5118858814239502,0.0068857499924548,0.5715324282646179,0.0005677095052421,0.059646546840667725,-0.0063180404872126995
Harry Potter,Armando Dippet,0.4968133866786957,0.004074999992376,0.5565256476402283,1.5875638654766325e-07,0.05971226096153259,-0.004074841235989453
The Hitchhiker's Guide to the Galaxy,Vroomfondel,0.4920307099819183,6.379823034810391,0.5519132018089294,5.594354917271374,0.059882491827011164,-0.7854681175390175
Harry Potter,Dorcas Meadowes,0.5020419359207153,0.8510681106231619,0.5624010562896729,5.287947262297381,0.06035912036895752,4.436879151674219
Harry Potter,Mykew Gregorovitch,0.5075162649154663,0.1493034502333561,0.5679985284805298,0.0237588694113758,0.06048226356506348,-0.12554458082198028
Harry Potter,Septima Vector,0.5020323395729065,0.1628544055819856,0.5628880262374878,0.0005338140654824,0.0608556866645813,-0.16232059151650322
Twilight,Rachel Black,0.4595691263675689,0.2576749869769676,0.5207951068878174,0.0190418830757729,0.06122598052024847,-0.23863310390119472
The Lord of the Rings,Aredhel,0.4883196353912353,0.9713200343189436,0.549968421459198,0.1367850876840453,0.0616487860679627,-0.8345349466348984
The Lord of the Rings,Shelob,0.5020247101783752,0.3466171382980677,0.5636788010597229,0.0397422885959737,0.061654090881347656,-0.306874849702094
The Lord of the Rings,Watcher in the Water,0.509591817855835,0.0042405603228484,0.5722002983093262,0.0050986009448787,0.06260848045349121,0.0008580406220302997
The Hitchhiker's Guide to the Galaxy,Phouchg,0.4561991989612579,0.5018064406777262,0.5188992023468018,1.040299760549525,0.06270000338554388,0.5384933198717988
Harry Potter,Salazar Slytherin,0.4957578182220459,0.0207734739028144,0.5586127042770386,0.0020541716884802,0.06285488605499268,-0.0187193022143342
Harry Potter,Silvanus Kettleburn,0.4883610606193542,0.0495442444007813,0.551296055316925,0.0004836416539025,0.06293499469757086,-0.0490606027468788
The Hitchhiker's Guide to the Galaxy,Number Two,0.4727605879306793,0.5012591080546629,0.5356969833374023,1.3391366496133603,0.06293639540672302,0.8378775415586974
Dune,Anirul Corrino,0.477915495634079,0.5785452349450044,0.5409173369407654,2.184465197505393,0.0630018413066864,1.6059199625603884
Harry Potter,Padma Patil,0.4924223721027374,0.0811999984045298,0.5555651187896729,0.0015191952303639,0.06314274668693542,-0.0796808031741659
Harry Potter,Marcus Flint,0.4845448136329651,0.1639240204812492,0.5477555394172668,0.0527133722770122,0.06321072578430176,-0.11121064820423701
The Hitchhiker's Guide to the Galaxy,Golgafrinchans,0.4871600866317749,0.8266789267927431,0.5505149364471436,0.5544471130203781,0.06335484981536865,-0.27223181377236505
Harry Potter,Pius Thicknesse,0.4485996663570404,0.1960834275805505,0.512029767036438,6.7241387733858985e-06,0.06343010067939758,-0.1960767034417771
Dune,Quintinius Violet Chenoeh,0.4865981042385101,0.059151077314588,0.5501734614372253,0.0001830646333515,0.06357535719871527,-0.0589680126812365
The Hitchhiker's Guide to the Galaxy,Eccentrica Gallumbits,0.4806388914585113,0.7287256191933535,0.5445906519889832,3.1585595168792167,0.06395176053047186,2.429833897685863
The Lord of the Rings,Idril,0.4942112863063812,1.314068414335417,0.5591335892677307,1.218685005962579,0.06492230296134949,-0.09538340837283821
Harry Potter,Marlene McKinnon,0.4997681975364685,1.0778865364223542,0.5648558735847473,6.969568768398113,0.06508767604827881,5.891682231975759
Twilight,Ephraim Black,0.4526848793029785,0.5033109066451074,0.5182806849479675,0.0905480977732796,0.06559580564498901,-0.41276280887182776
Harry Potter,Fawkes,0.4881545305252075,0.0012893054242995,0.5539714694023132,0.0235763062914108,0.06581693887710571,0.0222870008671113
The Hitchhiker's Guide to the Galaxy,Haggunenons,0.4784274697303772,0.0611463148321988,0.5442502498626709,0.7159532413067194,0.0658227801322937,0.6548069264745207
Harry Potter,Buckbeak,0.4945935606956482,0.1013632704769263,0.5605059266090393,0.0190625469925551,0.06591236591339111,-0.0823007234843712
Dune,Nayla,0.4786968827247619,0.6588261872586595,0.5447108149528503,2.623758321475784,0.06601393222808843,1.9649321342171242
Harry Potter,Arabella Figg,0.4997729659080505,0.0006881625613978,0.5660061836242676,0.0007005743895294,0.0662332177162171,1.2411828131600011e-05
The Hitchhiker's Guide to the Galaxy,Lady Cynthia Fitzmelton,0.4701345562934875,0.4745346768104099,0.5366035103797913,0.945121595575924,0.06646895408630377,0.4705869187655141
Dune,Hayt,0.5157616138458252,1.1372734117655994,0.5824491381645203,3.2943028197495816,0.06668752431869507,2.1570294079839822
The Hunger Games,Mr. Everdeen,0.4848520457744598,0.5731186643948403,0.551663875579834,0.2182264292785018,0.0668118298053742,-0.3548922351163385
Dune,Margot Fenring,0.5196251273155212,1.287933709101413,0.587001383304596,0.4281066526230737,0.06737625598907471,-0.8598270564783392
Harry Potter,Alicia Spinnet,0.4855826497077942,0.0229306646294239,0.5529946684837341,1.947834401874541e-06,0.06741201877593994,-0.022928716795022022
The Lord of the Rings,Ancalagon,0.5332438945770264,1.3377617161546485,0.6009135246276855,1.4144417320430205,0.06766963005065918,0.07668001588837203
The Hitchhiker's Guide to the Galaxy,Grunthos the Flatulent,0.4379906356334686,0.5884191202262163,0.5056959390640259,2.533949332902004,0.0677053034305573,1.9455302126757876
The Lord of the Rings,Elladan and Elrohir,0.5400537252426147,0.9585946716255522,0.608399510383606,0.078228266222259,0.06834578514099121,-0.8803664054032933
Dune,Elrood Corrino IX,0.4567656815052032,0.4789964367943902,0.525293231010437,3.7146401915141753,0.06852754950523382,3.235643754719785
The Hitchhiker's Guide to the Galaxy,Hig Hurtenflurst,0.4581269919872284,1.1332647343625395,0.5268608331680298,1.5980802997919823,0.06873384118080139,0.4648155654294428
The Hitchhiker's Guide to the Galaxy,Hotblack Desiato,0.4843844473361969,0.5442587992941074,0.5540450811386108,3.018975403984865,0.06966063380241394,2.4747166046907574
The Hitchhiker's Guide to the Galaxy,Elvis Presley,0.4119135737419128,0.3797633349632493,0.4842294752597809,0.9820755274381016,0.0723159015178681,0.6023121924748522
Dune,Norma Cenva,0.4278644323348999,0.3453006718812716,0.5005387663841248,1.3120403501803808,0.07267433404922485,0.9667396782991091
Harry Potter,Fat Friar,0.4905396401882171,0.0688972565783398,0.5633115768432617,0.0017602953084694,0.07277193665504461,-0.0671369612698704
The Lord of the Rings,Caranthir,0.5087292194366455,1.4316522621812555,0.5816361904144287,1.346527062486357,0.0729069709777832,-0.08512519969489851
The Hitchhiker's Guide to the Galaxy,Number One,0.4428691864013672,0.377350079843268,0.5162665843963623,1.3980420177545387,0.07339739799499512,1.0206919379112707
The Hitchhiker's Guide to the Galaxy,Agrajag,0.4447543025016784,0.5815409131055337,0.5186874866485596,0.4742841304472363,0.07393318414688116,-0.10725678265829741
The Lord of the Rings,Gothmog,0.4830499291419983,0.9579740012719514,0.5577483773231506,0.5803658301115063,0.07469844818115234,-0.3776081711604451
The Lord of the Rings,Lúthien,0.502149760723114,0.409620335566205,0.5771726965904236,0.0454235640070587,0.07502293586730957,-0.36419677155914626
Harry Potter,Godric Gryffindor,0.4926320314407348,0.1637188502805401,0.568062961101532,0.0950958628793497,0.07543092966079717,-0.0686229874011904
Harry Potter,Selwyn,0.4537832140922546,0.3700091702119688,0.5304065346717834,0.264806229420868,0.07662332057952886,-0.10520294079110076
Dune,Dama,0.4721208810806274,0.6013867057595473,0.5488190054893494,1.4037338737375893,0.07669812440872198,0.802347167978042
The Lord of the Rings,Carcharoth,0.4864684641361236,0.6385166502613182,0.5634573101997375,0.3662698592599605,0.07698884606361395,-0.27224679100135774
Harry Potter,Ariana Dumbledore,0.5067033767700195,0.0106755445983608,0.5837023854255676,2.2980763243528597e-05,0.0769990086555481,-0.010652563835117273
Dune,Tyekanik,0.4869306087493896,0.5850379611842363,0.5662058591842651,3.932007099913652,0.07927525043487554,3.3469691387294156
The Hitchhiker's Guide to the Galaxy,Guide Mark II,0.4657743871212005,2.6638920729684443,0.546289324760437,1.816169121645537,0.0805149376392365,-0.8477229513229074
Harry Potter,Fat Lady,0.4809730350971222,0.0466754711207792,0.561942458152771,0.0004029627418676,0.0809694230556488,-0.0462725083789116
Dune,Mapes,0.4613449871540069,0.4332185225362724,0.542668879032135,0.9897316516413972,0.08132389187812811,0.5565131291051248
Twilight,Angela Weber,0.5035080909729004,0.0211686308059395,0.5863727331161499,0.0001996363772614,0.08286464214324951,-0.0209689944286781
Harry Potter,Dennis Creevey,0.4320493936538696,0.0002693461913432,0.5151597261428833,0.003136096716357,0.08311033248901373,0.0028667505250137997
Harry Potter,Aragog,0.4950214922428131,0.0146024608096248,0.5787279605865479,0.0092919107471235,0.08370646834373474,-0.0053105500625013
Harry Potter,Rolanda Hooch,0.4700667858123779,0.0014731959744198,0.5546188950538635,7.939548695201769e-09,0.08455210924148565,-0.0014731880348711048
Harry Potter,Antonin Dolohov,0.4867320656776428,0.0507908489996695,0.5726486444473267,0.0443785213356668,0.08591657876968384,-0.006412327664002702
The Hitchhiker's Guide to the Galaxy,Captain,0.427333116531372,0.5894758492741129,0.514319658279419,1.5084252457658365,0.08698654174804693,0.9189493964917236
Dune,Abulurd Harkonnen,0.4777737557888031,0.4430687366664146,0.5658541917800903,1.861695997521908,0.08808043599128723,1.4186272608554935
The Hitchhiker's Guide to the Galaxy,Great Circling Poets of Arium,0.506938099861145,3.108880398631926,0.5965229272842407,3.48934247178035,0.0895848274230957,0.3804620731484243
The Hitchhiker's Guide to the Galaxy,Constant Mown,0.4446617364883423,0.3350513854588815,0.5357279777526855,1.584814100444835,0.09106624126434326,1.2497627149859536
The Hitchhiker's Guide to the Galaxy,Heimdall,0.4221406280994415,0.5328247346765147,0.5135451555252075,1.5380454113971236,0.09140452742576605,1.0052206767206089
Dune,Alef Burzmali,0.4665161967277527,0.982452391156567,0.5583000183105469,2.8614034158046757,0.09178382158279419,1.8789510246481087
The Hitchhiker's Guide to the Galaxy,Old Woman in the Cave,0.4835208356380462,0.8531443032854303,0.5800648927688599,10.905864690592557,0.09654405713081365,10.052720387307126
Twilight,Jessica Stanley,0.4544233083724975,0.0662294271312639,0.5578256249427795,9.421336264408823e-05,0.10340231657028204,-0.0661352137686198
The Lord of the Rings,Beren,0.4414506554603576,1.6079673211409782,0.5460377931594849,0.0093282957192647,0.10458713769912725,-1.5986390254217135
The Hitchhiker's Guide to the Galaxy,Gail Andrews,0.3995009064674377,0.2916095789617625,0.5061356425285339,2.919661862620716,0.10663473606109625,2.6280522836589535
Dune,Lichna,0.4484536945819855,0.3209750417245773,0.5563443303108215,1.0913543433308168,0.10789063572883606,0.7703793016062395
The Hitchhiker's Guide to the Galaxy,Garkbit,0.4613436758518219,0.3191123091025339,0.570511519908905,1.989116101173145,0.10916784405708313,1.6700037920706112
The Hitchhiker's Guide to the Galaxy,Ameglian Major Cow,0.4171024262905121,2.9120419274441147,0.5268067121505737,0.4504755133943672,0.10970428586006165,-2.4615664140497477
Twilight,Lauren Mallory,0.4392404556274414,0.4852898117353846,0.550056517124176,0.0953384896121278,0.11081606149673462,-0.3899513221232568
The Hitchhiker's Guide to the Galaxy,Great Green Arkleseizure,0.4108148217201233,0.3765649406570394,0.5255516171455383,3.246125440506177,0.11473679542541504,2.8695604998491375
Dune,Fafnir Corrino,0.4420830011367798,0.5381058274066916,0.5618007779121399,1.7667567655319762,0.11971777677536011,1.2286509381252846
The Hitchhiker's Guide to the Galaxy,Judiciary Pag,0.4077497720718384,0.3879200827809871,0.5317800045013428,3.631708981719817,0.1240302324295044,3.24378889893883
The Hitchhiker's Guide to the Galaxy,Prak,0.3869447112083435,1.1668621031031616,0.5115901231765747,0.5061764822984539,0.1246454119682312,-0.6606856208047077
The Hitchhiker's Guide to the Galaxy,Lallafa,0.3855247795581817,0.3642502465315573,0.5176847577095032,0.9539209876634652,0.13215997815132147,0.589670741131908
The Hitchhiker's Guide to the Galaxy,Paul Neil Milne Johnstone,0.3960185945034027,0.5478944495090049,0.5309251546859741,3.0383673200038266,0.1349065601825714,2.4904728704948216
The Hitchhiker's Guide to the Galaxy,Know-Nothing-Bozo,0.3952953815460205,0.2783315400326001,0.5313194990158081,1.1784301044494518,0.1360241174697876,0.9000985644168518
The Hitchhiker's Guide to the Galaxy,Russell,0.3510933518409729,0.1425238221075055,0.4901808202266693,1.2995699622920482,0.1390874683856964,1.1570461401845427
The Hitchhiker's Guide to the Galaxy,Hactar,0.3989352285861969,0.7576601357314339,0.5416232943534851,0.7711947173289098,0.1426880657672882,0.013534581597475892
The Hitchhiker's Guide to the Galaxy,Hurling Frootmig,0.3751438558101654,0.6959301679234284,0.5332341194152832,4.491338073974113,0.1580902636051178,3.7954079060506842
The Hitchhiker's Guide to the Galaxy,Roosta,0.4013340473175049,0.5160362064200719,0.5600486993789673,7.561060928517275,0.1587146520614624,7.045024722097203
The Hitchhiker's Guide to the Galaxy,Poodoo,0.322559654712677,0.4345295743733599,0.487070620059967,1.1780212850157157,0.16451096534728998,0.7434917106423558
The Hitchhiker's Guide to the Galaxy,Emperor of the Galaxy,0.3234719932079315,0.3146953704338651,0.491729736328125,3.674797705066148,0.16825774312019348,3.360102334632283
The Hitchhiker's Guide to the Galaxy,Great Hyperlobic Omnicognate Neutron Wrangler,0.3563226461410522,0.2968392444170915,0.538632333278656,2.1133419090118397,0.18230968713760382,1.8165026645947482
The Hitchhiker's Guide to the Galaxy,Effrafax of Wug,0.361553281545639,0.5747696922517948,0.5487123727798462,1.4568019978263285,0.1871590912342072,0.8820323055745337
The Hitchhiker's Guide to the Galaxy,Pizpot Gargravarr,0.3139541745185852,0.3622527754839205,0.5040284395217896,1.7450559279627826,0.19007426500320435,1.3828031524788622
The Hitchhiker's Guide to the Galaxy,The Lord,0.3071805536746979,0.539492840010531,0.5095160007476807,3.5966796013484585,0.2023354470729828,3.0571867613379275
The Hitchhiker's Guide to the Galaxy,Enid Kapelsen,0.3291886150836944,0.4689406271306049,0.5459449291229248,1.4302111081764557,0.2167563140392304,0.9612704810458508
