Book,Character,F1,h,wF1,wh,F1_to_wF1,h_to_wh
The Hitchhiker's Guide to the Galaxy,Eccentrica Gallumbits,0.6058655977249146,6.55965044781872,0.5394384860992432,4.111888971930163,-0.06642711162567139,-2.4477614758885577
The Hitchhiker's Guide to the Galaxy,Grunthos the Flatulent,0.6140472888946533,16.95786250848371,0.5499271154403687,2.19535677410307,-0.06412017345428467,-14.76250573438064
Harry Potter,Hokey,0.5672929883003235,0.0438565244700726,0.513213574886322,0.2738191999950243,-0.054079413414001465,0.2299626755249517
The Hitchhiker's Guide to the Galaxy,Phouchg,0.5427480340003967,2.422185646439553,0.4930891692638397,0.7803900079380592,-0.04965886473655701,-1.6417956385014936
The Hitchhiker's Guide to the Galaxy,Oolon Colluphid,0.5637776255607605,2.7037233537785146,0.5207085609436035,1.3753680830069075,-0.04306906461715698,-1.328355270771607
Twilight,Benjamin,0.5194116234779358,0.0002089417726409,0.4765913188457489,4.263846624869679e-06,-0.04282030463218689,-0.00020467792601603033
Harry Potter,Fat Lady,0.5626680254936218,0.0006976507134607,0.5224078893661499,0.0001686186499819,-0.040260136127471924,-0.0005290320634787999
Twilight,Alec,0.5477607846260071,0.0069056504108246,0.5151251554489136,0.0001116811891548,-0.032635629177093506,-0.0067939692216698
The Hitchhiker's Guide to the Galaxy,Heimdall,0.5581227540969849,4.584225912588152,0.5274328589439392,2.276866895887534,-0.030689895153045654,-2.3073590167006177
Dune,Mapes,0.5734739303588867,1.4227359584116763,0.5431746244430542,2.4085486452782194,-0.03029930591583252,0.9858126868665431
Twilight,Renesmee Cullen,0.4953872859477997,1.66631975470711e-11,0.4656632840633392,1.3276565834753356e-23,-0.029724001884460505,-1.6663197547057822e-11
The Lord of the Rings,Halbarad,0.59017014503479,0.1797733860199657,0.560507595539093,0.3461992418406594,-0.02966254949569702,0.16642585582069372
Twilight,Demetri,0.5424766540527344,3.7891133261728347e-05,0.5129753351211548,0.0001624950276633,-0.02950131893157959,0.00012460389440157167
Twilight,Kebi,0.5201324820518494,0.0585021836034351,0.4922181069850921,0.0319322843910091,-0.027914375066757258,-0.026569899212426
Dune,Iakin Nefud,0.5310722589492798,1.89786255695754,0.5032299160957336,0.8610380325676424,-0.027842342853546143,-1.0368245243898975
Dune,Leto Atreides II,0.5314472913742065,2.242102859910016e-05,0.5045799612998962,0.000470369261642,-0.026867330074310303,0.00044794823304289985
Harry Potter,Cornelius Fudge,0.5355236530303955,1.6232548392699698e-18,0.5092675089836121,1.0592172572077156e-17,-0.026256144046783447,8.968917732807187e-18
Dune,Wensicia Corrino/DE,0.5573607087135315,1.2956865425806023,0.5317422151565552,0.4850275963656584,-0.02561849355697632,-0.8106589462149439
Dune,Harah,0.5595471858978271,0.0753954301245798,0.5352233648300171,0.0346278451002894,-0.02432382106781006,-0.040767585024290405
Dune,Hasimir Fenring/DE,0.5695836544036865,0.0306126850559545,0.5464422702789307,0.0138149581801547,-0.02314138412475586,-0.0167977268757998
Twilight,Tanya,0.503936767578125,9.231902497034248e-08,0.4823244214057922,1.749051901137185e-09,-0.02161234617233282,-9.05699730692053e-08
The Hitchhiker's Guide to the Galaxy,Ameglian Major Cow,0.5611812472343445,1.0120567459191676,0.541434645652771,1.5219382238640753,-0.019746601581573486,0.5098814779449077
Harry Potter,Hepzibah Smith,0.5742697715759277,0.0009210173244708,0.5552780628204346,0.0137033324569465,-0.018991708755493164,0.0127823151324757
Dune,Abulurd Harkonnen/XD,0.5441485047340393,0.0123638452901911,0.525319516658783,0.00951637563041,-0.018828988075256348,-0.0028474696597810996
Harry Potter,Irma Crabbe,0.4526484310626983,0.7461420392506313,0.4349513053894043,0.5920201476215757,-0.017697125673294012,-0.15412189162905554
Twilight,Charlie Swan,0.523963987827301,2.742332000528702e-09,0.5070550441741943,2.0696662155516104e-18,-0.01690894365310669,-2.742331998459036e-09
Dune,Duncan Idaho/XD,0.5116010308265686,4.2546252552959766e-10,0.4954583644866943,8.835557548261799e-13,-0.016142666339874323,-4.245789697747715e-10
Harry Potter,Peeves,0.5685899257659912,1.3660000575144685e-10,0.5525453090667725,1.7540221551222814e-16,-0.01604461669921875,-1.3659983034923133e-10
Harry Potter,Rosmerta,0.5597559213638306,0.002613593704264,0.544405996799469,0.0014259965925147,-0.015349924564361572,-0.0011875971117493
Dune,Paul Atreides/DE,0.5624359846115112,0.6680478035333376,0.5472601056098938,0.1224107496926478,-0.015175879001617432,-0.5456370538406898
Dune,Duncan Idaho/DE,0.5466117262840271,4.810651392859619e-14,0.5321796536445618,9.668434376666976e-24,-0.014432072639465332,-4.8106513918927754e-14
Harry Potter,Rowena Ravenclaw,0.5553902983665466,0.0693671941742375,0.5411466360092163,0.1899751535278539,-0.014243662357330322,0.1206079593536164
Harry Potter,Newton Scamander,0.5166230201721191,3.362991699953818e-24,0.50264972448349,1.0606165574816015e-25,-0.01397329568862915,-3.256930044205658e-24
Harry Potter,Sybill Trelawney,0.5406873822212219,1.4510179699546029e-11,0.5268456935882568,5.731152472008711e-12,-0.013841688632965088,-8.779027227537318e-12
Dune,Gurney Halleck,0.5622117519378662,0.6081915315316465,0.5487368106842041,0.1720678721641582,-0.01347494125366211,-0.4361236593674883
Dune,Jamis,0.5642074346542358,0.5260601107998428,0.5510348081588745,0.2206194524261704,-0.013172626495361328,-0.3054406583736724
Twilight,Peter,0.4923698306083679,0.0001245823447594,0.4794693887233734,1.258323985035581e-06,-0.012900441884994507,-0.00012332402077436442
The Lord of the Rings,Thrór,0.557720422744751,0.380471491167524,0.5456516146659851,0.0679000113456753,-0.01206880807876587,-0.3125714798218487
Harry Potter,Aragog,0.5689617395401001,0.0941572166488174,0.5569226145744324,0.021938193266762,-0.012039124965667725,-0.07221902338205541
The Hitchhiker's Guide to the Galaxy,Arthur Dent,0.534945011138916,0.14037202070437,0.5229958891868591,0.1434866094704304,-0.011949121952056885,0.003114588766060411
The Hitchhiker's Guide to the Galaxy,Ruler of the Universe,0.512652575969696,6.16645514974388,0.5007719993591309,3.197721520638197,-0.011880576610565186,-2.9687336291056834
The Hitchhiker's Guide to the Galaxy,Mr Prosser,0.5152918696403503,5.716983768747755,0.5037378668785095,3.4004614248585656,-0.01155400276184082,-2.3165223438891895
Twilight,Kachiri,0.5340794324874878,0.5040583818015302,0.5226978659629822,2.094073836020095,-0.011381566524505615,1.5900154542185647
Harry Potter,Parvati Patil,0.5480782985687256,7.82645235688083e-06,0.5367690920829773,3.5991487657951523e-06,-0.011309206485748291,-4.227303591085677e-06
Dune,Abulurd Harkonnen,0.5326532125473022,1.5863552234455376,0.521419882774353,0.6954069738046825,-0.011233329772949219,-0.8909482496408551
The Lord of the Rings,Théoden,0.5511192083358765,0.0146015782564679,0.5399253964424133,0.0065330640931554,-0.011193811893463135,-0.0080685141633125
Twilight,Tia,0.5108676552772522,0.0004731409810169,0.499974638223648,0.02604206588324,-0.010893017053604181,0.0255689249022231
Dune,Aramsham,0.5381482839584351,2.3442786308227896,0.5279208421707153,1.7708425219756927,-0.010227441787719727,-0.573436108847097
Dune,Vladimir Harkonnen/DE,0.5738033056259155,0.0196985838761531,0.5647509098052979,0.0137054083790518,-0.009052395820617676,-0.005993175497101301
The Hunger Games,Alma Coin,0.5130931735038757,0.0003420129307903,0.5040443539619446,0.0011194391035209,-0.009048819541931152,0.0007774261727306
The Hitchhiker's Guide to the Galaxy,Old Woman in the Cave,0.5285378098487854,6.828077476698253,0.5196815133094788,4.970962644971397,-0.00885629653930664,-1.8571148317268555
Dune,Irulan Corrino,0.5652651190757751,0.1198068197594191,0.5567529797554016,0.0976073128588236,-0.008512139320373535,-0.02219950690059551
Harry Potter,Anthony Goldstein,0.5276600122451782,0.0109956517100573,0.5194255113601685,0.1197554931774833,-0.008234500885009766,0.108759841467426
Harry Potter,Bartemius Crouch Senior,0.5467575192451477,2.913382093729548e-12,0.5385453104972839,1.808035646434836e-15,-0.00821220874786377,-2.911574058083113e-12
Dune,Elrood Corrino IX,0.5494102835655212,6.567421454972395,0.5414339303970337,3.838186942507519,-0.007976353168487549,-2.7292345124648762
Harry Potter,Porpentina Goldstein,0.5076111555099487,5.495684210714383e-08,0.4996605515480041,3.064108425483909e-11,-0.007950603961944636,-5.492620102288899e-08
Dune,Fafnir Corrino,0.4875413179397583,0.8123529386637208,0.48015296459198,0.7864517036701479,-0.00738835334777832,-0.025901234993572886
The Hitchhiker's Guide to the Galaxy,Hig Hurtenflurst,0.4926114678382873,1.2104331377333513,0.4859743416309356,1.0583993608051103,-0.006637126207351685,-0.15203377692824094
The Lord of the Rings,Elrond,0.5346205830574036,1.2182569978153455e-05,0.5283806324005127,8.569360001906951e-05,-0.006239950656890869,7.351103004091605e-05
Dune,Siona Atreides/DE,0.5421079993247986,0.0087319759877451,0.5364435315132141,0.0270232806700941,-0.005664467811584473,0.018291304682348998
Dune,Chani Kynes,0.5487492084503174,1.4490337254924497,0.5434978604316711,1.0983350664734417,-0.00525134801864624,-0.350698659019008
Dune,Leto I Atreides,0.5490404963493347,0.053978340877829,0.5441626310348511,0.0713173290605953,-0.004877865314483643,0.01733898818276631
The Hitchhiker's Guide to the Galaxy,Hotblack Desiato,0.5371041297912598,6.27363319045089,0.5323712825775146,3.684780702360905,-0.004732847213745117,-2.588852488089985
Dune,Glossu Rabban,0.516559362411499,1.1336510338285353,0.5118913650512695,0.936649173256126,-0.004667997360229492,-0.19700186057240932
Dune,Thufir Hawat/DE,0.5130482316017151,2.209868048109866e-07,0.5086999535560608,2.5283861375720285e-05,-0.004348278045654297,2.50628745709093e-05
Harry Potter,Rita Skeeter,0.5447378158569336,2.622588168489481e-07,0.5408720970153809,8.782894729187893e-07,-0.0038657188415527344,6.160306560698412e-07
Harry Potter,Ginevra Weasley,0.4565054476261139,3.123149257093773e-36,0.4529821574687958,7.340042678938938e-32,-0.0035232901573181152,7.339730364013229e-32
Harry Potter,Rufus Scrimgeour,0.5564838647842407,0.0010248848799188,0.5529722571372986,0.0005026595008732,-0.0035116076469421387,-0.0005222253790455999
The Lord of the Rings,Tom Bombadil,0.5579453110694885,1.625276508679475e-05,0.5544760823249817,0.0002023709885307,-0.003469228744506836,0.00018611822344390526
Harry Potter,Arthur Weasley,0.4222377240657806,1.5122785307764722e-11,0.4188569784164428,2.134282776205337e-12,-0.0033807456493377686,-1.2988502531559385e-11
Harry Potter,Nymphadora Tonks,0.4633335471153259,1.6629429862916244e-19,0.4601302742958069,8.249708776565606e-15,-0.003203272819519043,8.249542482266976e-15
Harry Potter,Fleur Delacour,0.4584183096885681,7.997361085518871e-10,0.4560153782367706,4.620194448547931e-10,-0.002402931451797541,-3.37716663697094e-10
Dune,Liet Kynes,0.5707424879074097,1.5353780709426728,0.5686256885528564,1.0010206362207186,-0.0021167993545532227,-0.5343574347219542
Dune,Shando Vernius,0.5261279344558716,0.2330525138630203,0.5242726802825928,0.7144245815772385,-0.0018552541732788086,0.48137206771421825
Twilight,Bree Tanner,0.5344114303588867,0.0058233650778035,0.5327283143997192,0.0031269610113248,-0.0016831159591674805,-0.0026964040664787
Dune,Dominic Vernius,0.5158441662788391,0.3112572505318159,0.5141785740852356,0.513599500056634,-0.0016655921936035156,0.2023422495248181
Harry Potter,Albus Dumbledore,0.4514420330524444,1.525797191250361e-57,0.4499014019966125,2.582512433549349e-55,-0.0015406310558319092,2.5672544616368453e-55
Harry Potter,Harry Potter,0.4480642676353454,1.2639081125928257e-186,0.4468821287155151,1.0084877698289763e-70,-0.0011821389198303223,1.0084877698289763e-70
Harry Potter,Gilderoy Lockhart,0.5441403985023499,2.8947058949828446e-15,0.5430762767791748,6.826823768615993e-18,-0.0010641217231750488,-2.8878790712142286e-15
The Lord of the Rings,Éomer,0.5647557973861694,0.026362746594768,0.5638369917869568,0.0368794267424213,-0.0009188055992126465,0.010516680147653296
The Hitchhiker's Guide to the Galaxy,Majikthise,0.5344270467758179,4.313396148394467,0.5335953831672668,2.962811518489022,-0.0008316636085510254,-1.3505846299054456
Harry Potter,Quirinus Quirrell,0.538754403591156,3.003275072391516e-09,0.5381911993026733,1.360166532099539e-06,-0.000563204288482666,1.3571632570271473e-06
Harry Potter,Oliver Wood,0.558803141117096,1.2124751648785617e-05,0.5582415461540222,0.0001031768551446,-0.0005615949630737305,9.105210349581438e-05
The Lord of the Rings,Denethor II,0.5514507293701172,0.155452363335744,0.5512143969535828,0.1619905486188374,-0.00023633241653442383,0.006538185283093412
The Lord of the Rings,Legolas,0.5817660093307495,9.36161988434402e-06,0.5815436244010925,9.335917510080494e-12,-0.00022238492965698242,-9.36161054842651e-06
Dune,Helena Atreides,0.5380982160568237,0.2408712425253233,0.5386286973953247,0.6910387068011067,0.0005304813385009766,0.45016746427578336
Dune,Leto Atreides II/XD,0.5618852972984314,1.3051518394298244e-05,0.5624894499778748,0.0001790713351537,0.0006041526794433594,0.00016601981675940175
Dune,Hasimir Fenring/XD,0.543291449546814,0.0002017513785949,0.544248640537262,2.8006875000589097e-05,0.000957190990447998,-0.0001737445035943109
Dune,Pardot Kynes,0.5373766422271729,0.3926648147725907,0.5386035442352295,0.2845964676631365,0.0012269020080566406,-0.10806834710945418
Dune,Wellington Yueh/DE,0.5609726905822754,0.062641646022209,0.5623801946640015,0.0828629678523399,0.0014075040817260742,0.02022132183013091
The Lord of the Rings,Gimli,0.528266429901123,0.0159003841944725,0.5297467112541199,3.658703518929313e-06,0.0014802813529968262,-0.01589672549095357
Harry Potter,Zacharias Smith,0.534622073173523,0.0167976072334127,0.5364224910736084,0.0174569049319259,0.0018004179000854492,0.0006592976985131983
Harry Potter,Wilhelmina Grubbly-Plank,0.5558348298072815,0.1649089942071943,0.5577927827835083,0.3866024093073554,0.0019579529762268066,0.2216934151001611
The Hitchhiker's Guide to the Galaxy,Trillian,0.5367168188095093,0.1382267433307274,0.5389292240142822,0.2748432396086855,0.0022124052047729492,0.1366164962779581
Harry Potter,Tom Riddle,0.4569451212882995,2.308813522828434e-58,0.4592207372188568,7.518966533199817e-51,0.0022756159305573065,7.518966302318465e-51
Dune,Serena Butler,0.5331664681434631,0.0015525153423145,0.5356340408325195,0.0048333492874351,0.0024675726890563965,0.0032808339451205998
The Hitchhiker's Guide to the Galaxy,Constant Mown,0.491990715265274,2.240201997068663,0.4945469200611114,2.185169736848476,0.0025562047958374023,-0.055032260220186924
Harry Potter,Sirius Black I,0.4801082611083984,1.3452470485460375,0.4827754199504852,1.4920846192271615,0.002667158842086792,0.14683757068112402
The Lord of the Rings,Bilbo Baggins,0.5368724465370178,8.483566668142215e-07,0.5395867824554443,8.845692620365339e-07,0.0027143359184265137,3.6212595222312394e-08
Harry Potter,Luna Lovegood,0.5185999274253845,2.7689828578734974e-21,0.5215947031974792,1.7496700358229238e-17,0.0029947757720947266,1.7493931375371364e-17
Dune,Chani Kynes/XD,0.5694782733917236,0.170174400578658,0.5726214647293091,0.2833301191563054,0.0031431913375854492,0.11315571857764739
Dune,Leto Atreides I/XD,0.5559987425804138,0.0001090423238931,0.5594691634178162,0.0328578590918314,0.0034704208374023438,0.0327488167679383
Twilight,Felix,0.5391755104064941,0.001633823099736,0.5426814556121826,0.0010558313130031,0.0035059452056884766,-0.0005779917867329001
Harry Potter,Terry Boot,0.5193600058555603,0.0311301360820409,0.5230066180229187,0.3351101809803463,0.0036466121673583984,0.3039800448983054
Harry Potter,Alicia Spinnet,0.5729711651802063,0.0005485576592796,0.5766897201538086,0.0008170725682826,0.003718554973602295,0.000268514909003
Harry Potter,Garrick Ollivander,0.5449483394622803,8.773596120507059e-05,0.5487746596336365,8.120837068543011e-07,0.003826320171356201,-8.692387749821628e-05
Harry Potter,Eloise Midgen,0.5466702580451965,0.1671654526907209,0.5505866408348083,1.0905251875199873,0.003916382789611816,0.9233597348292664
Dune,Paul Atreides/XD,0.4527609050273895,2.4115108354566898e-11,0.4567216634750366,1.8211255618323383e-10,0.003960758447647095,1.5799744782866693e-10
Dune,Thufir Hawat/XD,0.586604118347168,0.0366453839873732,0.5912056565284729,0.1115219453536114,0.004601538181304932,0.0748765613662382
The Lord of the Rings,Melian,0.5740463137626648,1.049376886917939,0.5787503719329834,0.2947167336101543,0.0047040581703186035,-0.7546601533077846
Harry Potter,Cadmus Peverell,0.5136099457740784,1.38310084817438,0.5183182954788208,0.7750712612745965,0.004708349704742432,-0.6080295868997836
Harry Potter,Dolores Umbridge,0.4961078763008117,3.8827127534927307e-28,0.5011163949966431,9.895242577497535e-21,0.005008518695831354,9.89524218922626e-21
The Lord of the Rings,Fíli and Kíli,0.5895729064941406,0.1111819235976098,0.5947471261024475,0.0402029921409846,0.005174219608306885,-0.0709789314566252
Twilight,Irina,0.516270637512207,9.65714421045363e-06,0.5215114951133728,0.005362502488509,0.0052408576011657715,0.0053528453442985464
The Hunger Games,Effie Trinket,0.568645179271698,1.395666263216068e-07,0.5739213228225708,1.2745719196579777e-05,0.005276143550872803,1.2606152570258169e-05
Dune,Pardot Kynes/DE,0.5371705293655396,4.2762932027393016e-05,0.5425688028335571,9.128187151991942e-06,0.005398273468017578,-3.3634744875401075e-05
The Lord of the Rings,Radagast,0.5254383087158203,0.0021678267300095,0.5309553742408752,5.30201603021464e-06,0.005517065525054932,-0.0021625247139792857
The Hitchhiker's Guide to the Galaxy,Great Green Arkleseizure,0.5384455323219299,4.76379185072136,0.544036328792572,5.275028496365349,0.00559079647064209,0.5112366456439883
The Lord of the Rings,Balin,0.549350917339325,0.0002175015541521,0.5550071597099304,0.0120781824832434,0.005656242370605469,0.0118606809290913
The Hitchhiker's Guide to the Galaxy,Lunkwill and Fook,0.4897733032703399,0.8108937428787039,0.4954447150230407,1.0640168651871498,0.005671411752700806,0.2531231223084459
Twilight,Ephraim Black,0.5024842023849487,0.0407838751448227,0.5084919929504395,0.3136021898164468,0.006007790565490723,0.2728183146716241
Dune,Wellington Yueh/XD,0.5471604466438293,0.0221854132026156,0.55327969789505,0.0635189089527302,0.006119251251220703,0.0413334957501146
Twilight,Lauren Mallory,0.5087001323699951,0.1046919949277552,0.5148732662200928,0.6786735210628143,0.006173133850097656,0.5739815261350592
Twilight,Quil Ateara III,0.522699773311615,1.376730103374545,0.5288782119750977,3.4579578307244105,0.006178438663482666,2.081227727349866
Dune,Norma Cenva,0.5204500555992126,0.8675229225144631,0.5266615748405457,1.837110648516039,0.006211519241333008,0.9695877260015758
Dune,Lady Jessica,0.4814268946647644,0.8183071416981899,0.4877696335315704,0.4786327229740612,0.006342738866805975,-0.3396744187241287
Dune,Siona Atreides,0.5521973967552185,0.4251859907199635,0.5585514307022095,0.7290967952784161,0.006354033946990967,0.3039108045584526
Twilight,Kate,0.5128219127655029,8.269733972018102e-06,0.5191777944564819,7.505691770137726e-05,0.006355881690979004,6.678718372935916e-05
Harry Potter,Pius Thicknesse,0.5352836847305298,0.0050355374043997,0.5417342185974121,0.0009686914926889,0.006450533866882324,-0.0040668459117108
Twilight,Edward Cullen,0.4688284695148468,6.4407989313917016e-15,0.4753231108188629,3.5693628945339124e-17,0.006494641304016113,-6.405105302446362e-15
Twilight,Carmen,0.5283151865005493,0.0829523834471611,0.534820020198822,0.0296212923356351,0.006504833698272705,-0.05333109111152601
The Lord of the Rings,Isildur,0.5639517903327942,0.0017190756144345,0.5704807043075562,0.0004900782759689,0.006528913974761963,-0.0012289973384656
Harry Potter,Fred Weasley,0.4295276701450348,3.0741860570879064e-14,0.4363987147808075,4.724464131059359e-13,0.006871044635772705,4.4170455253505683e-13
Harry Potter,Rose Granger-Weasley,0.4835290610790252,0.0020220937393471,0.4905079305171966,0.0008935935276151,0.006978869438171387,-0.0011285002117320002
Harry Potter,Angelina Johnson,0.4777541160583496,2.1801935670909308e-09,0.4847449362277984,2.1221004157341175e-11,0.006990820169448797,-2.1589725629335897e-09
The Lord of the Rings,Ancalagon,0.5647336840629578,0.342067576096941,0.5720415115356445,1.852353893910325,0.007307827472686768,1.510286317813384
Harry Potter,Ludovic Bagman,0.5139326453208923,0.0003434273761095,0.5214139819145203,0.0088045764222933,0.00748133659362793,0.008461149046183801
Dune,Ramallo,0.5192633867263794,0.6802651506135601,0.526785671710968,1.7564567113021536,0.007522284984588623,1.0761915606885935
Harry Potter,Augustus Rookwood,0.5250228643417358,0.0302816109186054,0.5325822234153748,1.1034562149762293,0.007559359073638916,1.0731746040576238
Harry Potter,Gabrielle Delacour,0.5358893871307373,1.6292636276169852,0.5435107350349426,0.7295422436283255,0.007621347904205322,-0.8997213839886596
Twilight,Collin Littlesea,0.4132888913154602,0.4462590349206611,0.4209306836128235,0.5253429932322964,0.007641792297363281,0.07908395831163528
Dune,Gaius Helen Mohiam/XD,0.5350977182388306,0.1799723060960203,0.5428491234779358,0.0291274854580023,0.007751405239105225,-0.150844820638018
The Hitchhiker's Guide to the Galaxy,Loonquawl,0.5299618244171143,2.167583961268728,0.5380573868751526,1.3504768804522291,0.00809556245803833,-0.8171070808164991
Twilight,Laurent,0.5170486569404602,0.0472411873166432,0.5253803133964539,0.0671664965239533,0.008331656455993652,0.019925309207310102
Harry Potter,Viktor Krum,0.5373258590698242,0.0002306636100906,0.545743465423584,3.9996281059159766e-05,0.008417606353759766,-0.00019066732903144025
Harry Potter,Dominique Weasley,0.4879093170166015,0.7255257562355238,0.4963287115097046,1.0776867481650796,0.008419394493103083,0.35216099192955574
The Hitchhiker's Guide to the Galaxy,Zaphod Beeblebrox,0.5297273993492126,6.522426816119916,0.5381566882133484,3.069633836587143,0.008429288864135742,-3.4527929795327728
Dune,Miles Teg/XD,0.532462477684021,0.0335980786424726,0.5409138202667236,0.2495988234659447,0.008451342582702637,0.2160007448234721
Dune,Farok,0.5307134389877319,1.252020462013617,0.5392535924911499,2.2402187908158164,0.008540153503417969,0.9881983288021994
The Hitchhiker's Guide to the Galaxy,Genghis Khan,0.562825083732605,4.064341247103304,0.5715332627296448,3.537133148018112,0.008708178997039795,-0.527208099085192
Harry Potter,Rolanda Hooch,0.5636895298957825,5.530018437152822e-06,0.5725776553153992,1.6416685616012014e-06,0.0088881254196167,-3.88834987555162e-06
Dune,Wellington Yueh,0.501495361328125,0.0331817674998711,0.5105108022689819,0.1189647847515805,0.009015440940856934,0.08578301725170939
The Hitchhiker's Guide to the Galaxy,Rob McKenna,0.5013564229011536,1.8445934095467769,0.5104407668113708,0.9671327932562964,0.009084343910217285,-0.8774606162904804
The Lord of the Rings,Shelob,0.5686091780662537,0.0645494064807557,0.5777783393859863,0.0715136929409986,0.009169161319732666,0.0069642864602428994
Harry Potter,Radolphus Lestrange,0.4959030747413635,1.1928767494018544,0.5052648782730103,1.0011816763484989,0.009361803531646729,-0.19169507305335554
Dune,Tylwyth Waff/XD,0.5046780109405518,0.0572797423268531,0.5141244530677795,0.0307824634270925,0.009446442127227783,-0.026497278899760602
Dune,Leto Atreides I/DE,0.5495854616165161,0.0108780933689386,0.5590431690216064,0.1151216548500092,0.009457707405090332,0.10424356148107061
Dune,Glossu Rabban Harkonnen,0.5175232291221619,1.6648846207552683,0.5270715951919556,1.6965022447272684,0.009548366069793701,0.031617623972000075
Dune,Pardot Kynes/XD,0.5553362965583801,0.4676541632352077,0.5654928684234619,0.2482625768266559,0.010156571865081787,-0.2193915864085518
Harry Potter,Pansy Parkinson,0.5263082385063171,6.335119383670031e-05,0.5364938974380493,2.4553651229109244e-05,0.010185658931732178,-3.879754260759106e-05
Dune,Stilgar/XD,0.5401186943054199,0.0021607798069585,0.5506843328475952,0.0449924532599354,0.010565638542175293,0.0428316734529769
Dune,Hasimir Fenring,0.5092291235923767,0.0599460763560806,0.5197969079017639,0.8231785471587336,0.010567784309387207,0.763232470802653
Dune,Glossu Rabban Harkonnen/XD,0.5163030624389648,1.9687383972543937,0.5268983840942383,2.98210681605859,0.010595321655273438,1.0133684188041963
Twilight,Senna,0.5313248038291931,0.7388588395259263,0.5419725775718689,3.0810807549095856,0.010647773742675781,2.342221915383659
Twilight,Sam Uley,0.5345004796981812,3.3407527968562696e-06,0.5451577305793762,9.809743634886415e-07,0.010657250881195068,-2.3597784333676282e-06
Dune,Ghanima Atreides,0.5030497908592224,0.456099035919403,0.5137735605239868,0.4739373650218541,0.010723769664764404,0.01783832910245109
Harry Potter,Hedwig,0.5528015494346619,1.3236348290723768e-06,0.5637152791023254,0.0465219541746548,0.010913729667663574,0.046520630539825726
The Lord of the Rings,Éowyn,0.5337315797805786,0.0643447116777324,0.5446906089782715,0.0101247320642191,0.010959029197692871,-0.0542199796135133
The Hitchhiker's Guide to the Galaxy,Ford Prefect,0.5349965691566467,0.0016359965218269,0.5460115075111389,0.0006102896997805,0.011014938354492188,-0.0010257068220464
Twilight,Jane,0.5108405351638794,1.747826506749718e-05,0.5219396352767944,0.0001350164811822,0.011099100112915039,0.00011753821611470282
The Hitchhiker's Guide to the Galaxy,God,0.4929466247558594,0.7611859686127425,0.5041103363037109,1.2400362243250995,0.011163711547851562,0.47885025571235706
Dune,Tlaloc,0.5150976777076721,1.3235800958590465,0.5262837409973145,1.3342521559433118,0.011186063289642334,0.010672060084265356
Twilight,J. Jenks,0.5058053731918335,0.0907375468930449,0.5171025395393372,0.0055961626382182,0.011297166347503662,-0.0851413842548267
Dune,Chani Kynes/DE,0.52126145362854,0.0119608354597779,0.5325648784637451,0.0066813907945952,0.011303424835205078,-0.005279444665182699
The Hitchhiker's Guide to the Galaxy,Pizpot Gargravarr,0.4780510067939758,1.2405610646104204,0.4893694519996643,1.1042479307744448,0.011318445205688532,-0.13631313383597554
Harry Potter,Selwyn,0.5228598713874817,0.4116321344356413,0.5343292355537415,2.394098772583023,0.011469364166259766,1.9824666381473817
Twilight,Jacob Black,0.5409841537475586,3.1354022301309804e-18,0.5524781346321106,2.02428924271636e-14,0.011493980884552002,2.0239757024933467e-14
Dune,Schwangyu,0.4844034314155578,1.2344012679927614,0.495916485786438,1.905844963351925,0.011513054370880182,0.6714436953591636
Harry Potter,Herbert Beery,0.4967019855976105,0.9226989106447072,0.5082197189331055,0.6678673849081651,0.011517733335494995,-0.2548315257365421
Dune,Bellonda,0.5472717881202698,1.914614427769714,0.558951735496521,3.2823122391086605,0.01167994737625122,1.3676978113389466
The Lord of the Rings,Thorin II,0.5450388193130493,0.0002251177071778,0.5567585825920105,1.5075260576578151e-05,0.011719763278961182,-0.00021004244660122184
Harry Potter,William Weasley,0.4448753297328949,3.868378472871221e-12,0.4566180408000946,8.338006237782671e-09,0.011742711067199707,8.334137859309799e-09
Twilight,Huilen,0.5084694623947144,0.0193612746684533,0.5203309059143066,0.167516056896197,0.011861443519592285,0.1481547822277437
The Lord of the Rings,Círdan,0.548431396484375,0.0009984551225111,0.5604894161224365,0.0003506085197492,0.012058019638061523,-0.0006478466027619002
Harry Potter,Buckbeak,0.5682181715965271,0.0065009289029909,0.580355167388916,0.4603835704466067,0.012136995792388916,0.4538826415436158
Harry Potter,Amelia Bones,0.5205549001693726,0.0009218077475365,0.5331675410270691,0.0229132584348706,0.012612640857696533,0.0219914506873341
The Hitchhiker's Guide to the Galaxy,Lintilla,0.5092298984527588,0.0375674547429429,0.5219969153404236,0.2182135634334909,0.012767016887664795,0.180646108690548
The Hitchhiker's Guide to the Galaxy,Garkbit,0.5474410057067871,2.150926722287164,0.5605905055999756,1.6693015332100796,0.013149499893188477,-0.4816251890770844
Twilight,Mexican coven,0.4863122999668121,1.1338422448498091,0.4995346069335937,0.3756333417862993,0.013222306966781616,-0.7582089030635097
The Hunger Games,Hilarius Heavensbee,0.5257464051246643,2.915549426129869,0.5389699339866638,2.865011309197352,0.013223528861999512,-0.050538116932516974
Twilight,Jasper Hale,0.4784471094608307,1.5152801776171063e-14,0.4917148947715759,1.4310169521197962e-10,0.01326778531074524,1.4308654241020344e-10
Harry Potter,Ignatius Prewett,0.4946891069412231,1.7902052121825842,0.5079638361930847,3.1327661090134287,0.013274729251861628,1.3425608968308445
The Lord of the Rings,Boromir,0.5420252084732056,0.2208190084381805,0.5554778575897217,0.7555878355906783,0.013452649116516113,0.5347688271524978
Dune,Shaddam Corrino IV/XD,0.5147767066955566,0.000131402881912,0.5282754302024841,0.0006319043505837,0.01349872350692749,0.0005005014686717
Harry Potter,Antonin Dolohov,0.5382390022277832,3.5480705989705285e-08,0.5517462491989136,0.0061230377381866,0.013507246971130371,0.00612300225748061
Dune,Alia Atreides,0.4893916249275207,0.3759495787839849,0.5029388666152954,0.5119486452030756,0.013547241687774714,0.1359990664190907
Harry Potter,Abraxas Malfoy,0.5240101218223572,0.8402994775177771,0.5375826954841614,4.414291591723864,0.0135725736618042,3.573992114206087
Harry Potter,Filius Flitwick,0.5268425345420837,1.2740922888260842e-14,0.5406900644302368,1.3284388586224982e-14,0.013847529888153076,5.434656979641402e-16
Dune,Vladimir Harkonnen/XD,0.5087414383888245,0.0126153213001766,0.5226302146911621,0.0005912099523912,0.013888776302337646,-0.0120241113477854
Dune,Ghanima Atreides/DE,0.5431255102157593,0.0184900533589045,0.5572934150695801,0.0002466818876504,0.0141679048538208,-0.0182433714712541
Dune,Shaddam Corrino IV,0.4896143078804016,0.2547333733618208,0.5039195418357849,0.3047709552679341,0.0143052339553833,0.05003758190611329
Dune,Gurney Halleck/DE,0.5237235426902771,7.80490990649488e-05,0.5381442904472351,5.4366843694819045e-06,0.014420747756958008,-7.261241469546689e-05
Harry Potter,Louis Weasley,0.477510392665863,0.3763716623504393,0.4920884370803833,0.7043415549453589,0.01457804441452032,0.3279698925949196
Dune,Murbella/XD,0.5509612560272217,0.0042605360203453,0.5656845569610596,0.0065889801408347,0.01472330093383789,0.0023284441204894004
Harry Potter,Winky,0.5137649178504944,3.7180333107628807e-10,0.5285976529121399,2.9543687946961453e-05,0.014832735061645508,2.9543316143630377e-05
Harry Potter,Ignotus Peverell,0.5190726518630981,0.0052987115956037,0.5340760350227356,0.0086886643654895,0.015003383159637451,0.0033899527698858
Harry Potter,Susan Bones,0.5016250014305115,1.044451190003562e-05,0.516636848449707,2.0527205725835295e-05,0.015011847019195557,1.0082693825799674e-05
Dune,Piter De Vries,0.5168097615242004,1.2011160057250845,0.5319700837135315,0.3142512563685061,0.015160322189331055,-0.8868647493565784
Twilight,Randall,0.5008547902107239,0.8013084703856456,0.5161808133125305,1.1111082258308196,0.01532602310180664,0.309799755445174
The Lord of the Rings,Sauron,0.55887770652771,9.520907263119774e-15,0.5742641687393188,3.261945357337598e-16,0.015386462211608887,-9.194712727386013e-15
Harry Potter,Vernon Dursley,0.5272662043571472,6.212485952410986e-07,0.5427016019821167,6.863773862418665e-06,0.015435397624969482,6.242525267177566e-06
The Hitchhiker's Guide to the Galaxy,Allitnils,0.4764324724674225,0.9267979228199746,0.4918970465660095,2.2090297435287427,0.015464574098587036,1.282231820708768
Harry Potter,Cormac McLaggen,0.5392457246780396,0.0036528380863565,0.5548135638237,0.0022773543831394,0.0155678391456604,-0.0013754837032170998
The Hitchhiker's Guide to the Galaxy,Prostetnic Vogon Kwaltz,0.518119752407074,3.4838214822763125,0.5339058637619019,3.2836852870145714,0.01578611135482788,-0.2001361952617411
Harry Potter,Draco Malfoy,0.4260376393795013,2.0727558494490133e-24,0.4418421387672424,4.377671019229168e-24,0.01580449938774109,2.304915169780155e-24
Twilight,Nahuel,0.5198099613189697,0.0001496143541873,0.5356459617614746,0.0093758019657325,0.015836000442504883,0.0092261876115452
Twilight,Brady Fuller,0.3956279754638672,0.5116284986093381,0.4114735126495361,0.6457575021252607,0.01584553718566889,0.1341290035159226
Dune,Elrood Corrino IX/DE,0.5240652561187744,2.055177350250741,0.539954662322998,1.0623974013450832,0.015889406204223633,-0.9927799489056577
Twilight,Eric Yorkie,0.4881696403026581,0.5623445488738352,0.5041306614875793,0.0118004966490724,0.015961021184921265,-0.5505440522247629
Dune,Moneo Atreides/DE,0.5207986235618591,0.0169933038103549,0.5368085503578186,0.0389722544035895,0.016009926795959473,0.0219789505932346
Dune,Farad'n Corrino/DE,0.5454877614974976,0.1360803835870866,0.5617397427558899,0.4389136200390343,0.016251981258392334,0.3028332364519477
Harry Potter,Hannah Abbott,0.501757025718689,0.0001074081457927,0.5181064009666443,3.377844571077225e-05,0.016349375247955322,-7.362970008192775e-05
Dune,Duncan Idaho,0.4323752224445343,4.299264681713932e-06,0.4488130211830139,8.504003779689213e-05,0.016437798738479614,8.07407731151782e-05
Dune,Hayt,0.53470778465271,1.5180521114210097,0.5514741539955139,0.9640341616998124,0.016766369342803955,-0.5540179497211973
The Lord of the Rings,Arwen,0.5464745759963989,0.1120837503365553,0.5634442567825317,0.3171620415186561,0.016969680786132812,0.20507829118210083
Harry Potter,Amycus Carrow,0.5434501767158508,0.0014381752734228,0.5604273676872253,0.0040210889876485,0.01697719097137451,0.0025829137142257003
Dune,Anirul Corrino,0.5225465893745422,2.474441263015996,0.5395357012748718,1.5809147266168269,0.01698911190032959,-0.8935265363991693
Harry Potter,Lee Jordan,0.5299311876296997,5.50813428939482e-07,0.5473628640174866,3.103904551235241e-08,0.017431676387786865,-5.197743834271296e-07
The Lord of the Rings,Glaurung,0.5401473641395569,0.4969665719276755,0.5576618313789368,0.5131447505408182,0.017514467239379883,0.01617817861314269
The Lord of the Rings,Lúthien,0.5723878145217896,0.0270936559756417,0.5899309515953064,0.0311947249062694,0.017543137073516846,0.004101068930627699
Harry Potter,George Weasley,0.4343728423118591,1.1041000924381183e-10,0.4519184529781341,4.584112008293834e-17,0.017545610666275024,-1.1040996340269174e-10
Harry Potter,Astoria Malfoy,0.5139551758766174,0.1739315712718094,0.5315761566162109,0.0617906952050775,0.017620980739593506,-0.11214087606673188
Dune,Glossu Rabban Harkonnen/DE,0.5156644582748413,0.5911179880587586,0.5334367752075195,0.2469479976483533,0.017772316932678223,-0.3441699904104053
Harry Potter,Ronald Weasley,0.4331777393817901,1.3567801505026414e-75,0.4509760737419128,6.824030592784791e-50,0.01779833436012268,6.824030592784791e-50
Harry Potter,Peter Pettigrew,0.4958681762218475,4.957104768592705e-15,0.5136946439743042,2.1278037076170675e-16,0.01782646775245672,-4.744324397830998e-15
Twilight,Victoria,0.501200795173645,4.432191188189416e-07,0.5190312266349792,4.448238730152261e-09,0.01783043146133423,-4.387708800887893e-07
Dune,Wensicia Corrino/XD,0.5176679491996765,0.3300964516554381,0.5357435941696167,0.6113429482693907,0.018075644969940186,0.2812464966139526
Harry Potter,Penelope Clearwater,0.5347444415092468,0.0261293168336594,0.5528557300567627,0.5431606599566028,0.01811128854751587,0.5170313431229434
The Lord of the Rings,Peregrin Took,0.5489055514335632,0.0464784785542938,0.5671583414077759,0.259756079831601,0.018252789974212646,0.2132776012773072
Harry Potter,James Potter II,0.4239451587200165,0.0758531614991094,0.442296415567398,0.1334386020931742,0.018351256847381536,0.05758544059406481
Harry Potter,Hugo Granger-Weasley,0.499299556016922,0.8219367829176688,0.5179691910743713,1.1285507249449545,0.01866963505744934,0.30661394202728565
Harry Potter,Marcus Flint,0.5189085602760315,0.1679818948212658,0.5378551483154297,0.1026003383913475,0.018946588039398193,-0.0653815564299183
The Hitchhiker's Guide to the Galaxy,Vroomfondel,0.5492758750915527,3.215696991475031,0.5684738755226135,7.075020009600733,0.01919800043106079,3.859323018125702
Dune,Edric,0.4555673003196716,1.6918874681865883,0.4748502671718597,0.4430607189159135,0.01928296685218811,-1.2488267492706748
Harry Potter,Mosag,0.511151909828186,0.3146067008210708,0.5306013226509094,5.506598635033586,0.01944941282272339,5.191991934212515
The Lord of the Rings,Túrin,0.5359929203987122,0.0031212995238261,0.5554885864257812,0.0123316441340712,0.019495666027069092,0.0092103446102451
Harry Potter,Dennis Creevey,0.5198501348495483,0.0098147292150312,0.539430558681488,0.234732379510839,0.019580423831939697,0.2249176502958078
Twilight,Sue Clearwater,0.5219998359680176,0.0054350021418403,0.5417755246162415,0.086729489612971,0.019775688648223877,0.0812944874711307
Harry Potter,Seamus Finnigan,0.5081859230995178,4.973540467983953e-08,0.5281029343605042,3.903830609604088e-06,0.019917011260986328,3.8540952049242485e-06
Dune,Miles Teg,0.5189189910888672,0.2681962223686133,0.5390151143074036,0.1448957646937182,0.020096123218536377,-0.12330045767489509
Harry Potter,Stanley Shunpike,0.5125125050544739,0.0001899815832802,0.5326471328735352,0.0492213249874659,0.02013462781906128,0.0490313434041857
The Hunger Games,Dill,0.5028606057167053,0.2451743602029573,0.523024320602417,1.193962275881558,0.02016371488571167,0.9487879156786008
Harry Potter,Hermione Granger,0.4112300276756286,2.9516472073124808e-71,0.4317481517791748,5.799151224573938e-63,0.020518124103546198,5.799151195057465e-63
Dune,Paul Atreides,0.4265650808811188,8.731548300302262e-16,0.4470923244953155,1.404646801749611e-07,0.020527243614196722,1.4046467930180626e-07
The Hitchhiker's Guide to the Galaxy,Colin the Security Robot,0.5039634108543396,0.8033362636353436,0.5247041583061218,1.6877257126363137,0.020740747451782227,0.88438944900097
The Hitchhiker's Guide to the Galaxy,Haggunenons,0.5362321138381958,0.2886805227311668,0.5571754574775696,0.4709865359768333,0.02094334363937378,0.18230601324566653
Twilight,Bella Swan,0.3952494859695434,5.939886567791033e-55,0.4162090122699737,1.5759865319820068e-35,0.020959526300430298,1.5759865319820068e-35
Harry Potter,Antioch Peverell,0.5260823965072632,0.6315700178907088,0.5471259951591492,2.7292415587545946,0.021043598651885986,2.0976715408638857
Dune,Murbella,0.5474643707275391,0.154471121907629,0.5687645673751831,0.2643560206851601,0.021300196647644043,0.10988489877753113
Twilight,Esme Cullen,0.5194735527038574,1.8882644152475595e-06,0.5408172011375427,1.800503739677508e-08,0.021343648433685303,-1.8702593778507845e-06
The Lord of the Rings,Aragorn II,0.50068598985672,1.7792492357607546e-10,0.5221123099327087,2.6781300021117037e-08,0.02142632007598877,2.6603375097540963e-08
Harry Potter,Godric Gryffindor,0.5600596070289612,0.1934465617760647,0.5815922021865845,0.3879442750147787,0.02153259515762329,0.19449771323871398
Harry Potter,Gregory Goyle,0.5188907980918884,0.0001659307758786,0.5404361486434937,0.0134228033265469,0.021545350551605225,0.013256872550668299
Harry Potter,Millicent Bulstrode,0.5308506488800049,0.0039213606089411,0.5523985028266907,0.1360604343652472,0.02154785394668579,0.1321390737563061
Dune,Abulurd Harkonnen/DE,0.5226326584815979,2.355209266707807,0.5442755818367004,1.8550228390287269,0.02164292335510254,-0.50018642767908
Harry Potter,Helga Hufflepuff,0.5329432487487793,0.4412877151956188,0.5546277761459351,0.7214789294611813,0.02168452739715576,0.2801912142655625
Twilight,Caius,0.5081199407577515,0.0002120130062245,0.5298172235488892,0.0054086668811237,0.021697282791137695,0.005196653874899201
The Hunger Games,Casca Highbottom,0.506258487701416,0.0650593527912856,0.5281270146369934,0.1091434320394713,0.021868526935577393,0.044084079248185706
Twilight,Mike Newton,0.504562258720398,0.034271810459186,0.5264888405799866,0.0521201269325377,0.021926581859588623,0.0178483164733517
Dune,Dama,0.4661634266376495,0.632765663272812,0.4881497621536255,0.5984934097461226,0.021986335515976008,-0.03427225352668939
The Lord of the Rings,Celebrimbor,0.5222486257553101,3.8422712987406936e-10,0.5446069240570068,1.931494013476193e-05,0.022358298301696777,1.9314555907632056e-05
Dune,Tio Holtzman,0.5243291854858398,0.0339094691652163,0.546776533126831,0.0806944180099197,0.02244734764099121,0.0467849488447034
Harry Potter,Piers Polkiss,0.5279513001441956,1.6489753087854633,0.5504365563392639,2.264232237574679,0.02248525619506836,0.6152569287892156
Dune,Hwi Noree,0.5226144790649414,0.4619674838194923,0.5454983711242676,1.045962511333894,0.022883892059326172,0.5839950275144017
Harry Potter,Phineas Nigellus Black,0.4161959886550903,8.722631167702151e-11,0.4391177594661712,0.001245972126949,0.022921770811080933,0.0012459720397226884
Dune,Norma Cenva/XD,0.5358004570007324,1.6912344419431086e-05,0.5588939785957336,9.530227282788244e-06,0.02309352159500122,-7.382117136642842e-06
Twilight,Marcus,0.4808646738529205,5.0980755612432406e-11,0.5041912198066711,0.0001654865908661,0.023326545953750666,0.0001654865398853444
Dune,Tyros Reffa,0.477601021528244,0.2591778923928382,0.50094074010849,0.9563012286672196,0.02333971858024597,0.6971233362743814
Harry Potter,Sirius Black II,0.4137043058872223,1.4970798305253006,0.4373504221439361,1.44988328937953,0.02364611625671381,-0.047196541145770654
The Hunger Games,Felix Ravinstill,0.497509628534317,0.7569597060981684,0.5211723446846008,4.9564759788706,0.023662716150283813,4.199516272772431
Harry Potter,Regulus Black I,0.4602410495281219,2.881993727987275,0.4841390550136566,3.914690673488544,0.023898005485534723,1.032696945501269
Harry Potter,Amos Diggory,0.5123893022537231,0.0001421857441935,0.5364035964012146,0.0186355718199679,0.024014294147491455,0.018493386075774398
Harry Potter,Padma Patil,0.5312835574150085,0.0041073639852514,0.5553000569343567,0.006804173158775,0.024016499519348145,0.0026968091735236005
The Hunger Games,Lysistrata Vickers,0.5178585052490234,0.0392966245663494,0.541924238204956,0.0342210934724682,0.024065732955932617,-0.005075531093881203
Harry Potter,Irma Pince,0.545990526676178,3.834328601009992e-05,0.570099413394928,2.2054368732346752e-05,0.02410888671875,-1.6288917277753165e-05
The Lord of the Rings,Thráin II,0.5582897067070007,0.099461401974321,0.5826681852340698,0.0857693136359928,0.024378478527069092,-0.013692088338328204
Dune,Gurney Halleck/XD,0.5587338805198669,0.0017328906870092,0.583254337310791,0.0006679001167226,0.024520456790924072,-0.0010649905702865999
The Hunger Games,Coriolanus Snow,0.4737610518932342,5.4021960353435656e-24,0.4982879757881164,3.003031056288637e-16,0.024526923894882202,3.0030310022666765e-16
The Hitchhiker's Guide to the Galaxy,Questular Rontok,0.4703091382980346,0.8771735307178954,0.4949434399604797,3.671392817687145,0.02463430166244507,2.7942192869692497
Dune,Farad'n Corrino,0.5448617935180664,0.9648377285575548,0.5697649717330933,0.7528509074611063,0.024903178215026855,-0.2119868210964485
Dune,Elrood Corrino IX/XD,0.4921375811100006,0.2922703526301636,0.5170461535453796,0.4465344587806845,0.02490857243537903,0.15426410615052089
Dune,Shaddam IV/DE,0.5091221332550049,0.027741459477809,0.5343272686004639,0.0135321590099526,0.025205135345458984,-0.0142093004678564
The Lord of the Rings,Treebeard,0.5496479272842407,1.162358646047961,0.5748980045318604,0.6830583733905908,0.02525007724761963,-0.4793002726573701
Dune,Irulan Corrino/DE,0.550780177116394,0.4226015095115137,0.5761006474494934,0.0436463687581597,0.025320470333099365,-0.378955140753354
The Hitchhiker's Guide to the Galaxy,Hurling Frootmig,0.5095316171646118,1.1613256445913551,0.5354017615318298,6.945373435809096,0.025870144367218018,5.784047791217741
The Hitchhiker's Guide to the Galaxy,Lady Cynthia Fitzmelton,0.4950838088989258,2.279268813876131,0.5210451483726501,1.456673708838827,0.025961339473724365,-0.8225951050373039
Twilight,Sasha,0.4810808897018432,0.4161385706492169,0.5072795152664185,0.7533934555832582,0.02619862556457525,0.3372548849340413
Twilight,Quil Ateara V,0.5184285044670105,0.0709129773035447,0.5447222590446472,0.0151389090144004,0.02629375457763672,-0.0557740682891443
The Hitchhiker's Guide to the Galaxy,Marvin,0.484896183013916,0.0448530341449306,0.511262059211731,0.035672150351215,0.02636587619781494,-0.009180883793715601
Harry Potter,Katie Bell,0.5194967985153198,0.5733742337392354,0.5462033748626709,4.936397187093926e-05,0.026706576347351074,-0.5733248697673644
The Hitchhiker's Guide to the Galaxy,The Lord,0.4786936342716217,0.7330198212296604,0.5055925250053406,2.615318836845547,0.026898890733718872,1.8822990156158865
Harry Potter,Mykew Gregorovitch,0.5404965877532959,0.5335715178128574,0.5676182508468628,0.2548240994933074,0.027121663093566895,-0.27874741831954997
Harry Potter,Bartemius Crouch Junior,0.5178530216217041,1.091887058193572e-09,0.5451473593711853,1.0182633724749883e-06,0.0272943377494812,1.0171714854167948e-06
Dune,Ziarenko Javid,0.4578582346439361,0.6050668202429494,0.4851575493812561,0.3933315766436584,0.027299314737320002,-0.21173524359929102
The Hitchhiker's Guide to the Galaxy,Know-Nothing-Bozo,0.4760148525238037,0.4285007755852918,0.5036264657974243,1.7323898942367415,0.027611613273620605,1.3038891186514496
Harry Potter,Aurora Sinistra,0.5384693145751953,0.0039811457760749,0.5660901665687561,0.0096475753307627,0.02762085199356079,0.005666429554687801
The Hitchhiker's Guide to the Galaxy,Golgafrinchans,0.5555280447006226,0.5722426140796691,0.5831906199455261,0.9043638544842756,0.027662575244903564,0.33212124040460644
Harry Potter,Neville Longbottom,0.4788827002048492,1.9623084538284704e-29,0.5066819787025452,2.967786318968274e-17,0.02779927849769598,2.967786318966312e-17
Harry Potter,Galatea Merrythought,0.5031517148017883,0.0933309284355092,0.5311101078987122,0.3781398273970888,0.027958393096923828,0.28480889896157957
Harry Potter,Fawkes,0.5404523611068726,0.0018548702511662,0.5684202313423157,0.002207461570871,0.027967870235443115,0.00035259131970480015
Harry Potter,Bellatrix Lestrange,0.437349259853363,9.609882202459116e-15,0.4653944969177246,6.042007373083387e-10,0.028045237064361628,6.041911274261363e-10
Harry Potter,Crookshanks,0.5563506484031677,0.0182221699750636,0.5845798254013062,0.0864655923569136,0.028229176998138428,0.06824342238185001
Dune,Thufir Hawat,0.5127475261688232,0.0008709229628529,0.5411409139633179,0.0103834121694274,0.02839338779449463,0.009512489206574501
The Hitchhiker's Guide to the Galaxy,Hillman Hunter,0.4944215714931488,1.1628985389124584,0.5228585004806519,1.4862956145773258,0.028436928987503052,0.3233970756648674
The Hitchhiker's Guide to the Galaxy,Agrajag,0.5278735160827637,1.249451448033627,0.5563676953315735,0.8704027921106186,0.028494179248809814,-0.3790486559230084
The Hitchhiker's Guide to the Galaxy,Eddie the Computer,0.5186979174613953,1.389106311251118,0.5472457408905029,1.89920160603126,0.028547823429107666,0.510095294780142
The Hitchhiker's Guide to the Galaxy,Judiciary Pag,0.4934645295143127,1.1550576938304302,0.5220546126365662,1.1849566842689736,0.028590083122253473,0.029898990438543382
Dune,Liet-Kynes,0.555835485458374,0.5706633104627309,0.5850142240524292,1.3412782147794189,0.029178738594055176,0.770614904316688
Twilight,Garrett,0.4880581796169281,0.0012541441044071,0.5172377228736877,0.0170957536524596,0.029179543256759644,0.0158416095480525
Harry Potter,Remus Lupin,0.4303143620491028,1.5356015213588345e-30,0.4595633149147033,1.0297840535911381e-18,0.02924895286560053,1.0297840535896026e-18
Harry Potter,Elphias Doge,0.5228362679481506,2.958545903979144e-06,0.552577018737793,0.0056237032128132,0.029740750789642334,0.005620744666909221
The Hitchhiker's Guide to the Galaxy,Reg Nullify,0.4855768084526062,0.7505794348283892,0.5154280662536621,1.2578061934906148,0.029851257801055908,0.5072267586622257
Harry Potter,Reginald Cattermole,0.4843285977840423,0.0056652815747552,0.514235258102417,0.1386939661364793,0.02990666031837469,0.1330286845617241
The Hitchhiker's Guide to the Galaxy,Random Dent,0.4673491418361664,0.5507473556292037,0.4972631335258484,0.8773557642039376,0.029913991689682007,0.32660840857473383
Harry Potter,Dean Thomas,0.5245104432106018,5.0331351771668064e-08,0.5545734763145447,2.63938511619102e-08,0.03006303310394287,-2.3937500609757865e-08
Harry Potter,Justin Finch-Fletchley,0.5231545567512512,0.0007911918399209,0.553390622138977,0.0031100958596037,0.03023606538772583,0.0023189040196828
Twilight,Vasilii,0.4966283440589905,1.0765466528919176,0.5268876552581787,1.0200902643393164,0.030259311199188232,-0.05645638855260127
Harry Potter,Dexter Fortescue,0.5058786273002625,0.1677785133968258,0.5361914038658142,1.5317022131586613,0.030312776565551758,1.3639236997618354
The Hitchhiker's Guide to the Galaxy,Googleplex Starthinker,0.5155740976333618,1.734941388037659,0.5459162592887878,2.508424445424082,0.030342161655426025,0.7734830573864229
Dune,Feyd-Rautha Harkonnen/XD,0.5244551301002502,0.2209464299318592,0.5551422238349915,0.7598627271067623,0.03068709373474121,0.5389162971749031
Dune,Sheeana Brugh,0.5216577053070068,1.6398683482460774,0.5524136424064636,0.6070388540217229,0.030755937099456787,-1.0328294942243545
The Lord of the Rings,Saruman,0.5446438193321228,1.6455604895171072e-08,0.575408935546875,2.564652520336228e-09,0.030765116214752197,-1.3890952374834843e-08
Dune,Otheym,0.5500314235687256,2.015539700107841,0.5811125040054321,2.123485627132705,0.031081080436706543,0.10794592702486394
Dune,Piter de Vries/DE,0.498644471168518,0.6882678398360882,0.5297366380691528,0.8436698552764085,0.03109216690063482,0.15540201544032028
Dune,Liet Kynes/XD,0.5056871175765991,0.4267817938549977,0.5368319153785706,0.0930184075054226,0.031144797801971436,-0.3337633863495751
Harry Potter,Petunia Dursley,0.5253818035125732,2.7484428600081665e-17,0.5567929744720459,3.122020972290376e-11,0.031411170959472656,3.1220182238475154e-11
The Hitchhiker's Guide to the Galaxy,Poodoo,0.4517234861850738,0.9914180529545824,0.4831407964229584,0.8905292668827076,0.03141731023788458,-0.10088878607187479
Harry Potter,Poppy Pomfrey,0.523453950881958,3.306131125164552e-05,0.5549783706665039,9.523565212270224e-07,0.0315244197845459,-3.2108954730418494e-05
Dune,Moneo Atreides,0.5351380705833435,0.0671720554916882,0.5666695237159729,0.079418627583613,0.031531453132629395,0.012246572091924798
The Hitchhiker's Guide to the Galaxy,Great Circling Poets of Arium,0.5388081669807434,6.063046081098422,0.5708460211753845,4.127418647906974,0.03203785419464111,-1.9356274331914483
The Hitchhiker's Guide to the Galaxy,Old Thrashbarg,0.50443434715271,2.304622332250105,0.5367488265037537,2.880020926472149,0.0323144793510437,0.5753985942220439
Twilight,Amun,0.5087057948112488,0.0141599051411207,0.5411012172698975,0.0069260900184014,0.03239542245864868,-0.0072338151227193
Harry Potter,Salazar Slytherin,0.5442996025085449,0.0104173387673568,0.5767410397529602,0.023676950687187,0.03244143724441528,0.0132596119198302
Dune,Leto Atreides II/DE,0.550773561000824,0.4757163590501479,0.5835585594177246,0.392839470839436,0.032784998416900635,-0.08287688821071193
Dune,Piter de Vries,0.5186235308647156,1.0917605396193313,0.5514110326766968,1.3860388338255512,0.0327875018119812,0.29427829420621987
The Lord of the Rings,Faramir,0.5335369110107422,2.196711129757189e-08,0.5664160847663879,0.0003611172928179,0.03287917375564575,0.00036109532570660245
Twilight,Aro,0.494179219007492,1.1873361905796463e-05,0.5273670554161072,6.690657744070836e-09,0.03318783640861517,-1.1866671248052393e-05
The Hitchhiker's Guide to the Galaxy,Lallafa,0.4913549423217773,1.234184929308191,0.5246409177780151,1.2451024171994256,0.03328597545623785,0.01091748789123459
Twilight,James,0.5001585483551025,5.4422928907764165e-06,0.5335059762001038,4.044331620781865e-05,0.03334742784500122,3.500102331704223e-05
Dune,Faykan Butler,0.4448840022087097,0.0002313513147928,0.4782406985759735,0.0133114590298343,0.033356696367263794,0.013080107715041499
Dune,Rhombur Vernius,0.5316701531410217,0.263313827626628,0.5652472376823425,0.2107685816832006,0.0335770845413208,-0.05254524594342744
Dune,Zufa Cenva,0.5254482626914978,0.2885109878806737,0.5592314600944519,0.4242236110242585,0.0337831974029541,0.1357126231435848
Harry Potter,Griphook,0.5196143984794617,1.526951339910751e-14,0.5534306168556213,0.0423014112592397,0.03381621837615967,0.04230141125922443
Dune,Quintinius Violet Chenoeh,0.5079689621925354,0.0001779667848051,0.5418000221252441,0.054490330655392,0.03383105993270874,0.054312363870586904
The Hunger Games,Clemensia Dovecote,0.5027875304222107,0.0022086489765482,0.5366327166557312,0.0030845318959955,0.03384518623352051,0.0008758829194473001
Dune,Logno,0.4791071116924286,0.4769625356351073,0.5131859183311462,0.8968756717446253,0.03407880663871765,0.419913136109518
The Lord of the Rings,Celeborn,0.5357238054275513,0.0061170176327287,0.5699508786201477,0.006009502841518,0.034227073192596436,-0.00010751479121069978
Dune,Margot Fenring/XD,0.5333975553512573,0.1725055797099393,0.5680323243141174,0.0950900472838067,0.03463476896286011,-0.0774155324261326
The Hitchhiker's Guide to the Galaxy,Captain,0.4701012969017029,0.8914601990871815,0.5049018263816833,1.2783063136013242,0.03480052947998047,0.38684611451414264
The Hitchhiker's Guide to the Galaxy,Prostetnic Vogon Jeltz,0.513843834400177,1.0560071573887866,0.5489605069160461,6.587417323695032,0.03511667251586914,5.531410166306245
Twilight,Eleazar,0.4906131327152252,5.2501685198542807e-05,0.5258280038833618,0.0090165292628615,0.0352148711681366,0.008964027577662959
Harry Potter,Victoire Weasley,0.4607256054878235,0.2253017983052284,0.4959508180618286,0.8457272489786286,0.03522521257400513,0.6204254506734002
Twilight,Angela Weber,0.5287337899208069,0.0001942940487463,0.5641882419586182,0.0057412719158187,0.03545445203781128,0.0055469778670724
Harry Potter,Armando Dippet,0.505857527256012,8.3552439722954e-05,0.5415210127830505,0.0002518903208796,0.035663485527038574,0.00016833788115664603
Dune,Margot Fenring,0.5221108794212341,1.4996985744724722,0.557780385017395,1.932461421210237,0.03566950559616089,0.43276284673776466
Twilight,Jessica Stanley,0.5237728357315063,6.293801150954197e-07,0.5599763989448547,0.0463683456651367,0.03620356321334839,0.04636771628502161
Dune,Kwisatz Haderach/XD,0.5256600975990295,0.0005101529901377,0.5622327923774719,0.042706328966545,0.03657269477844238,0.0421961759764073
Twilight,Tyler Crowley,0.5238538384437561,0.0231869740216597,0.5604785680770874,0.3948610573127334,0.0366247296333313,0.3716740832910737
Twilight,Zafrina,0.5141040086746216,0.0171578735488153,0.5509006977081299,0.202930241031077,0.0367966890335083,0.18577236748226172
The Lord of the Rings,Gandalf,0.5118842720985413,3.945079369957593e-45,0.5488572716712952,4.507333238681804e-14,0.036972999572753906,4.507333238681804e-14
Dune,Korba,0.4682264029979706,0.4640837118200044,0.5054208040237427,2.8846625583496004,0.037194401025772095,2.420578846529596
Harry Potter,Lucius Malfoy,0.3937987387180328,1.752085730034681e-28,0.4311620593070984,4.4939463266867754e-20,0.03736332058906561,4.493946309165918e-20
The Lord of the Rings,Gil-galad,0.5429753065109253,3.992330854099503e-06,0.5805577635765076,0.0005277522935639,0.037582457065582275,0.0005237599627098005
Dune,Marcus Claire Luyseyal,0.4648575186729431,1.8430672057568052,0.5026334524154663,1.292017631524187,0.03777593374252319,-0.5510495742326182
Dune,Jessica Atreides,0.4537184536457062,0.3805447533259145,0.4916242659091949,0.2993426541378617,0.037905812263488714,-0.08120209918805277
The Lord of the Rings,Galadriel,0.5171319842338562,7.709674113835753e-12,0.5553997755050659,1.397662792435749e-06,0.03826779127120972,1.3976550827616352e-06
Twilight,Billy Black,0.4989759027957916,1.6643584500858078e-10,0.537467896938324,0.0005262491445789,0.03849199414253235,0.0005262489781430549
Twilight,Charlotte,0.4737335443496704,0.0118918747067339,0.512546181678772,0.117198022562621,0.03881263732910156,0.1053061478558871
The Lord of the Rings,Thranduil,0.5269078612327576,6.092033510778044e-05,0.5660842061042786,0.0008985311352239,0.039176344871520996,0.0008376108001161197
The Hitchhiker's Guide to the Galaxy,Dan Streetmentioner,0.4941023290157318,0.8326234099356798,0.5334910154342651,4.090775552006466,0.039388686418533325,3.258152142070786
Harry Potter,Minerva McGonagall,0.3971514701843261,1.3038879298084957e-83,0.4366553127765655,2.296799789784901e-39,0.03950384259223938,2.296799789784901e-39
The Hitchhiker's Guide to the Galaxy,Russell,0.4498488306999206,0.9611383940426358,0.4896730780601501,1.3788220994611478,0.03982424736022949,0.41768370541851196
Harry Potter,Severus Snape,0.4418982267379761,8.387277447329686e-73,0.4818568527698517,8.244675076582255e-35,0.03995862603187561,8.244675076582255e-35
Dune,Jehanne Butler,0.5055042505264282,0.4524515807853718,0.5455343127250671,1.6248335593294287,0.040030062198638916,1.172381978544057
Dune,Irulan Corrino/XD,0.5566073060035706,0.1170033805533526,0.5974995493888855,0.12372154047612,0.04089224338531494,0.006718159922767392
The Lord of the Rings,Meriadoc Brandybuck,0.5384873151779175,0.0005214794929133,0.5795376896858215,0.366997103286391,0.04105037450790405,0.3664756237934777
Dune,Feyd-Rautha Harkonnen,0.5248181819915771,0.0242700844214606,0.5660179853439331,0.5782968959010225,0.04119980335235596,0.5540268114795619
The Hitchhiker's Guide to the Galaxy,Lajestic Vantrashell of Lob,0.4798120856285095,0.924294034610378,0.5210251808166504,1.097730874072926,0.04121309518814087,0.17343683946254795
Dune,Minotauros Atreides,0.5098782181739807,0.4726024909550978,0.5512829422950745,1.0689739547136146,0.04140472412109375,0.5963714637585167
The Lord of the Rings,Samwise Gamgee,0.5230641961097717,3.6388793600571816e-10,0.564491331577301,0.0002008028794666,0.0414271354675293,0.000200802515578664
The Hitchhiker's Guide to the Galaxy,Max Quordlepleen,0.4511159062385559,3.570456858382971,0.4930656552314758,3.61687494180937,0.041949748992919866,0.04641808342639919
Dune,Gaius Helen Mohiam,0.5118646025657654,0.5923455397157436,0.5539801716804504,1.345561990870139,0.04211556911468506,0.7532164511543955
Harry Potter,Alice Longbottom,0.549995481967926,0.0078727415908844,0.5922210812568665,0.2124842117228558,0.04222559928894043,0.2046114701319714
Dune,Leto Atreides I,0.4267559349536896,0.0505358784749006,0.4691825807094574,0.917174189737924,0.04242664575576782,0.8666383112630234
Harry Potter,Dobby,0.4861740469932556,1.343842603081895e-38,0.5286032557487488,5.562264130154539e-12,0.042429208755493164,5.562264130154539e-12
The Lord of the Rings,Maedhros,0.5226255059242249,0.0009328629238946,0.5652932524681091,0.0039668451785056,0.04266774654388428,0.003033982254611
The Lord of the Rings,Thingol,0.5203168988227844,0.0013983309163774,0.563549816608429,0.3178218958311114,0.04323291778564453,0.316423564914734
Dune,Alia Atreides/DE,0.5239405035972595,0.0002862833040485,0.5672817826271057,0.0027579347616412,0.04334127902984619,0.0024716514575927
The Hunger Games,Festus Creed,0.4839156866073608,0.0078707127395732,0.5273590683937073,0.6311206184807805,0.04344338178634649,0.6232499057412073
Harry Potter,Kingsley Shacklebolt,0.5045850276947021,4.4676675267073386e-10,0.5480821132659912,8.584733864807842e-05,0.04349708557128906,8.584689188132574e-05
Dune,Vorian Atreides,0.4751562774181366,1.4163963321400182e-17,0.5187790393829346,2.5886888573254676e-10,0.043622761964797974,2.5886887156858346e-10
The Hitchhiker's Guide to the Galaxy,Prak,0.4905106723308563,0.6518224329095403,0.5342075228691101,0.2535641947033989,0.043696850538253784,-0.3982582382061414
Dune,Scytale/XD,0.4909877777099609,0.51265410774741,0.534932017326355,0.2528606260366279,0.0439442396163941,-0.25979348171078215
Dune,Victor Atreides,0.506988525390625,0.4854788331214913,0.5509785413742065,1.8472275871387545,0.04399001598358154,1.3617487540172633
The Hunger Games,Coral,0.4871584773063659,0.0132880601333159,0.5316688418388367,0.0114198382886126,0.04451036453247076,-0.0018682218447033001
Dune,Alia Atreides/XD,0.5391220450401306,0.0758426381656369,0.5837523341178894,0.1292918453255478,0.04463028907775879,0.0534492071599109
Dune,Tylwyth Waff,0.5103193521499634,1.2471047028050286,0.5549952983856201,2.398156943086687,0.04467594623565674,1.1510522402816585
The Hitchhiker's Guide to the Galaxy,Guide Mark II,0.5246058702468872,2.217340103715548,0.5693833231925964,5.79343697146378,0.04477745294570923,3.5760968677482325
Harry Potter,Michael Corner,0.5107157826423645,0.0003401085277503,0.555661678314209,0.0371584603738196,0.04494589567184448,0.0368183518460693
The Hitchhiker's Guide to the Galaxy,Deep Thought,0.5038940906524658,2.2692060489846395,0.5494114756584167,7.675943330747187,0.04551738500595093,5.406737281762547
Dune,Nayla,0.5090541243553162,1.380255607613895,0.5547029376029968,2.216420042150687,0.045648813247680664,0.8361644345367922
Twilight,Rosalie Hale,0.4210961163043976,1.522898969573391e-29,0.4669805467128753,1.2481323607214902e-09,0.04588443040847773,1.2481323607214902e-09
Dune,Bijaz,0.4763267338275909,0.0857516675089123,0.5222273468971252,0.3078779775239562,0.04590061306953436,0.22212631001504388
Dune,Darwi Odrade,0.4963633716106415,0.0002073582729046,0.5423174500465393,0.000584566008419,0.04595407843589783,0.0003772077355144
Dune,Stilgar,0.5141476392745972,0.0252189956389754,0.5601250529289246,0.6598181699076373,0.04597741365432739,0.6345991742686619
Harry Potter,Arabella Figg,0.5091341137886047,0.0004965689139694,0.5551336407661438,0.002456195213867,0.04599952697753906,0.0019596262998976
Dune,Norma Cevna,0.4879682660102844,0.4627305300846431,0.5340533256530762,1.5776316874180487,0.04608505964279175,1.1149011573334056
The Hitchhiker's Guide to the Galaxy,Fenchurch,0.5029133558273315,0.436816740355315,0.5491816401481628,2.788598412666176,0.0462682843208313,2.3517816723108607
The Hitchhiker's Guide to the Galaxy,Number One,0.4701216220855713,0.75715075550676,0.5169594883918762,1.0127374175198296,0.04683786630630493,0.25558666201306957
Twilight,Leah Clearwater,0.5169997811317444,4.241030598815205e-09,0.5638935565948486,0.0005098959441547,0.04689377546310425,0.0005098917031241011
Twilight,Seth Clearwater,0.502092719078064,4.324202595251783e-06,0.5490973591804504,6.356822996624419e-05,0.047004640102386475,5.924402737099241e-05
Harry Potter,Cho Chang,0.5150471329689026,2.119713374569584e-09,0.5623013973236084,2.1926488869685263e-05,0.04725426435470581,2.1924369156310693e-05
Dune,Paulus Atreides,0.5075477957725525,0.3624529466407594,0.5549787282943726,0.2792673337867188,0.04743093252182007,-0.08318561285404058
The Lord of the Rings,Morgoth,0.5190081596374512,2.0688363415154177e-37,0.5666493773460388,6.268660418340737e-14,0.047641217708587646,6.268660418340737e-14
Dune,Octa Butler,0.4907942414283752,0.9616246593489964,0.5384519100189209,0.8336190638688741,0.04765766859054571,-0.12800559548012236
Harry Potter,Cedric Diggory,0.508185088634491,2.5117502142914957e-10,0.5558898448944092,1.4979696081210665e-08,0.04770475625991821,1.4728521059781516e-08
The Lord of the Rings,Gríma,0.5212756395339966,5.251712903655633e-06,0.5692323446273804,0.0277604963130041,0.04795670509338379,0.027755244600100447
Twilight,Emily Young,0.4727534055709839,6.789327465527833e-05,0.5208245515823364,0.0198025887684117,0.04807114601135254,0.01973469549375642
Dune,Hedley Tuek,0.5012686848640442,0.8528892658395569,0.5494043827056885,3.3221336321817136,0.04813569784164429,2.469244366342157
Dune,Xavier Harkonnen,0.4857445061206817,0.1233731617434948,0.5339184999465942,0.086104823190525,0.04817399382591253,-0.03726833855296981
Dune,Piter de Vries/XD,0.4968147873878479,0.6569529393805861,0.5453655123710632,0.8382331931270907,0.04855072498321533,0.18128025374650458
Harry Potter,Molly Weasley,0.4016180336475372,6.092350640169701e-25,0.4505211412906647,2.6422648695289244e-14,0.0489031076431275,2.642264869468001e-14
The Lord of the Rings,Shadowfax,0.5648295283317566,0.3890149754448402,0.6138356924057007,2.0264992736182745,0.04900616407394409,1.6374842981734343
Dune,Wensicia Corrino,0.5128865838050842,0.3153192730019969,0.5619364380836487,0.7216843757107477,0.04904985427856445,0.4063651027087508
Dune,Vladimir Harkonnen,0.4867779016494751,0.0001505228814663,0.5358825922012329,0.0096867387737752,0.04910469055175781,0.009536215892308901
The Hunger Games,Lucretius Flickerman,0.4902027547359466,0.0939011952811636,0.5393720269203186,0.589511450516191,0.049169272184372004,0.49561025523502744
The Hitchhiker's Guide to the Galaxy,Humma Kavula,0.4854363799095154,2.2302570691344465,0.5347691178321838,3.984604519484152,0.04933273792266846,1.7543474503497056
The Hitchhiker's Guide to the Galaxy,Frankie and Benjy,0.4923978745937347,1.267063050433921,0.5418630838394165,0.860260990348623,0.04946520924568182,-0.40680206008529807
Twilight,Harry Clearwater,0.5271331071853638,0.0771510347161021,0.5767209529876709,0.6637569887558147,0.04958784580230713,0.5866059540397126
The Hitchhiker's Guide to the Galaxy,Enid Kapelsen,0.4754455387592315,0.7356555317138347,0.5252365469932556,2.0558919134539813,0.0497910082340241,1.3202363817401466
Twilight,Rebecca Black,0.4905277788639068,1.694341108273348,0.5405735969543457,1.9415575811841224,0.0500458180904389,0.24721647291077442
Dune,Daniel,0.4645688235759735,1.1396690601962824,0.5149021744728088,1.4144662014369864,0.05033335089683533,0.274797141240704
Twilight,Carlisle Cullen,0.473253071308136,4.0819594203887116e-14,0.5237205028533936,3.3957377324229586e-10,0.05046743154525757,3.39532953648092e-10
Harry Potter,Frank Longbottom,0.4999121725559234,0.0083453014748478,0.550783097743988,0.0202524119291524,0.05087092518806463,0.0119071104543046
The Lord of the Rings,Gollum,0.5052807927131653,0.0013260696356764,0.5564112663269043,1.3143583509927918e-06,0.051130473613739014,-0.0013247552773254072
Dune,Tertius Eileen Anteac,0.4764074683189392,1.08280321228203,0.5279062390327454,0.5697165931084059,0.05149877071380615,-0.513086619173624
Twilight,Riley Biers,0.481784462928772,0.0007066761351716,0.5338358879089355,0.0043864494845665,0.052051424980163574,0.0036797733493949005
Dune,Kwisatz Haderach,0.5319060683250427,2.314645582759502,0.5842639803886414,0.4332015363986393,0.05235791206359863,-1.8814440463608628
The Hitchhiker's Guide to the Galaxy,Number Two,0.4723681807518005,1.0172210753981112,0.5249651074409485,1.891842430379726,0.052596926689148005,0.8746213549816149
Harry Potter,Sirius Black,0.3904797434806824,1.4840152637366432e-36,0.4434325993061065,1.6285202799036183e-16,0.05295285582542414,1.6285202799036183e-16
The Hitchhiker's Guide to the Galaxy,Almighty Bob,0.472106397151947,1.8178153282006495,0.5257226228713989,1.282503917812484,0.053616225719451904,-0.5353114103881655
Twilight,Paul Lahote,0.4929846525192261,0.0650039798713036,0.5468891859054565,0.0114961471110208,0.05390453338623047,-0.0535078327602828
Dune,Marty,0.4810429215431213,0.6357832124722865,0.5355134606361389,1.1749122955338511,0.054470539093017634,0.5391290830615646
Harry Potter,Rubeus Hagrid,0.4557058215141296,8.264844497468667e-49,0.5102594494819641,3.8307635721064615e-35,0.05455362796783453,3.8307635721063787e-35
Dune,Anirul Corrino/XD,0.4994125068187713,0.0042798590082355,0.5541152358055115,0.032209550614232,0.05470272898674017,0.027929691605996503
The Hunger Games,Palmyra Monty,0.472921758890152,1.5904205630040913,0.5278159976005554,3.263416189954819,0.05489423871040344,1.6729956269507276
Dune,Lichna,0.4806603491306305,0.7885907564992238,0.5356293320655823,1.2170555221038657,0.05496898293495178,0.42846476560464186
The Hunger Games,Katniss Everdeen,0.519557774066925,3.65432515346452e-43,0.5745389461517334,2.6328331311807864e-26,0.05498117208480835,2.6328331311807864e-26
Harry Potter,Silvanus Kettleburn,0.5057587027549744,0.0311765336238078,0.5608705878257751,0.0927065354051632,0.05511188507080078,0.0615300017813554
The Lord of the Rings,Beorn,0.5492223501205444,0.0097632475732795,0.6046136021614075,0.3106082462205135,0.05539125204086304,0.30084499864723396
The Hitchhiker's Guide to the Galaxy,Agda,0.46803879737854,2.9516281496573056,0.524824321269989,2.815918518712229,0.05678552389144903,-0.1357096309450765
Twilight,Rachel Black,0.459322452545166,0.2233865625005446,0.5164759159088135,0.2307405801968249,0.05715346336364746,0.007354017696280302
The Lord of the Rings,Bard,0.4945544898509979,1.033529165914471e-06,0.551708996295929,0.0006381300107068,0.05715450644493103,0.0006370964815408856
The Hitchhiker's Guide to the Galaxy,Elvis Presley,0.5011067390441895,1.609992408904595,0.5591363310813904,2.6158644739967696,0.05802959203720093,1.0058720650921746
Harry Potter,Dilys Derwent,0.4813231229782104,0.9770056352192692,0.5395203232765198,5.368407745605208,0.05819720029830938,4.391402110385939
Twilight,Heidi,0.4432032108306885,1.1909742378961369e-05,0.5017697215080261,0.0973995559879589,0.058566510677337646,0.09738764624557993
Harry Potter,Septima Vector,0.4892975091934204,0.0095917744257842,0.5480210781097412,0.0237243000651032,0.0587235689163208,0.014132525639319
The Lord of the Rings,Frodo Baggins,0.4933287799358368,2.241986132730996e-24,0.5521223545074463,5.5307303463629655e-11,0.0587935745716095,5.530730346362741e-11
Dune,Tyekanik,0.5009756684303284,1.0375448116757977,0.5598437190055847,1.7770153064061789,0.05886805057525635,0.7394704947303812
The Hitchhiker's Guide to the Galaxy,Old Man on the Pole,0.4618424773216247,3.5872037574438447,0.5208659172058105,3.2471445871414253,0.059023439884185847,-0.3400591703024194
Harry Potter,Horace Slughorn,0.4530992209911346,2.652094226555034e-32,0.5123775601387024,7.932763502325504e-14,0.059278339147567805,7.932763502325504e-14
Twilight,Jared Cameron,0.4788881540298462,0.0001280324325299,0.53817218542099,0.0088408051135765,0.0592840313911438,0.008712772681046602
Harry Potter,Broderick Bode,0.4935923218727112,0.0105640719212743,0.552916407585144,0.523163746239573,0.05932408571243286,0.5125996743182987
Twilight,Santiago,0.4693394899368286,0.4342750567964758,0.528692901134491,1.1658053791281655,0.059353411197662354,0.7315303223316897
Harry Potter,Dorcas Meadowes,0.5201269388198853,1.0750276045335116,0.5796972513198853,12.504529644263242,0.0595703125,11.42950203972973
The Hitchhiker's Guide to the Galaxy,Paul Neil Milne Johnstone,0.4923142492771148,2.266127702590809,0.5523571372032166,3.8201830291524166,0.06004288792610174,1.5540553265616075
Dune,Scytale,0.4664556980133056,0.0463070633524614,0.5265158414840698,0.4867943859685966,0.060060143470764216,0.4404873226161352
Harry Potter,Vincent Crabbe,0.463011622428894,4.4593659504479536e-05,0.5231805443763733,0.0017032137156463,0.060168921947479304,0.0016586200561418203
Dune,Farad'n Corrino/XD,0.5127309560775757,0.0753968299573286,0.5733843445777893,1.0164880209143212,0.06065338850021362,0.9410911909569926
The Hitchhiker's Guide to the Galaxy,Gag Halfrunt,0.4508379995822906,0.973928724005666,0.511637270450592,1.1567186081329754,0.06079927086830145,0.18278988412730945
Harry Potter,Beedle the Bard,0.4836196005344391,1.9288589947734924,0.5452402234077454,2.9525074582395265,0.061620622873306274,1.023648463466034
Harry Potter,Myrtle Warren,0.4913347959518432,1.813042977527551e-06,0.5533497929573059,6.260660268658498e-09,0.0620149970054627,-1.8067823172588924e-06
Harry Potter,Corban Yaxley,0.4830105006694793,2.925106021357241e-05,0.5452419519424438,1.5502787263142123e-05,0.06223145127296453,-1.3748272950430288e-05
Harry Potter,Fat Friar,0.4949863851070404,0.0017687716785121,0.5573098063468933,0.0152846826990754,0.062323421239852905,0.013515911020563301
Dune,Raquella Berto-Anirul,0.4776922166347503,0.3910360576405319,0.5412588715553284,0.705641512899378,0.06356665492057806,0.31460545525884615
Harry Potter,Marlene McKinnon,0.4936506450176239,0.2995158948190036,0.5572279095649719,4.355073361043863,0.06357726454734802,4.05555746622486
The Hunger Games,Treech,0.4671089649200439,0.1168156555795823,0.5308257937431335,0.3851447057405751,0.06371682882308966,0.2683290501609928
The Lord of the Rings,Khamûl,0.5051393508911133,0.0973520065510129,0.5690168142318726,1.7721805113126634,0.06387746334075928,1.6748285047616505
The Hunger Games,Livia Cardew,0.4691944420337677,0.6145186798712319,0.5337793827056885,0.5309288968185804,0.06458494067192078,-0.08358978305265152
The Hitchhiker's Guide to the Galaxy,Lig Lury Jr,0.4702058434486389,0.8360294708446196,0.5348403453826904,3.9133989534355775,0.06463450193405151,3.077369482590958
The Hitchhiker's Guide to the Galaxy,Barman,0.4909177124500274,0.8221204422807201,0.5557624101638794,1.8440610822504075,0.06484469771385198,1.0219406399696873
The Lord of the Rings,Watcher in the Water,0.5358597040176392,8.377987745483357e-07,0.60096675157547,0.0133271380802795,0.06510704755783081,0.013326300281504952
Dune,Lucilla,0.4965932369232178,0.7926542790809781,0.5618893504142761,3.4974085780434505,0.06529611349105835,2.7047542989624724
Twilight,Mary,0.4688685238361358,0.2166028801896646,0.5341706871986389,2.348074365703849,0.06530216336250311,2.1314714855141843
Harry Potter,Ernest Prang,0.4885108470916748,0.1394994250753776,0.5538970232009888,0.997430166829002,0.06538617610931396,0.8579307417536244
Harry Potter,Evan Rosier,0.4794752597808838,0.0935245799507571,0.5448762774467468,5.290107084830485,0.06540101766586304,5.196582504879728
The Hitchhiker's Guide to the Galaxy,Caveman,0.4431938827037811,2.138098737180325,0.5086044669151306,2.067217969962227,0.06541058421134954,-0.07088076721809822
The Hunger Games,Vipsania Sickle,0.4609370231628418,1.6228474161004294,0.5277506709098816,2.210507749009341,0.0668136477470398,0.5876603329089116
The Hitchhiker's Guide to the Galaxy,Roosta,0.4857929646968841,3.014081367982975,0.5526170134544373,6.911225766327491,0.06682404875755316,3.897144398344516
The Lord of the Rings,Smaug,0.4676216840744018,3.724922355253677e-21,0.5347530841827393,8.39006346481678e-09,0.06713140010833746,8.390063464813055e-09
Harry Potter,Gellert Grindelwald,0.4849580526351928,4.823431613353471e-37,0.5529412031173706,9.478956688913598e-15,0.06798315048217779,9.478956688913598e-15
The Hitchhiker's Guide to the Galaxy,Gail Andrews,0.4707391262054443,1.604961927671274,0.5391347408294678,1.6691785829565378,0.06839561462402349,0.06421665528526366
Harry Potter,Alastor Moody,0.5044748783111572,2.2170792660888963e-19,0.5730476975440979,8.348896234010024e-10,0.06857281923294067,8.348896231792945e-10
The Hitchhiker's Guide to the Galaxy,Murray Bost Henson,0.4581770002841949,1.061563850759398,0.5273764133453369,1.7898160370840313,0.06919941306114202,0.7282521863246332
Harry Potter,Emeric the Evil,0.4951508045196533,0.8324791370776411,0.5654062628746033,5.311197571852363,0.07025545835494995,4.478718434774722
Harry Potter,Marietta Edgecombe,0.4908061623573303,4.369419206849258e-11,0.5611881613731384,0.0005329470795708,0.0703819990158081,0.000532947035876608
Harry Potter,Walden Macnair,0.4969678521156311,2.678245638001011e-07,0.5692458152770996,0.0941052825579138,0.0722779631614685,0.09410501473334999
Harry Potter,Pomona Sprout,0.485841691493988,4.301453671294407e-23,0.5598376393318176,4.613341047739923e-09,0.07399594783782965,4.61334104773988e-09
Harry Potter,Aberforth Dumbledore,0.4681204855442047,5.157369768837656e-27,0.5423094034194946,2.2804734347936203e-09,0.07418891787528992,2.2804734347936203e-09
Harry Potter,Nicolas Flamel,0.4944669306278229,3.143575182306961e-09,0.5688627362251282,0.0030588108925601,0.0743958055973053,0.0030588077489849177
Harry Potter,Merope Riddle,0.4654604196548462,3.5095066341622693e-11,0.540052056312561,2.450385932160416e-06,0.07459163665771484,2.450350837094074e-06
The Hunger Games,Reaper Ash,0.4617403149604797,0.0088245009837936,0.5365123748779297,0.0172705623407229,0.07477205991745,0.008446061356929302
Dune,Alef Burzmali,0.4531520307064056,0.5758179726920931,0.5283998250961304,0.6779128730903299,0.07524779438972479,0.10209490039823677
Dune,Kailea Vernius,0.4740604162216186,0.4997731996162197,0.5500289797782898,0.2473600021982441,0.0759685635566712,-0.2524131974179756
Harry Potter,Nagini,0.460888147354126,1.5854043808205422e-16,0.5385509133338928,4.7229084091759456e-08,0.07766276597976685,4.7229083933219015e-08
Dune,Jessica Atreides/XD,0.4878158271312713,6.1871234927649255e-06,0.5655706524848938,0.0131140437751249,0.07775482535362249,0.013107856651632136
Twilight,Emmett Cullen,0.4590007364749908,7.677446334449585e-16,0.5368584394454956,1.2658154741882325e-08,0.07785770297050482,1.2658153974137691e-08
Harry Potter,Ernest Macmillan,0.474749743938446,4.55444350207336e-08,0.5543841123580933,6.124061996293866e-07,0.07963436841964727,5.668617646086529e-07
Dune,Mohandas Suk,0.4741275608539581,0.8548804209722826,0.5538217425346375,1.151509732466256,0.07969418168067938,0.2966293114939734
Dune,Alma Mavis Taraza,0.4769214391708374,0.9941853303446768,0.5585253834724426,1.2047310012749877,0.08160394430160522,0.21054567093031085
The Hunger Games,Mizzen,0.4667463004589081,0.0043460298317983,0.5493330359458923,0.0971242619661901,0.08258673548698425,0.0927782321343918
Twilight,Alice Cullen,0.3922316133975982,1.0902939577865579e-34,0.4750718772411346,3.147027357763461e-12,0.08284026384353638,3.147027357763461e-12
The Hitchhiker's Guide to the Galaxy,Mella,0.4270432293415069,2.8050555287620984,0.5102977752685547,2.769270560064611,0.08325454592704779,-0.035784968697487596
The Lord of the Rings,Ungoliant,0.4881405234336853,0.0009624979497275,0.5739855170249939,0.8330432824824903,0.0858449935913086,0.8320807845327628
Harry Potter,Igor Karkaroff,0.4698322415351867,1.4737720381364965e-18,0.5576908588409424,1.9388781390529315e-07,0.08785861730575567,1.9388781390381936e-07
The Hitchhiker's Guide to the Galaxy,Emperor of the Galaxy,0.4399722814559936,2.20652684344918,0.5296637415885925,3.7563726650887888,0.08969146013259893,1.5498458216396087
Harry Potter,Nicholas de Mimsy-Porpington,0.4448094666004181,5.753869110168085e-20,0.5347698926925659,7.962000524026516e-05,0.08996042609214783,7.96200052402651e-05
The Hitchhiker's Guide to the Galaxy,Hactar,0.474861741065979,0.8492869254206019,0.5661383867263794,1.309994851108918,0.09127664566040039,0.460707925688316
Twilight,Embry Call,0.4414832293987274,0.0003224882132153,0.5346124172210693,0.0643312926724578,0.09312918782234192,0.0640088044592425
The Hitchhiker's Guide to the Galaxy,Effrafax of Wug,0.4618544280529022,1.8231737390826013,0.5599676966667175,4.186575597755374,0.09811326861381531,2.3634018586727725
Dune,Jessica Atreides/DE,0.4675639271736145,0.0011804544847828,0.5710614323616028,0.0129310549868636,0.10349750518798828,0.0117506005020808
The Hitchhiker's Guide to the Galaxy,Great Hyperlobic Omnicognate Neutron Wrangler,0.5105443596839905,1.438933013248262,0.6168897151947021,2.9268827067667127,0.10634535551071167,1.4879496935184506
The Hitchhiker's Guide to the Galaxy,Alice Beeblebrox,0.429932028055191,0.7891401556596023,0.5393813848495483,0.733952472162638,0.10944935679435736,-0.055187683496964235
Harry Potter,Ariana Dumbledore,0.4743044078350067,9.36506853211509e-07,0.5930091738700867,0.0158554285555127,0.11870476603507996,0.015854492048659487
The Hunger Games,Haymitch Abernathy,0.4358085095882416,5.318987767232908e-35,0.5577899813652039,2.890128343936151e-13,0.12198147177696228,2.890128343936151e-13
