Book,Character,F1,h,wF1,wh,F1_to_wF1,h_to_wh
Dune,Mapes,0.5658795833587646,2.603150423673337,0.4996850490570068,1.064957338620982,-0.06619453430175787,-1.538193085052355
Twilight,Randall,0.5588515996932983,2.7259583561129213,0.4960275292396545,1.528193619218046,-0.06282407045364385,-1.1977647368948752
The Hitchhiker's Guide to the Galaxy,Grunthos the Flatulent,0.5789341330528259,12.57860144805758,0.5230759978294373,1.7648128105677472,-0.05585813522338867,-10.813788637489832
Twilight,Demetri,0.5776082873344421,0.1700134542244419,0.5248556137084961,0.037612320950013,-0.052752673625946045,-0.13240113327442887
Harry Potter,Hokey,0.5747448801994324,1.2034768710846475,0.522321343421936,0.3279443807899949,-0.05242353677749634,-0.8755324902946526
Twilight,Kebi,0.5515124201774597,0.244770392047594,0.500100314617157,0.9591320888827836,-0.051412105560302734,0.7143616968351896
Twilight,Senna,0.5466602444648743,2.8926459709110066,0.4956415593624115,2.6870294046269247,-0.05101868510246277,-0.20561656628408187
The Hitchhiker's Guide to the Galaxy,Heimdall,0.525601863861084,3.247082054416021,0.4835291504859924,0.7793252653549386,-0.04207271337509161,-2.4677567890610823
The Lord of the Rings,Shadowfax,0.609817624092102,2.95892640900092,0.568327784538269,3.212272673105406,-0.04148983955383301,0.2533462641044859
Harry Potter,Cedric Diggory,0.5501776337623596,5.962338456618424e-08,0.5106084942817688,1.3812190959553813e-06,-0.03956913948059082,1.321595711389197e-06
Twilight,Jessica Stanley,0.5665134787559509,0.0648395004170025,0.5274032354354858,0.0203275274544128,-0.03911024332046509,-0.0445119729625897
The Hitchhiker's Guide to the Galaxy,Lunkwill and Fook,0.4987954497337341,1.0622800562416557,0.4609816074371338,1.292789493652111,-0.037813842296600286,0.23050943741045526
The Hitchhiker's Guide to the Galaxy,Arthur Dent,0.5318716168403625,0.1556366894415406,0.4954772591590881,0.8089813343550757,-0.03639435768127447,0.653344644913535
Harry Potter,Irma Pince,0.5630108118057251,0.0010266028070839,0.5275701284408569,0.0015939431197377,-0.035440683364868164,0.0005673403126537999
The Hitchhiker's Guide to the Galaxy,Phouchg,0.5062471032142639,1.6260879513653077,0.4709177613258362,1.052475936745654,-0.035329341888427734,-0.5736120146196537
Harry Potter,Elphias Doge,0.5626846551895142,0.0511789764097493,0.5279828906059265,0.0113727840712714,-0.034701764583587646,-0.039806192338477896
Dune,Aramsham,0.5087750554084778,0.9118219603385792,0.4741894006729126,0.5371763085832953,-0.034585654735565186,-0.37464565175528386
Twilight,Tia,0.5312673449516296,0.011323365791301,0.4967882633209228,0.2826571574840016,-0.03447908163070684,0.2713337916927006
Twilight,Kachiri,0.5634227395057678,5.332777119293244,0.5295971035957336,2.185767318144627,-0.03382563591003418,-3.147009801148617
Twilight,Bella Swan,0.4589333832263946,4.419563693023866e-28,0.426505982875824,1.7466877775197795e-19,-0.03242740035057062,1.746687773100216e-19
The Hitchhiker's Guide to the Galaxy,God,0.5263827443122864,5.661974213264242,0.4943718612194061,3.9109290601976734,-0.032010883092880305,-1.7510451530665683
Harry Potter,Nagini,0.5174725651741028,6.92948278656219e-05,0.4860894680023193,3.2056250427946846e-08,-0.0313830971717835,-6.926277161519396e-05
The Lord of the Rings,Sauron,0.5764209032058716,5.91416920796429e-11,0.5452271699905396,1.6357258609561865e-11,-0.03119373321533203,-4.278443347008103e-11
Dune,Duncan Idaho/DE,0.5505078434944153,4.2641926248416326e-21,0.5195954442024231,1.6174958679417034e-14,-0.030912399291992188,1.617495441522441e-14
Dune,Abulurd Harkonnen,0.5524423122406006,2.288868626923212,0.5216924548149109,0.6257414540314141,-0.030749857425689697,-1.6631271728917978
The Hunger Games,Effie Trinket,0.5645862221717834,0.0002452159777268,0.5342065095901489,2.960718874314781e-05,-0.03037971258163452,-0.00021560878898365217
Dune,Glossu Rabban,0.5391458868980408,0.8072538752724995,0.5096572637557983,1.487789837834364,-0.02948862314224243,0.6805359625618644
The Lord of the Rings,Thrór,0.5758258104324341,0.1427182593064609,0.5465530157089233,0.2991310314576205,-0.029272794723510742,0.1564127721511596
Twilight,Jasper Hale,0.492315798997879,6.007803659672566e-07,0.4633741378784179,1.2528411318369577e-13,-0.02894166111946106,-6.007802406831434e-07
Dune,Iakin Nefud,0.5456339120864868,1.2145655852594326,0.5171811580657959,1.502250195797728,-0.028452754020690918,0.2876846105382953
Dune,Gaius Helen Mohiam,0.5574875473976135,1.862694649377201,0.5293950438499451,1.646367365237429,-0.028092503547668457,-0.21632728413977187
Twilight,Laurent,0.530215322971344,0.1008915045517499,0.5034322738647461,0.004878058506077,-0.0267830491065979,-0.0960134460456729
Harry Potter,Dennis Creevey,0.5475461483001709,0.2147092379999678,0.5208812355995178,0.2106307524792864,-0.026664912700653076,-0.0040784855206814075
Harry Potter,Fawkes,0.5704735517501831,0.0208618653349393,0.5443465709686279,0.0218268206460384,-0.026126980781555176,0.0009649553110991013
Twilight,Kate,0.5371614098548889,0.0006791595186894,0.5122808814048767,0.0127991104767745,-0.024880528450012207,0.012119950958085102
The Hitchhiker's Guide to the Galaxy,Vroomfondel,0.5658048391342163,8.435138049740814,0.5410387516021729,6.512598960253347,-0.024766087532043457,-1.9225390894874677
Harry Potter,Reginald Cattermole,0.5237366557121277,1.2837745338474422,0.4993340075016022,0.6500254684847143,-0.024402648210525513,-0.6337490653627279
The Hitchhiker's Guide to the Galaxy,Hotblack Desiato,0.5379136204719543,5.300337987980968,0.5136027932167053,2.479338889240404,-0.024310827255249023,-2.820999098740564
Harry Potter,Gilderoy Lockhart,0.5417443513870239,1.4067108499390802e-16,0.5178285241127014,9.381079869767565e-14,-0.02391582727432251,9.367012761268175e-14
Harry Potter,Emeric the Evil,0.5510760545730591,1.3528009050659322,0.527782678604126,5.367036443218868,-0.023293375968933105,4.014235538152937
The Hitchhiker's Guide to the Galaxy,Majikthise,0.5454039573669434,1.8243136920421408,0.5222746133804321,1.5498286063925777,-0.02312934398651123,-0.2744850856495631
Twilight,Marcus,0.5298269987106323,0.00880775649077,0.5068717002868652,0.006230294647273,-0.02295529842376709,-0.0025774618434969993
Dune,Ghanima Atreides/DE,0.5460537672042847,0.0213209187600193,0.5231356024742126,0.0218287998960441,-0.02291816473007202,0.0005078811360248008
Dune,Kwisatz Haderach,0.5711029767990112,0.9888903005529062,0.5482078194618225,0.3951715268638356,-0.02289515733718872,-0.5937187736890706
Harry Potter,Kingsley Shacklebolt,0.5495610237121582,0.0004942961855389,0.5267613530158997,0.0062362204179335,-0.022799670696258545,0.0057419242323946
Twilight,Irina,0.5298442840576172,0.0029681970301054,0.5071415305137634,0.0269133983431364,-0.02270275354385376,0.023945201313031
Harry Potter,Pansy Parkinson,0.5364487767219543,1.6987422151944145e-06,0.5138946771621704,0.0003115717640727,-0.022554099559783936,0.00030987302185750556
Harry Potter,Crookshanks,0.5896149277687073,0.1033351758401786,0.5674389004707336,0.0170902126986823,-0.022176027297973633,-0.0862449631414963
Twilight,Mike Newton,0.5331747531890869,0.2755209940132483,0.5110588073730469,0.21346880596453,-0.02211594581604004,-0.062052188048718315
The Lord of the Rings,Gríma,0.5811100006103516,0.0634458000697368,0.5591428279876709,0.0055884507722527,-0.021967172622680664,-0.057857349297484095
Dune,Thufir Hawat/DE,0.5171127319335938,0.0001147910433744,0.4953840970993042,4.805865344336233e-05,-0.02172863483428955,-6.673238993103766e-05
Twilight,Carmen,0.5398139953613281,0.1822000785022918,0.5180933475494385,0.2230757360589205,-0.02172064781188965,0.0408756575566287
Twilight,Nahuel,0.5329504013061523,0.0168990995478412,0.5113327503204346,0.0048311748935991,-0.021617650985717773,-0.0120679246542421
Dune,Farok,0.5343023538589478,1.8493466719054965,0.5131552219390869,1.0073254815340729,-0.02114713191986084,-0.8420211903714236
The Lord of the Rings,Melian,0.5794527530670166,3.307422900641166,0.5590015053749084,3.073584179482273,-0.020451247692108154,-0.23383872115889304
Dune,Jamis,0.5582770705223083,0.5487325101378681,0.5381486415863037,1.032355731511433,-0.02012842893600464,0.48362322137356484
Twilight,Ephraim Black,0.5627270340919495,2.143965642629478,0.5427232384681702,1.2444704796957806,-0.020003795623779297,-0.8994951629336976
Twilight,Harry Clearwater,0.5594446659088135,2.133456144455012,0.5399731993675232,2.0329129142009426,-0.019471466541290283,-0.10054323025406964
Dune,Norma Cenva,0.5213820338249207,1.6358207488462009,0.5019789338111877,1.207627622996396,-0.01940310001373291,-0.42819312584980485
Harry Potter,Aragog,0.5675592422485352,0.0621554027726375,0.5482261776924133,0.3013141396150597,-0.019333064556121826,0.2391587368424222
Harry Potter,Eloise Midgen,0.5545334219932556,3.917565908075599,0.5354101061820984,0.5764592562518426,-0.019123315811157227,-3.341106651823756
Twilight,Huilen,0.5263767838478088,0.0561397280132425,0.5073695182800293,0.18591047222491,-0.01900726556777954,0.1297707442116675
Harry Potter,Neville Longbottom,0.4819470345973968,1.3092586542114672e-11,0.4630094468593597,9.987871242375334e-24,-0.01893758773803711,-1.3092586542104684e-11
Harry Potter,William Weasley,0.4589860439300537,9.835337236167972e-10,0.4402841329574585,7.782682347960048e-09,-0.018701910972595215,6.799148624343251e-09
Harry Potter,Corban Yaxley,0.5639587044715881,0.0005139367136,0.5453345775604248,0.0006483742801434,-0.01862412691116333,0.00013443756654339992
Harry Potter,Porpentina Goldstein,0.5134313702583313,9.248317441994686e-06,0.4948583245277405,1.622464090291641e-07,-0.01857304573059082,-9.086071032965523e-06
Dune,Piter De Vries,0.5435839891433716,2.353764161712112,0.5251157879829407,2.1502517046525558,-0.018468201160430908,-0.20351245705955634
The Lord of the Rings,Legolas,0.5817660093307495,9.36161988434402e-06,0.5635741949081421,2.2570975239926706e-07,-0.018191814422607422,-9.135910131944754e-06
The Lord of the Rings,Halbarad,0.5582286715507507,3.670575046338486,0.5401188135147095,1.292843392635992,-0.01810985803604126,-2.3777316537024937
Harry Potter,Horace Slughorn,0.5151201486587524,3.3880238751223555e-10,0.4972471594810486,1.2171731625895726e-11,-0.017872989177703857,-3.266306558863398e-10
Dune,Wellington Yueh/DE,0.5500670671463013,0.040413595956706,0.5323172807693481,0.134593772171039,-0.017749786376953125,0.09418017621433299
The Hitchhiker's Guide to the Galaxy,Old Man on the Pole,0.500385046005249,3.881556195734246,0.4827165305614471,4.301598800528192,-0.017668515443801935,0.4200426047939465
The Hitchhiker's Guide to the Galaxy,Reg Nullify,0.5054993033409119,1.103178434314816,0.4878826439380646,0.7164372362243827,-0.01761665940284729,-0.3867411980904334
Harry Potter,Louis Weasley,0.4864599108695984,0.7138917174084937,0.4690457582473755,0.7304746181339034,-0.0174141526222229,0.01658290072540969
Twilight,Jane,0.5533869862556458,0.0001291120590717,0.5360067486763,0.0002053244725436,-0.017380237579345703,7.621241347190001e-05
Harry Potter,Justin Finch-Fletchley,0.5576454401016235,0.0674820240974602,0.5402739644050598,0.0104796538912058,-0.01737147569656372,-0.05700237020625439
Harry Potter,Lee Jordan,0.5498971343040466,1.8003785736130918e-06,0.5326805114746094,0.0002322872269777,-0.017216622829437256,0.0002304868484040869
Harry Potter,Zacharias Smith,0.538929283618927,0.0460952826690254,0.5217380523681641,0.0928159273146208,-0.01719123125076294,0.046720644645595395
Dune,Alia Atreides/DE,0.5522106885910034,0.0047711652207803,0.5350264310836792,0.0013991870547281,-0.01718425750732422,-0.0033719781660522
Twilight,Charlotte,0.5166462659835815,0.781418471182575,0.4995029270648956,0.3446262718630764,-0.01714333891868597,-0.4367921993194986
Harry Potter,Marcus Flint,0.5566878914833069,0.028752439961508,0.5396279692649841,0.4425258215826614,-0.017059922218322754,0.4137733816211534
The Hitchhiker's Guide to the Galaxy,Eccentrica Gallumbits,0.5494129061698914,7.828522879128113,0.5323628783226013,6.773885850042504,-0.01705002784729004,-1.054637029085609
Dune,Wensicia Corrino,0.555548369884491,1.1282520241773488,0.5385229587554932,1.13655268167139,-0.017025411128997803,0.008300657494041186
Dune,Paulus Atreides,0.5612874627113342,0.5633613324215493,0.54449462890625,0.5336128522320133,-0.01679283380508423,-0.02974848018953602
The Lord of the Rings,Ancalagon,0.6005372405052185,3.2840676837191274,0.5838321447372437,1.2807182581958425,-0.016705095767974854,-2.003349425523285
Harry Potter,Michael Corner,0.552334725856781,0.1687519261156403,0.5356698632240295,0.0224154771947869,-0.016664862632751465,-0.1463364489208534
The Hitchhiker's Guide to the Galaxy,Pizpot Gargravarr,0.4799016416072845,0.7556885728675194,0.4634330570697784,0.7523160031759665,-0.016468584537506104,-0.0033725696915529735
Twilight,Felix,0.5607106685638428,0.0179366257878921,0.5442619919776917,0.0219122688524262,-0.016448676586151123,0.003975643064534101
Dune,Thufir Hawat/XD,0.5730161666870117,0.0772626953115746,0.5566498041152954,0.0180396159523106,-0.01636636257171631,-0.059223079359264005
Twilight,Charlie Swan,0.5254391431808472,1.1934923241368973e-11,0.5090958476066589,2.75662959024152e-09,-0.016343295574188232,2.7446946670001512e-09
Dune,Siona Atreides,0.5699283480644226,1.1794189741629943,0.5539284348487854,0.5264898525734703,-0.015999913215637207,-0.6529291215895241
Dune,Vorian Atreides,0.5189249515533447,1.1243278342531508e-11,0.5030860900878906,8.804018211027359e-12,-0.0158388614654541,-2.439260131504149e-12
Dune,Thufir Hawat,0.557856023311615,0.0943329103386342,0.5422404408454895,0.1124187826945212,-0.015615582466125488,0.018085872355887003
Harry Potter,Stanley Shunpike,0.5319774150848389,0.0324043706052441,0.5165749788284302,0.0054479956624618,-0.015402436256408691,-0.026956374942782302
Twilight,Angela Weber,0.5672181844711304,1.0729344351629857,0.5519054532051086,0.0813691442410426,-0.015312731266021729,-0.9915652909219431
Twilight,Tanya,0.5273171663284302,0.0068242964135377,0.5122186541557312,0.0013072797059336,-0.015098512172698975,-0.0055170167076041
Harry Potter,Amos Diggory,0.5417119264602661,0.0142845012307344,0.5267006754875183,0.0026181169328414,-0.015011250972747803,-0.011666384297893
Twilight,Emily Young,0.5096997618675232,0.0306596128631235,0.4946922361850738,0.0092741401644673,-0.015007525682449396,-0.021385472698656198
The Hitchhiker's Guide to the Galaxy,Constant Mown,0.499842494726181,2.1629619365242494,0.4855059683322906,1.9684584996195824,-0.01433652639389038,-0.19450343690466698
Dune,Chani Kynes/DE,0.5384023785591125,0.0129488049754235,0.5240662097930908,0.009487944342446,-0.014336168766021729,-0.0034608606329775
Twilight,Sam Uley,0.5350551605224609,8.981810138576187e-05,0.5208538770675659,1.6463853354722258e-05,-0.01420128345489502,-7.335424803103961e-05
The Lord of the Rings,Éowyn,0.5521554350852966,0.1293655174924256,0.5380213260650635,0.1680209027290762,-0.014134109020233154,0.038655385236650575
Dune,Octa Butler,0.5269408822059631,2.987515522025846,0.5130519270896912,1.1772268718454462,-0.013888955116271973,-1.8102886501803996
Harry Potter,Rosmerta,0.5415127277374268,0.075761417105686,0.5278216600418091,0.0130248278898893,-0.013691067695617676,-0.0627365892157967
Harry Potter,Seamus Finnigan,0.5306010842323303,0.00036435824606,0.5169129967689514,2.378544901978846e-05,-0.013688087463378906,-0.0003405727970402116
Harry Potter,Buckbeak,0.571956217288971,1.2890360008218884,0.558632493019104,0.2016536115196801,-0.013323724269866943,-1.0873823893022083
Dune,Glossu Rabban Harkonnen/DE,0.5335575342178345,0.2152407271983929,0.5204051733016968,0.1331949848145656,-0.013152360916137695,-0.08204574238382731
Dune,Vladimir Harkonnen/DE,0.5544503331184387,0.0126295369209783,0.5413947701454163,0.1010323027631652,-0.013055562973022461,0.0884027658421869
Twilight,Leah Clearwater,0.5349110960960388,0.0026888927314356,0.5218864679336548,0.0040446210432822,-0.013024628162384033,0.0013557283118465998
Twilight,James,0.5182864665985107,0.0053870813729526,0.5053487420082092,4.466554469069594e-05,-0.012937724590301514,-0.005342415828261904
Twilight,Quil Ateara V,0.5397222638130188,0.1200085918127161,0.5268219709396362,0.2188021606818934,-0.012900292873382568,0.0987935688691773
Harry Potter,Antonin Dolohov,0.5717323422431946,0.0071027521494909,0.5590146780014038,0.1176487745787031,-0.012717664241790771,0.1105460224292122
Dune,Paul Atreides,0.4457144141197204,4.41247837452014e-09,0.4331960380077362,9.16119060542467e-12,-0.012518376111984197,-4.403317183914715e-09
The Hitchhiker's Guide to the Galaxy,Lallafa,0.5064609050750732,0.8560960545578866,0.4946936070919037,0.9770750926302156,-0.011767297983169556,0.12097903807232901
Twilight,Benjamin,0.5336911082267761,0.0219535384994663,0.5221549272537231,0.0251214722587881,-0.011536180973052979,0.003167933759321801
Harry Potter,Penelope Clearwater,0.5432977080345154,0.1907372821612631,0.5318372845649719,0.5358832991629894,-0.011460423469543457,0.3451460170017263
Harry Potter,Anthony Goldstein,0.5168087482452393,0.0494898274919872,0.5054145455360413,0.7432056786452059,-0.011394202709197998,0.6937158511532188
Twilight,Alec,0.5476362109184265,0.0327037710260813,0.5363590717315674,0.0003285550888575,-0.01127713918685913,-0.032375215937223804
The Lord of the Rings,Círdan,0.5733222961425781,0.0073419328305188,0.562244713306427,0.0946937049673529,-0.011077582836151123,0.0873517721368341
The Lord of the Rings,Éomer,0.5580714344978333,0.3236261659418649,0.5470423102378845,0.3252250146540364,-0.01102912425994873,0.00159884871217153
The Hitchhiker's Guide to the Galaxy,Allitnils,0.5003464818000793,1.6176407168107456,0.4894489347934723,1.7460849768717932,-0.010897547006607056,0.1284442600610476
The Lord of the Rings,Arwen,0.5483658313751221,0.5523279271244332,0.5376333594322205,0.5089089964776239,-0.010732471942901611,-0.04341893064680935
Harry Potter,Hermione Granger,0.4501465857028961,3.4843494507535876e-39,0.4394466578960418,4.713641376257898e-42,-0.010699927806854304,-3.47963580937733e-39
Harry Potter,Millicent Bulstrode,0.5375728607177734,0.5738590301188647,0.5270988345146179,0.3533225274605486,-0.010474026203155518,-0.22053650265831615
Twilight,Eleazar,0.5347897410392761,0.0247951261177213,0.5243425369262695,0.074217350162032,-0.010447204113006592,0.0494222240443107
Twilight,Tyler Crowley,0.5645808577537537,0.3663086840575111,0.554140567779541,0.3617989640253647,-0.010440289974212646,-0.0045097200321463915
The Hitchhiker's Guide to the Galaxy,Oolon Colluphid,0.5689864754676819,6.868219297663706,0.5586027503013611,5.368719111928454,-0.0103837251663208,-1.4995001857352523
The Lord of the Rings,Elrond,0.5352104902267456,0.0008747134186128,0.5248686075210571,7.300969141069368e-06,-0.010341882705688477,-0.0008674124494717306
Harry Potter,Peeves,0.5787001252174377,0.0003448843462974,0.5687010884284973,8.861681229456177e-06,-0.00999903678894043,-0.0003360226650679438
Harry Potter,Cornelius Fudge,0.522250235080719,1.3899672497304728e-12,0.51277756690979,9.511331795173153e-18,-0.009472668170928955,-1.3899577383986776e-12
Harry Potter,Newton Scamander,0.5118637084960938,1.9232313096174262e-16,0.5024756789207458,4.554076775512101e-21,-0.0093880295753479,-1.923185768849671e-16
The Lord of the Rings,Denethor II,0.5573152303695679,0.3191442459570789,0.5483073592185974,0.508731246913839,-0.009007871150970459,0.18958700095676007
Harry Potter,Fleur Delacour,0.4673050045967102,3.077808703235555e-09,0.4583278000354767,3.5540246622963465e-11,-0.00897720456123352,-3.042268456612592e-09
Harry Potter,Katie Bell,0.5493029952049255,0.0001419491119901,0.5405836701393127,0.0002859482785555,-0.008719325065612793,0.00014399916656540002
Harry Potter,Rita Skeeter,0.5450084805488586,1.18905528663881e-05,0.5365824103355408,1.7179988204059195e-08,-0.008426070213317871,-1.1873372878184041e-05
Dune,Paul Atreides/DE,0.5570170283317566,0.1683361047730633,0.5486254692077637,0.654087182543554,-0.00839155912399292,0.48575107777049076
Harry Potter,Alicia Spinnet,0.5763851404190063,0.0113723660858237,0.5680549740791321,0.0034634614733615,-0.008330166339874268,-0.0079089046124622
Dune,Leto Atreides II,0.5097422003746033,0.0085917606463705,0.5015009045600891,0.0058204731567389,-0.00824129581451416,-0.002771287489631599
The Lord of the Rings,Watcher in the Water,0.5877236723899841,0.0059004115227934,0.5795498490333557,0.094625089341469,-0.008173823356628418,0.0887246778186756
Dune,Chani Kynes,0.5319003462791443,2.619114268573243,0.5242205858230591,0.8856849338139756,-0.007679760456085205,-1.7334293347592673
Twilight,Brady Fuller,0.4260901510715484,0.6737670635057369,0.4185141026973724,0.7034297337632921,-0.007576048374176025,0.0296626702575552
Harry Potter,Quirinus Quirrell,0.5376813411712646,2.9557822901751395e-05,0.5304103493690491,1.3232436231662407e-05,-0.007270991802215576,-1.6325386670088987e-05
Dune,Moneo Atreides/DE,0.5402241349220276,0.0026877204797969,0.5330454707145691,0.0223728830724871,-0.007178664207458496,0.019685162592690198
Twilight,Caius,0.5329683423042297,0.0277952938585236,0.5258496403694153,0.0004148810138452,-0.007118701934814453,-0.0273804128446784
Harry Potter,Irma Crabbe,0.4379485547542572,0.6838871381836266,0.4309313893318176,1.382631797424559,-0.007017165422439575,0.6987446592409324
Dune,Irulan Corrino/XD,0.5731375813484192,0.4284960322847032,0.566170334815979,0.1174477903566004,-0.0069672465324401855,-0.31104824192810276
The Hitchhiker's Guide to the Galaxy,Great Circling Poets of Arium,0.5628529787063599,5.7914701379707925,0.5559934377670288,7.444573611594727,-0.006859540939331055,1.6531034736239345
The Lord of the Rings,Peregrin Took,0.5510259866714478,0.1123801646032861,0.5441954731941223,0.1038993455436899,-0.0068305134773254395,-0.008480819059596204
Twilight,Jacob Black,0.5290425419807434,1.738419832548516e-16,0.5222568511962891,1.8465982915088164e-14,-0.006785690784454346,1.829214093183331e-14
The Lord of the Rings,Aragorn II,0.5422757863998413,4.861258445467647e-08,0.5357530117034912,2.4347399045385892e-08,-0.006522774696350098,-2.426518540929058e-08
Dune,Pardot Kynes,0.540195107460022,0.4993257687202917,0.5338239073753357,0.4266379848967421,-0.006371200084686279,-0.07268778382354962
The Hitchhiker's Guide to the Galaxy,Ford Prefect,0.5339455604553223,0.0249287421903587,0.5275748372077942,0.0046468126888504,-0.006370723247528076,-0.0202819295015083
Dune,Pardot Kynes/XD,0.5893939137458801,0.3637647377053534,0.5830528140068054,0.2342784853330249,-0.006341099739074707,-0.1294862523723285
Dune,Irulan Corrino/DE,0.5696361660957336,0.0451320107008682,0.5633543729782104,0.1002815578082755,-0.006281793117523193,0.0551495471074073
The Hitchhiker's Guide to the Galaxy,Guide Mark II,0.5441259145736694,2.788454872783037,0.5378767251968384,7.089667917977646,-0.006249189376831055,4.30121304519461
Dune,Gurney Halleck,0.5629721283912659,0.0470760789637914,0.5567303895950317,0.0097462889943677,-0.006241738796234131,-0.0373297899694237
Harry Potter,Cormac McLaggen,0.5343990921974182,0.0014299742742406,0.5282922983169556,0.0021992252993657,-0.0061067938804626465,0.0007692510251251002
The Hitchhiker's Guide to the Galaxy,Garkbit,0.5333770513534546,0.8081476281573288,0.527380645275116,1.217868843014244,-0.005996406078338623,0.40972121485691515
The Hitchhiker's Guide to the Galaxy,Old Thrashbarg,0.5020222663879395,2.1999566724610315,0.4960719347000122,1.7648173389886592,-0.005950331687927246,-0.4351393334723723
Harry Potter,Sybill Trelawney,0.5398802757263184,8.822363801984411e-09,0.5339821577072144,3.3235441249459536e-10,-0.005898118019104004,-8.490009389489815e-09
Dune,Feyd-Rautha Harkonnen,0.5619041919708252,0.6045441751828842,0.556075930595398,0.5356011141238942,-0.005828261375427246,-0.06894306105898995
Dune,Farad'n Corrino/XD,0.5620886087417603,1.779329903679524,0.5563293099403381,2.1953197062928727,-0.005759298801422119,0.4159898026133486
Harry Potter,Astoria Malfoy,0.5348907709121704,0.1618310931438816,0.5291686654090881,0.4954288238653214,-0.005722105503082275,0.3335977307214398
Twilight,Quil Ateara III,0.5264707803726196,4.6570964057725535,0.5209446549415588,2.723338559692601,-0.005526125431060791,-1.9337578460799523
Twilight,Riley Biers,0.5164191722869873,0.0051737072858948,0.51091468334198,0.0177791923739859,-0.005504488945007324,0.0126054850880911
Harry Potter,Regulus Black I,0.4737982153892517,1.3627792185668255,0.4683603644371032,3.782804810686204,-0.005437850952148493,2.4200255921193783
The Hitchhiker's Guide to the Galaxy,Almighty Bob,0.5122503638267517,1.1139810710339946,0.5068441033363342,1.5708570873199224,-0.0054062604904174805,0.4568760162859278
Twilight,Amun,0.5253300070762634,0.0149764440119263,0.5199307799339294,0.0229441885710069,-0.005399227142333984,0.007967744559080598
Twilight,Renesmee Cullen,0.4983888566493988,7.552436089066456e-12,0.4930146932601928,4.854257366565199e-09,-0.005374163389205988,4.846704930476133e-09
The Hitchhiker's Guide to the Galaxy,Colin the Security Robot,0.5251595973968506,2.444572493933885,0.5197945833206177,5.4842990813960935,-0.00536501407623291,3.0397265874622086
Harry Potter,Aurora Sinistra,0.5590526461601257,0.0393447635599015,0.5538445115089417,0.1224016058478967,-0.005208134651184082,0.0830568422879952
Twilight,Alice Cullen,0.4722012281417846,4.617793776897156e-10,0.466993510723114,1.2967121941542204e-10,-0.005207717418670599,-3.3210815827429354e-10
Dune,Shaddam IV/DE,0.5235410332679749,0.026681287917775,0.5183737277984619,0.0342370109305398,-0.0051673054695129395,0.007555723012764803
Harry Potter,Severus Snape,0.4929259121417999,1.3601442852186424e-29,0.4878228902816772,3.80400575075157e-37,-0.005103021860122736,-1.3601442471785848e-29
Dune,Lady Jessica,0.4835402071475982,0.6225081164599482,0.4784873127937317,0.2211910335881457,-0.005052894353866522,-0.40131708287180246
Dune,Elrood Corrino IX/XD,0.5014886856079102,0.7986870708959393,0.4964533448219299,1.0047659140690426,-0.00503534078598028,0.20607884317310332
Harry Potter,Luna Lovegood,0.5057185292243958,1.8896237623338066e-17,0.5007044076919556,1.902459524809403e-12,-0.0050141215324401855,1.9024406285717793e-12
Dune,Logno,0.494779884815216,0.5175822192659972,0.4899324774742126,0.8368306389827149,-0.004847407341003418,0.3192484197167177
Dune,Raquella Berto-Anirul,0.5494669675827026,0.8528535514065485,0.5446735620498657,1.7036219628869,-0.004793405532836914,0.8507684114803515
Dune,Piter de Vries,0.5421473979949951,4.041021177281457,0.5375068783760071,2.2701143350458306,-0.004640519618988037,-1.7709068422356262
The Hitchhiker's Guide to the Galaxy,Lintilla,0.515617311000824,0.5142873522605091,0.5111030340194702,0.5880101386189713,-0.00451427698135376,0.07372278635846219
Harry Potter,Fat Lady,0.5663882493972778,0.2576185921762871,0.56190025806427,0.3347553479643727,-0.0044879913330078125,0.0771367557880856
Dune,Norma Cenva/XD,0.5501602292060852,2.530207730437466e-06,0.5456869006156921,0.0005080855486115,-0.004473328590393066,0.0005055553408810625
The Lord of the Rings,Lúthien,0.5872931480407715,0.2200637304655536,0.5828491449356079,0.8041705413064058,-0.004444003105163574,0.5841068108408521
Twilight,Billy Black,0.5281102657318115,2.7921093799392365e-05,0.5237045288085938,0.0005235862923841,-0.0044057369232177734,0.0004956651985847077
The Hitchhiker's Guide to the Galaxy,Prostetnic Vogon Jeltz,0.5403652787208557,1.5783257100592378,0.5359954833984375,2.823853986381509,-0.004369795322418213,1.2455282763222713
Harry Potter,Terry Boot,0.546864926815033,0.1832940032558784,0.5428898930549622,0.2434138175461545,-0.003975033760070801,0.060119814290276075
The Hitchhiker's Guide to the Galaxy,Prostetnic Vogon Kwaltz,0.5147516131401062,4.256055938988382,0.510841429233551,2.815234171207853,-0.003910183906555176,-1.440821767780529
Harry Potter,Dolores Umbridge,0.4959323406219482,1.4263428261381885e-19,0.4922166466712951,1.833413787516768e-16,-0.003715693950653076,1.83198744469063e-16
Harry Potter,Dorcas Meadowes,0.5596071481704712,5.84599386429504,0.5558947920799255,5.057313352443762,-0.0037123560905456543,-0.7886805118512781
The Hunger Games,Alma Coin,0.5102835893630981,0.0008144029983635,0.506580114364624,0.0034972682666253,-0.003703474998474121,0.0026828652682618
The Hitchhiker's Guide to the Galaxy,Loonquawl,0.5261984467506409,0.9040260224482054,0.5225129723548889,1.1205566695908122,-0.003685474395751953,0.21653064714260684
The Hitchhiker's Guide to the Galaxy,Great Green Arkleseizure,0.5434069037437439,2.987253942419447,0.5398224592208862,4.255710115868676,-0.003584444522857666,1.2684561734492292
The Lord of the Rings,Fíli and Kíli,0.5708042979240417,0.2646605146618025,0.5672894716262817,0.1983396337210324,-0.0035148262977600098,-0.06632088094077013
Dune,Murbella,0.5588178038597107,0.2249533863333261,0.5553565621376038,0.2897574693350967,-0.0034612417221069336,0.06480408300177062
Dune,Hasimir Fenring,0.5477452874183655,2.752159905512365,0.5443087816238403,2.1905251151701868,-0.0034365057945251465,-0.5616347903421781
The Lord of the Rings,Thráin II,0.5631524324417114,0.1243625054259797,0.5599660873413086,0.1070212093692223,-0.003186345100402832,-0.017341296056757396
Harry Potter,Ronald Weasley,0.4532481133937835,2.0778362287720762e-33,0.4501495659351349,3.902235542426407e-31,-0.003098547458648626,3.8814571801386863e-31
Twilight,Seth Clearwater,0.5438310503959656,0.0097993448076755,0.5407668948173523,0.0190283065503624,-0.0030641555786132812,0.0092289617426869
Dune,Siona Atreides/DE,0.5328741073608398,0.0914285988234466,0.5298420786857605,0.0509242698763024,-0.0030320286750793457,-0.0405043289471442
Harry Potter,Antioch Peverell,0.5281078815460205,1.555139709449023,0.5253656506538391,1.4201497340140798,-0.0027422308921813965,-0.13498997543494307
Harry Potter,Cadmus Peverell,0.5224007368087769,0.2924673914045537,0.5196977853775024,0.8439459175478803,-0.002702951431274414,0.5514785261433266
The Hitchhiker's Guide to the Galaxy,Eddie the Computer,0.5442699193954468,1.7117588772682366,0.5415846705436707,2.5446792653203074,-0.002685248851776123,0.8329203880520708
Harry Potter,Arthur Weasley,0.4234711229801178,9.540707699539671e-11,0.4209275245666504,2.2945409104300392e-18,-0.0025435984134674072,-9.54070747008558e-11
The Hunger Games,Casca Highbottom,0.5190054774284363,0.1125986767022287,0.5164787769317627,0.1068540328790744,-0.002526700496673584,-0.005744643823154302
The Hitchhiker's Guide to the Galaxy,Trillian,0.5511910319328308,0.3848918949493141,0.5486834049224854,0.7499072577522679,-0.002507627010345459,0.36501536280295377
Harry Potter,Rubeus Hagrid,0.5124862790107727,6.652833672620101e-28,0.5100301504135132,2.3475026316466823e-24,-0.0024561285972595215,2.3468373482794204e-24
Harry Potter,Dexter Fortescue,0.524878203868866,0.425494962526351,0.5224664211273193,1.2556065060829371,-0.002411782741546631,0.8301115435565861
Dune,Bellonda,0.5506885647773743,1.4931472276373354,0.5483011603355408,2.338640533834851,-0.002387404441833496,0.8454933061975154
Harry Potter,Arabella Figg,0.5605799555778503,0.0150677161364719,0.558222770690918,0.079535961089845,-0.002357184886932373,0.0644682449533731
Dune,Farad'n Corrino,0.5639529228210449,1.5997431944150269,0.5616212487220764,2.7725924804205366,-0.002331674098968506,1.1728492860055098
Harry Potter,Ludovic Bagman,0.5314623117446899,0.0169576483169616,0.5291670560836792,0.0146012355168374,-0.002295255661010742,-0.0023564128001242017
Harry Potter,Albus Dumbledore,0.4530072212219238,1.5676155215469171e-46,0.4507668912410736,1.2035993034864866e-43,-0.002240329980850164,1.2020316879649396e-43
Harry Potter,Gregory Goyle,0.5181066393852234,0.0156784897596795,0.5160576701164246,0.0058688853575473,-0.002048969268798828,-0.0098096044021322
Harry Potter,Ignotus Peverell,0.5352026224136353,0.0421127873851287,0.5331591367721558,0.8187404190719058,-0.002043485641479492,0.7766276316867771
Dune,Hayt,0.5371939539909363,1.2712192510858666,0.5351949334144592,2.2788322223784534,-0.0019990205764770508,1.0076129712925868
Twilight,Victoria,0.5100798606872559,9.219545780377226e-08,0.5081497430801392,6.590592494122083e-07,-0.0019301176071166992,5.66863791608436e-07
Harry Potter,Selwyn,0.5444645881652832,1.703147074194096,0.5427103042602539,1.4717821838687717,-0.0017542839050292969,-0.23136489032532426
Dune,Korba,0.5014337301254272,2.2393084251022968,0.499786227941513,2.3051374872555,-0.00164750218391424,0.06582906215320339
Harry Potter,Hepzibah Smith,0.5563204288482666,0.0243205294347999,0.5547276735305786,0.0467294312224848,-0.0015927553176879883,0.022408901787684902
Dune,Zufa Cenva,0.5443686842918396,0.4828090690761097,0.5427811741828918,0.8375289648919988,-0.001587510108947754,0.3547198958158891
The Hitchhiker's Guide to the Galaxy,Captain,0.4899353981018066,0.9164435472042498,0.4883973896503448,0.8684450963834781,-0.001538008451461792,-0.0479984508207717
Harry Potter,Dominique Weasley,0.4936228096485138,0.7157537172386882,0.4922251105308532,0.7196244920735708,-0.001397699117660578,0.0038707748348826287
Dune,Wellington Yueh,0.5065340399742126,1.0699479066583852,0.505357563495636,0.3109419464988483,-0.0011764764785766602,-0.7590059601595369
Twilight,Lauren Mallory,0.5203814506530762,1.880009606168536,0.5196325778961182,3.033187796670408,-0.0007488727569580078,1.153178190501872
Dune,Duncan Idaho,0.4403389394283294,0.0001807743756785,0.4396003484725952,0.0002372809840749,-0.0007385909557341974,5.6506608396399995e-05
Harry Potter,Viktor Krum,0.5321261286735535,0.0207657874348046,0.5314199328422546,3.4756680630618405e-05,-0.0007061958312988281,-0.02073103075417398
The Lord of the Rings,Gimli,0.528266429901123,0.0159003841944725,0.527631938457489,0.0096906480214426,-0.0006344914436340332,-0.0062097361730299
The Hitchhiker's Guide to the Galaxy,Hactar,0.5415095686912537,1.7986262996613993,0.5409008860588074,3.9447276381562535,-0.0006086826324462891,2.146101338494854
Dune,Tylwyth Waff,0.5355414748191833,1.1598862362099518,0.5352148413658142,1.835082593202588,-0.0003266334533691406,0.6751963569926362
Twilight,J. Jenks,0.531209409236908,0.4950358655083797,0.5308963060379028,1.6316051347943996,-0.00031310319900512695,1.1365692692860199
Dune,Gurney Halleck/DE,0.5359864234924316,2.934730952986957e-07,0.5356827974319458,6.942183856932445e-06,-0.00030362606048583984,6.64871076163375e-06
The Hitchhiker's Guide to the Galaxy,Alice Beeblebrox,0.4967779517173767,0.99802725779914,0.4969177842140198,0.931185511039417,0.0001398324966430664,-0.06684174675972299
The Lord of the Rings,Tom Bombadil,0.5692244172096252,0.0096452331169159,0.5694213509559631,0.0041444875059946,0.00019693374633789062,-0.0055007456109213
Dune,Mohandas Suk,0.5149329900741577,1.1292819726826318,0.5153140425682068,1.1863076404961,0.00038105249404907227,0.057025667813468184
Twilight,Jared Cameron,0.5072314739227295,0.0545741732384418,0.5077154636383057,0.1291697282123754,0.0004839897155761719,0.07459555497393361
Harry Potter,Augustus Rookwood,0.5475334525108337,0.6735741322403885,0.5482975840568542,0.8720168612207716,0.0007641315460205078,0.19844272898038307
Harry Potter,Lucius Malfoy,0.4420770406723022,1.448088829032099e-13,0.4429135620594024,8.359062210801346e-15,0.0008365213871002197,-1.3644982069240856e-13
Harry Potter,Silvanus Kettleburn,0.5343621373176575,0.0980667598809487,0.535270631313324,0.1451640932258581,0.0009084939956665039,0.0470973333449094
Dune,Anirul Corrino/XD,0.5416614413261414,0.0066365918881377,0.5427291393280029,0.0088643124949792,0.0010676980018615723,0.002227720606841499
Harry Potter,Rose Granger-Weasley,0.4872856736183166,0.0066372509993867,0.4884867668151855,0.0095233651300431,0.0012010931968688965,0.0028861141306564
Dune,Hasimir Fenring/DE,0.5495448112487793,0.0320319920170467,0.550844132900238,0.0713260935261198,0.0012993216514587402,0.039294101509073094
Dune,Farad'n Corrino/DE,0.5643123984336853,0.6382892980767515,0.565615177154541,0.9014461865952292,0.0013027787208557129,0.26315688851847774
The Lord of the Rings,Glaurung,0.5608259439468384,1.7772372613905831,0.5621346235275269,1.6705097155653243,0.0013086795806884766,-0.10672754582525878
Twilight,Esme Cullen,0.5447559952735901,4.360571746586423e-06,0.546073317527771,1.4871437877519388e-05,0.0013173222541809082,1.0510866130932965e-05
Dune,Ghanima Atreides,0.4993902444839477,0.2832351725235344,0.5008520483970642,0.1090961323815855,0.0014618039131165106,-0.17413904014194892
Harry Potter,Angelina Johnson,0.463925689458847,7.276258909147282e-05,0.4654067158699035,1.623867088561323e-08,0.0014810264110565186,-7.274635042058721e-05
Harry Potter,Sirius Black I,0.4783762097358703,1.1825972259562416,0.4798912107944488,1.1538797846633253,0.0015150010585784912,-0.028717441292916313
Twilight,Rebecca Black,0.5029265880584717,2.8473180322844005,0.5044931769371033,1.826882335524608,0.0015665888786315918,-1.0204356967597925
The Lord of the Rings,Bilbo Baggins,0.5365107655525208,4.011441318706742e-06,0.5382837653160095,0.0001248753727823,0.0017729997634887695,0.00012086393146359325
Dune,Wellington Yueh/XD,0.5281198620796204,0.00986269711621,0.5298944115638733,0.008968862968506,0.0017745494842529297,-0.0008938341477039997
Harry Potter,Fat Friar,0.5442248582839966,0.1392300177906723,0.5460276007652283,0.4809326218203241,0.0018027424812316895,0.3417026040296518
The Lord of the Rings,Balin,0.545987606048584,0.0079325536178869,0.5478176474571228,0.2038783731632371,0.0018300414085388184,0.1959458195453502
Twilight,Garrett,0.5204997062683105,0.0756510091212712,0.5225915312767029,0.3837643942936131,0.002091825008392334,0.3081133851723419
Harry Potter,Mosag,0.5249723792076111,1.8411663893213104,0.5271376967430115,1.462775113446042,0.0021653175354003906,-0.37839127587526833
Harry Potter,Amelia Bones,0.5168406963348389,0.0279557630805455,0.5190227627754211,0.0812637699946964,0.0021820664405822754,0.0533080069141509
Harry Potter,Cho Chang,0.516838550567627,2.139597820794112e-07,0.5192126035690308,9.476078543455702e-07,0.0023740530014038086,7.33648072266159e-07
Harry Potter,Merope Riddle,0.5249748826026917,0.0004662502451368,0.5273535251617432,0.0002089056118776,0.0023786425590515137,-0.0002573446332592
Twilight,Zafrina,0.5370202660560608,0.5323186297748781,0.5394542217254639,0.557790068087978,0.002433955669403076,0.025471438313099948
The Hunger Games,Hilarius Heavensbee,0.5179992318153381,1.5423424951846063,0.5204738974571228,3.441486370433192,0.002474665641784668,1.8991438752485856
Harry Potter,Parvati Patil,0.5490759611129761,0.0062090403272631,0.5516678690910339,0.0049058723791191,0.0025919079780578613,-0.001303167948144
Harry Potter,Septima Vector,0.5385039448738098,0.2920174987813086,0.5411742925643921,0.2421844856495184,0.0026703476905822754,-0.04983301313179023
The Lord of the Rings,Meriadoc Brandybuck,0.5564203858375549,0.2999265634054204,0.5594236850738525,0.6961992607617269,0.0030032992362976074,0.3962726973563065
The Hitchhiker's Guide to the Galaxy,Questular Rontok,0.4915196001529693,0.7772225286536903,0.4946693480014801,3.361145219866005,0.0031497478485107977,2.5839226912123148
Dune,Leto Atreides I/XD,0.5373376607894897,0.0110230624284677,0.5404893755912781,0.0125341566145215,0.00315171480178833,0.0015110941860538001
The Lord of the Rings,Isildur,0.574586033821106,0.0452284349709999,0.5778614282608032,0.0179507817501983,0.0032753944396972656,-0.027277653220801605
Dune,Harah,0.5389475226402283,0.2183046726211584,0.5422749519348145,0.0527464640888047,0.0033274292945861816,-0.1655582085323537
The Lord of the Rings,Théoden,0.5519975423812866,0.098661081767809,0.555400550365448,0.2290526172554974,0.003403007984161377,0.1303915354876884
The Hitchhiker's Guide to the Galaxy,Caveman,0.4624646604061126,2.0570646436220046,0.4659535586833954,1.5703616692321305,0.0034888982772827704,-0.4867029743898741
The Hitchhiker's Guide to the Galaxy,Gag Halfrunt,0.4883932471275329,1.5919163359704571,0.491943210363388,1.8584655163697192,0.0035499632358551025,0.2665491803992621
Harry Potter,Molly Weasley,0.4281614422798157,2.5409851758096217e-17,0.4317655563354492,4.6968200808687457e-14,0.003604114055633545,4.694279095692936e-14
Harry Potter,Rolanda Hooch,0.5499967336654663,1.7090872240475486e-05,0.5537196397781372,0.000102792374379,0.0037229061126708984,8.570150213852451e-05
Harry Potter,Harry Potter,0.4480642676353454,1.2639081125928257e-186,0.4519370198249817,2.034616154564461e-74,0.003872752189636286,2.034616154564461e-74
The Lord of the Rings,Frodo Baggins,0.5377333164215088,9.035697432029486e-09,0.5416869521141052,5.802297185785331e-07,0.0039536356925964355,5.711940211465036e-07
Harry Potter,Poppy Pomfrey,0.5616823434829712,4.805973141925991e-05,0.5656402111053467,2.0826633129051506e-05,0.003957867622375488,-2.7233098290208405e-05
Dune,Elrood Corrino IX/DE,0.4990565776824951,1.680903201871944,0.503130316734314,1.7051290547742493,0.004073739051818848,0.024225852902305167
The Hitchhiker's Guide to the Galaxy,Mr Prosser,0.526118278503418,4.563572890281057,0.5302026867866516,4.125584433432032,0.004084408283233643,-0.4379884568490242
Harry Potter,Broderick Bode,0.5171712636947632,1.374418961470638,0.5214512348175049,0.3000977922013568,0.004279971122741699,-1.0743211692692811
Harry Potter,James Potter II,0.4499861299991607,0.2455680350861989,0.4544238150119781,0.1918815835152693,0.004437685012817383,-0.053686451570929605
The Hitchhiker's Guide to the Galaxy,Old Woman in the Cave,0.5357320308685303,5.493064329066271,0.5402321815490723,6.098349388261835,0.004500150680541992,0.6052850591955643
The Hitchhiker's Guide to the Galaxy,Number One,0.4737790822982788,0.6911469901316684,0.4783584773540497,0.5856922457561612,0.004579395055770874,-0.10545474437550717
The Hitchhiker's Guide to the Galaxy,Zaphod Beeblebrox,0.53938227891922,4.567756244634674,0.5440461039543152,4.665632437599396,0.004663825035095215,0.09787619296472272
Dune,Paul Atreides/XD,0.4372825920581817,8.181595971192389e-16,0.4419648051261902,4.074563351221159e-15,0.004682213068008478,3.25640375410192e-15
Dune,Irulan Corrino,0.552903950214386,0.1253524255925955,0.5577408671379089,0.0991595460387814,0.004836916923522949,-0.026192879553814094
Dune,Liet Kynes,0.5657013058662415,0.8491616312691735,0.5706300735473633,0.8244425658550223,0.004928767681121826,-0.024719065414151253
Harry Potter,Oliver Wood,0.5494810938835144,0.0031257259818783,0.5545895099639893,0.0027905123470108,0.0051084160804748535,-0.0003352136348674997
Harry Potter,Radolphus Lestrange,0.4944992363452911,0.8164014318746445,0.4996942281723022,0.8000335422403165,0.005194991827011108,-0.016367889634328003
Dune,Leto Atreides I/DE,0.5395989418029785,0.0111862209802116,0.5448104739189148,0.1545048948981058,0.005211532115936279,0.14331867391789418
Harry Potter,Amycus Carrow,0.5273104906082153,0.0064470404172035,0.5325559377670288,0.0112584606258732,0.0052454471588134766,0.0048114202086697
Harry Potter,Pius Thicknesse,0.5229219794273376,0.0109208608462026,0.5281709432601929,0.0025309080094523,0.005248963832855225,-0.0083899528367503
Dune,Edric,0.4862787127494812,1.1251288929263867,0.4916366636753082,2.8910878840380323,0.005357950925827026,1.7659589911116456
Harry Potter,Tom Riddle,0.4458064436912536,3.168069295677723e-40,0.4512700736522674,1.1622324552405324e-44,0.005463629961013794,-3.1679530724321988e-40
The Hitchhiker's Guide to the Galaxy,Golgafrinchans,0.5511670112609863,0.5549285345510245,0.5567904114723206,1.402434199539865,0.0056234002113342285,0.8475056649888405
Twilight,Collin Littlesea,0.4260744154453277,0.6575721276720162,0.4318079948425293,0.686525650713903,0.005733579397201594,0.02895352304188681
Dune,Lichna,0.4933736026287079,0.4607941610616827,0.4991544783115387,0.6320385965619723,0.0057808756828308105,0.17124443550028956
The Hitchhiker's Guide to the Galaxy,Gail Andrews,0.4783885180950165,1.331027219739812,0.4842257797718048,0.981556243864098,0.00583726167678833,-0.3494709758757141
Harry Potter,Dean Thomas,0.5118269920349121,1.8244386150973986e-07,0.5176940560340881,8.512505479378899e-07,0.005867063999176025,6.6880668642815e-07
Harry Potter,Alastor Moody,0.5533482432365417,1.7193174001515158e-07,0.5592600703239441,1.5691412839536592e-10,0.005911827087402344,-1.7177482588675621e-07
Harry Potter,Bellatrix Lestrange,0.4352039992809295,1.5363472535439991e-13,0.4414121508598327,7.308498571392399e-12,0.006208151578903198,7.1548638460379994e-12
Harry Potter,Godric Gryffindor,0.5748502016067505,1.1248597042129604,0.5812059044837952,1.2911504332079202,0.006355702877044678,0.16629072899495978
The Lord of the Rings,Thingol,0.525633692741394,0.0539210507006794,0.5319950580596924,0.5369288406434378,0.00636136531829834,0.4830077899427584
Harry Potter,Sirius Black II,0.4215435087680816,1.1228537650434445,0.4280705749988556,2.4662679958974936,0.006527066230773981,1.343414230854049
Harry Potter,Walden Macnair,0.5635466575622559,0.1849675190222164,0.5703075528144836,0.3006264950108966,0.006760895252227783,0.11565897598868022
The Hitchhiker's Guide to the Galaxy,Prak,0.4988954663276672,0.8639535109612494,0.5057277679443359,1.6078580632582122,0.006832301616668757,0.7439045522969628
Harry Potter,Victoire Weasley,0.4864944815635681,0.8898031067305227,0.4933436512947082,1.2884826591296104,0.006849169731140081,0.3986795523990877
Dune,Tlaloc,0.5246959924697876,2.646719875117717,0.5315487384796143,1.2087544673367268,0.00685274600982666,-1.4379654077809902
Dune,Miles Teg/XD,0.5305107235908508,0.1285666304566887,0.537381649017334,0.1273275886983392,0.006870925426483154,-0.0012390417583494906
Dune,Shando Vernius,0.521742582321167,0.7272300770478705,0.5286861062049866,0.835193220501356,0.00694352388381958,0.10796314345348557
Harry Potter,Remus Lupin,0.4716821312904358,5.765279864385344e-18,0.4787402749061584,3.136050476917269e-12,0.007058143615722601,3.1360447116374044e-12
The Hitchhiker's Guide to the Galaxy,Ruler of the Universe,0.5129159092903137,6.838842886242955,0.5204333662986755,3.913381712546837,0.007517457008361816,-2.9254611736961182
The Hitchhiker's Guide to the Galaxy,Ameglian Major Cow,0.5500752329826355,2.80877561406975,0.5576145052909851,1.793867985967612,0.007539272308349609,-1.0149076281021379
Harry Potter,Rowena Ravenclaw,0.536291778087616,0.4780702268767824,0.5438369512557983,0.589127986422644,0.007545173168182373,0.11105775954586156
Harry Potter,Draco Malfoy,0.43211430311203,1.4777474808204087e-16,0.4399133920669555,1.3068900625732578e-18,0.007799088954925537,-1.464678580194676e-16
Twilight,Bree Tanner,0.528616726398468,0.0062132854516126,0.5364875793457031,0.0214544019715913,0.007870852947235107,0.015241116519978698
Harry Potter,Nymphadora Tonks,0.4461378455162048,1.635256210038855e-17,0.4540960490703583,1.6848258868651242e-13,0.007958203554153498,1.6846623612441203e-13
The Hitchhiker's Guide to the Galaxy,Marvin,0.5226954817771912,0.5531746555418097,0.5307050347328186,1.3498369094942475,0.008009552955627441,0.7966622539524378
The Hitchhiker's Guide to the Galaxy,Lady Cynthia Fitzmelton,0.5142278671264648,2.773928117637921,0.5223308205604553,2.458637932578313,0.008102953433990479,-0.3152901850596077
Harry Potter,Beedle the Bard,0.522861897945404,4.498811265480763,0.5310685038566589,5.401560759845255,0.008206605911254883,0.9027494943644925
Harry Potter,Evan Rosier,0.5131301283836365,0.9094210946877266,0.5213402509689331,1.0734730159331596,0.00821012258529663,0.164051921245433
Harry Potter,Bartemius Crouch Junior,0.5339266657829285,2.926049073436616e-09,0.5422037839889526,4.6053570028874446e-07,0.00827711820602417,4.5760965121530787e-07
The Hunger Games,Haymitch Abernathy,0.5320743918418884,7.142502707739146e-15,0.5403539538383484,6.037866155756005e-16,0.008279561996459961,-6.5387160921635455e-15
The Hitchhiker's Guide to the Galaxy,Genghis Khan,0.526462972164154,2.4218169731088937,0.5348344445228577,1.7301217028576794,0.008371472358703613,-0.6916952702512142
Harry Potter,George Weasley,0.4387584626674652,1.7624679612876154e-12,0.447294533252716,1.2639408995656911e-14,0.008536070585250799,-1.7498285522919585e-12
The Lord of the Rings,Boromir,0.5420252084732056,0.2208190084381805,0.550870954990387,0.1635920221384829,0.008845746517181396,-0.05722698629969761
The Lord of the Rings,Túrin,0.5262561440467834,0.0009104604560052,0.5351635217666626,0.0025890702421805,0.00890737771987915,0.0016786097861752997
The Hitchhiker's Guide to the Galaxy,Murray Bost Henson,0.4768938422203064,1.211152165003513,0.4860781133174896,1.2961501883295707,0.009184271097183228,0.08499802332605766
Dune,Tio Holtzman,0.5359511375427246,0.2464258698445944,0.5451527237892151,0.3551528411521518,0.009201586246490479,0.1087269713075574
Dune,Marcus Claire Luyseyal,0.4783183634281158,1.45308452667761,0.4878979623317718,1.509079725196511,0.009579598903656006,0.05599519851890089
Dune,Wensicia Corrino/DE,0.5442671775817871,0.8856984593840024,0.5538966655731201,1.1536499686322064,0.009629487991333008,0.267951509248204
Dune,Serena Butler,0.5327451229095459,0.0362846574024291,0.5425384044647217,0.0475367506421632,0.009793281555175781,0.011252093239734098
Dune,Moneo Atreides,0.5479013919830322,0.2878437573838585,0.5579013824462891,0.0851327643411914,0.009999990463256836,-0.2027109930426671
Harry Potter,Phineas Nigellus Black,0.4508631229400635,8.120859720877467e-05,0.4610663652420044,0.0032949429196833,0.010203242301940918,0.003213734322474525
Twilight,Mary,0.5159986019134521,1.229007427614384,0.5262669324874878,1.860727296539297,0.010268330574035645,0.6317198689249128
The Lord of the Rings,Samwise Gamgee,0.5577294230461121,2.981547643814377e-05,0.5680708885192871,0.0021778630954974,0.010341465473175049,0.0021480476190592563
Harry Potter,Frank Longbottom,0.5471572875976562,1.1322979276281024,0.5575560331344604,0.5719209658676639,0.0103987455368042,-0.5603769617604385
Dune,Anirul Corrino,0.5229536890983582,0.912984212741053,0.5335439443588257,1.1447678403703647,0.01059025526046753,0.2317836276293117
Dune,Jehanne Butler,0.5227755308151245,0.8694319747196473,0.533492922782898,1.932790710067074,0.010717391967773438,1.0633587353474268
Twilight,Mexican coven,0.4945212602615356,0.7120896398841041,0.5052410960197449,0.9084099254345048,0.010719835758209284,0.1963202855504007
The Lord of the Rings,Ungoliant,0.549044668674469,0.128973381792379,0.5599000453948975,0.5747775007490585,0.010855376720428467,0.44580411895667954
Dune,Glossu Rabban Harkonnen,0.5340532660484314,2.3036825628649504,0.5450428128242493,2.4193113109613207,0.010989546775817871,0.11562874809637025
Harry Potter,Gabrielle Delacour,0.5223298668861389,1.168723219988157,0.5333210825920105,1.1045229648817685,0.010991215705871582,-0.06420025510638849
Dune,Liet-Kynes,0.5547012090682983,1.5908292732935243,0.5659355521202087,1.5960672420416866,0.0112343430519104,0.005237968748162292
Dune,Hedley Tuek,0.5054147243499756,0.7164470616324456,0.5168662667274475,1.1032708824101038,0.011451542377471924,0.3868238207776582
Harry Potter,Garrick Ollivander,0.5313294529914856,0.0135684086148181,0.542927086353302,0.0014663576833187,0.011597633361816406,-0.0121020509314994
Dune,Ziarenko Javid,0.4890077412128448,0.8816504489356798,0.5007531642913818,0.994905453619222,0.011745423078537043,0.11325500468354222
Dune,Tyros Reffa,0.480540782213211,1.569743544575623,0.4925239086151123,1.5343194191660494,0.0119831264019013,-0.035424125409573515
Harry Potter,Ginevra Weasley,0.4481128752231598,5.921675950872928e-32,0.4601025283336639,1.6779671372316495e-25,0.011989653110504095,1.6779665450640545e-25
Dune,Victor Atreides,0.528741717338562,0.5158123610834457,0.5407525300979614,1.3293292237988117,0.012010812759399414,0.8135168627153659
Harry Potter,Filius Flitwick,0.5269127488136292,8.613709886152849e-12,0.539038360118866,1.1613885607232534e-11,0.012125611305236816,3.0001757210796855e-12
The Hitchhiker's Guide to the Galaxy,Know-Nothing-Bozo,0.4649394452571869,0.4545044532896301,0.4770921766757965,0.6008057562188388,0.01215273141860962,0.14630130292920873
The Hunger Games,Coral,0.5094689130783081,0.0683929223884989,0.5216844081878662,0.2821149151155435,0.012215495109558105,0.2137219927270446
Harry Potter,Gellert Grindelwald,0.5266424417495728,5.94054798970139e-19,0.5388982892036438,2.3032054542676088e-17,0.012255847454071045,2.243799974370595e-17
Harry Potter,Mykew Gregorovitch,0.5598282814025879,1.2835056604498305,0.5721428394317627,0.4262943090912127,0.012314558029174805,-0.8572113513586178
Harry Potter,Helga Hufflepuff,0.5390971899032593,0.3471017908749374,0.5515829920768738,1.4637857624649413,0.012485802173614502,1.1166839715900039
Harry Potter,Pomona Sprout,0.5376724600791931,1.3511983744272526e-12,0.5502572655677795,6.308390113218445e-08,0.012584805488586426,6.308254993381002e-08
Dune,Piter de Vries/XD,0.5154051780700684,0.6117765141619117,0.5281004309654236,0.8675560618658038,0.012695252895355225,0.2557795477038921
The Hitchhiker's Guide to the Galaxy,Number Two,0.4840034544467926,0.9594626155991508,0.4967589974403381,0.7338338366808194,0.012755542993545477,-0.22562877891833144
Dune,Leto I Atreides,0.5306317210197449,0.0074758988857778,0.543422520160675,0.0723719614126919,0.012790799140930176,0.0648960625269141
Twilight,Emmett Cullen,0.5229026079177856,4.626146041150566e-09,0.5358542203903198,5.6383434528673604e-09,0.01295161247253418,1.0121974117167945e-09
Dune,Pardot Kynes/DE,0.5539801120758057,1.73601369940754e-05,0.5669638514518738,9.727943586778645e-07,0.012983739376068115,-1.6387342635397533e-05
The Hunger Games,Coriolanus Snow,0.4776272475719452,2.9126668186973907e-18,0.4907776415348053,9.442908926714074e-15,0.013150393962860107,9.439996259895378e-15
Twilight,Rosalie Hale,0.4684494137763977,5.220714551363631e-14,0.4816418886184692,1.1393122320426177e-07,0.013192474842071478,1.1393117099711626e-07
Harry Potter,Abraxas Malfoy,0.5212939381599426,2.2116749955356854,0.5345617532730103,2.108352614117953,0.013267815113067627,-0.10332238141773242
The Hitchhiker's Guide to the Galaxy,Rob McKenna,0.4982612431049347,1.676761573747175,0.5118005871772766,1.32866594536278,0.013539344072341919,-0.348095628384395
Harry Potter,Susan Bones,0.5345025658607483,0.0018925034942361,0.5480835437774658,0.002618687044341,0.01358097791671753,0.0007261835501048998
Dune,Darwi Odrade,0.5345297455787659,0.0036429604487717,0.5481929779052734,0.0081350336064976,0.013663232326507568,0.0044920731577259
Harry Potter,Ignatius Prewett,0.4868535101413727,0.954975833304807,0.5006044507026672,1.51826896694714,0.013750940561294556,0.5632931336423331
The Hitchhiker's Guide to the Galaxy,Agrajag,0.5240415334701538,0.5323970607447832,0.5379686951637268,1.7408361850426886,0.013927161693572998,1.2084391242979053
The Hitchhiker's Guide to the Galaxy,Russell,0.457259327173233,1.0812615447686962,0.4715043902397156,1.176247351000992,0.0142450630664826,0.09498580623229591
The Hunger Games,Vipsania Sickle,0.4964489042758941,1.2332811483802,0.5109447240829468,2.296390425878495,0.014495819807052668,1.0631092774982949
Dune,Duncan Idaho/XD,0.4706788957118988,1.4683253157964638e-11,0.4851931929588318,7.0751997109639836e-12,0.014514297246932983,-7.608053447000655e-12
The Lord of the Rings,Radagast,0.5384013056755066,0.0100255745582747,0.5529459118843079,0.0017647720936927,0.01454460620880127,-0.008260802464581999
The Hitchhiker's Guide to the Galaxy,Poodoo,0.4555373191833496,0.6980830433239986,0.4701451957225799,0.6094023810015861,0.014607876539230291,-0.08868066232241256
The Hitchhiker's Guide to the Galaxy,Hurling Frootmig,0.5130497217178345,0.9101723590259572,0.5277324914932251,3.9894213199495328,0.014682769775390625,3.0792489609235756
Dune,Leto Atreides II/XD,0.5505051016807556,0.000174821912321,0.5656140446662903,0.0003825755550476,0.015108942985534668,0.00020775364272660002
The Lord of the Rings,Thorin II,0.5422983765602112,0.0006771647491559,0.5574193596839905,0.0052600400256278,0.015120983123779297,0.0045828752764719
Dune,Vladimir Harkonnen,0.5025796294212341,0.0105327679179144,0.5177177786827087,0.0096791005557061,0.01513814926147461,-0.0008536673622082987
Dune,Abulurd Harkonnen/DE,0.5182008743286133,1.362609917915952,0.5333595871925354,2.042315223473736,0.01515871286392212,0.6797053055577837
Harry Potter,Piers Polkiss,0.5167543888092041,1.2790685022656632,0.5319365859031677,1.762999561332922,0.015182197093963623,0.48393105906725875
Dune,Shaddam Corrino IV/XD,0.5091894865036011,0.0090809560808491,0.5245181918144226,0.0092471458479011,0.015328705310821533,0.00016618976705200066
Dune,Quintinius Violet Chenoeh,0.5093249678611755,0.0122252567494749,0.524704098701477,0.0160754336375768,0.015379130840301514,0.0038501768881018996
The Hitchhiker's Guide to the Galaxy,Frankie and Benjy,0.5013969540596008,1.7548135912478575,0.5169132947921753,0.7030808589041321,0.015516340732574463,-1.0517327323437256
The Hitchhiker's Guide to the Galaxy,Deep Thought,0.5314210057258606,8.53699479683835,0.5471480488777161,1.0135586273957131,0.01572704315185547,-7.523436169442637
Twilight,Carlisle Cullen,0.5293272733688354,9.468050543431874e-09,0.5450688600540161,3.2809036680434965e-08,0.015741586685180664,2.3340986137003092e-08
Twilight,Edward Cullen,0.4619485735893249,2.7989420826042336e-12,0.4777674674987793,2.128944432522841e-12,0.0158188939094544,-6.699976500813925e-13
Dune,Norma Cevna,0.504711389541626,0.6081832269861903,0.52064049243927,2.719788599391379,0.015929102897644043,2.111605372405189
Harry Potter,Peter Pettigrew,0.4922470450401306,3.823609035665477e-13,0.5086572170257568,2.2426763799859293e-15,0.01641017198562622,-3.8011822718656176e-13
Dune,Alma Mavis Taraza,0.5263286828994751,1.1763266388481577,0.5428972244262695,0.7923937574830788,0.016568541526794434,-0.38393288136507886
Twilight,Peter,0.4996434152126312,0.0007707760413928,0.5165984034538269,0.0098737691860605,0.01695498824119568,0.0091029931446677
Twilight,Santiago,0.5025033354759216,1.4057027425233102,0.5195925831794739,3.332715111611792,0.017089247703552246,1.927012369088482
Harry Potter,Dilys Derwent,0.5257084965705872,1.5585679755874766,0.5429420471191406,5.438772158060853,0.017233550548553467,3.880204182473376
Harry Potter,Alice Longbottom,0.5555149912834167,0.1464946712747482,0.572822093963623,1.2940110439138062,0.0173071026802063,1.147516372639058
The Hunger Games,Katniss Everdeen,0.538177490234375,2.3443452583198656e-31,0.5554942488670349,1.2334703445184762e-38,0.017316758632659912,-2.344345134972831e-31
Twilight,Paul Lahote,0.5081225037574768,0.0152954814122052,0.5255449414253235,0.071658634350209,0.01742243766784668,0.0563631529380038
Dune,Leto Atreides I,0.4812732934951782,0.7298950087245771,0.4988375008106231,1.0678744100759687,0.01756420731544489,0.3379794013513916
Dune,Murbella/XD,0.5356296300888062,0.0041034575780942,0.5532116889953613,0.0035018882461928,0.017582058906555176,-0.0006015693319013997
The Hunger Games,Festus Creed,0.5047379732131958,0.292450056603816,0.522467315196991,0.6338809804133214,0.017729341983795166,0.3414309238095054
Dune,Ramallo,0.5175814032554626,1.296847200314298,0.5355709791183472,0.9804594400402232,0.01798957586288452,-0.31638776027407467
Dune,Faykan Butler,0.4560759961605072,0.0628112011142187,0.474168986082077,0.1032828983494602,0.018092989921569824,0.040471697235241494
The Hitchhiker's Guide to the Galaxy,Fenchurch,0.5083360075950623,1.592191246203948,0.5265572667121887,2.7457036977187443,0.018221259117126465,1.1535124515147963
The Hitchhiker's Guide to the Galaxy,Humma Kavula,0.5119283199310303,2.787424181520432,0.5302233099937439,2.7457729851579336,0.018294990062713623,-0.04165119636249859
Dune,Alia Atreides/XD,0.526520848274231,0.2653104621975815,0.5451275706291199,0.3564062792576663,0.018606722354888916,0.09109581706008485
Harry Potter,Griphook,0.5196143984794617,1.526951339910751e-14,0.538314163684845,0.0460379752341642,0.0186997652053833,0.046037975234148924
The Hitchhiker's Guide to the Galaxy,Haggunenons,0.539333164691925,0.4945963307851389,0.558082640171051,3.349477014080598,0.018749475479125977,2.854880683295459
The Hitchhiker's Guide to the Galaxy,Paul Neil Milne Johnstone,0.5124474763870239,2.048404221015958,0.5312544107437134,2.671428310758235,0.018806934356689453,0.6230240897422767
Harry Potter,Vincent Crabbe,0.5026130080223083,0.0015588655489887,0.5214837789535522,0.0011542314545937,0.018870770931243896,-0.0004046340943949999
The Lord of the Rings,Maedhros,0.5532121062278748,0.0199567530387573,0.5721025466918945,0.1010704054882798,0.018890440464019775,0.0811136524495225
Harry Potter,Marietta Edgecombe,0.5206737518310547,1.779552423344374e-05,0.5395944118499756,0.0032812133556265,0.0189206600189209,0.003263417831393056
Harry Potter,Hugo Granger-Weasley,0.5106683373451233,1.4468244889103845,0.5297722220420837,1.0661772367281488,0.01910388469696045,-0.3806472521822357
The Hitchhiker's Guide to the Galaxy,Roosta,0.4848386347293854,0.8314865504954853,0.5040119290351868,3.2408819615982014,0.01917329430580139,2.4093954111027163
The Hitchhiker's Guide to the Galaxy,Great Hyperlobic Omnicognate Neutron Wrangler,0.5377633571624756,1.9328538642434627,0.5569385290145874,1.5262557711992633,0.019175171852111816,-0.40659809304419947
Harry Potter,Bartemius Crouch Senior,0.5264034271240234,7.470252967959606e-10,0.5456181168556213,1.3927406723883127e-11,0.0192146897315979,-7.330978900720774e-10
Harry Potter,Herbert Beery,0.4878427684307098,0.8369628959508667,0.5070789456367493,0.7914822154326692,0.019236177206039484,-0.045480680518197536
The Lord of the Rings,Shelob,0.5711640119552612,0.8855788018652117,0.5904821157455444,0.7000883469407051,0.019318103790283203,-0.18549045492450655
Harry Potter,Winky,0.5340132713317871,0.0022107310349813,0.5533812642097473,0.0012541336059077,0.019367992877960205,-0.0009565974290736
The Hunger Games,Lysistrata Vickers,0.5299878716468811,0.0624234461597494,0.5494087338447571,0.2352364340905041,0.019420862197875977,0.1728129879307547
Twilight,Aro,0.494179219007492,1.1873361905796463e-05,0.5136163830757141,6.6440766096684486e-06,0.0194371640682221,-5.229285296128015e-06
Dune,Bijaz,0.4988247752189636,0.3898415914457266,0.518500804901123,0.4695547634332722,0.019676029682159424,0.07971317198754557
Dune,Xavier Harkonnen,0.4988543093204498,0.0424093062947987,0.5185446739196777,0.1100263681956678,0.01969036459922796,0.06761706190086911
Harry Potter,Dobby,0.4861740469932556,1.343842603081895e-38,0.5059210062026978,9.300306947622369e-09,0.01974695920944214,9.300306947622369e-09
Dune,Tertius Eileen Anteac,0.4962998330593109,0.7491380817120499,0.5162011384963989,1.08826615080431,0.019901305437088013,0.33912806909226023
Dune,Marty,0.4871240854263305,0.8762413003474923,0.5070319771766663,1.241751018241186,0.01990789175033575,0.3655097178936937
Dune,Jessica Atreides/DE,0.5077189207077026,0.0121601276535094,0.5277735590934753,0.0343525840475821,0.020054638385772705,0.022192456394072704
Harry Potter,Rufus Scrimgeour,0.549993097782135,0.0008907092674825,0.5700788497924805,0.0010634275344297,0.02008575201034546,0.0001727182669472
Dune,Tyekanik,0.532672643661499,0.9530672037691116,0.5529613494873047,0.795747570216758,0.020288705825805664,-0.15731963355235357
The Hitchhiker's Guide to the Galaxy,Effrafax of Wug,0.4908310174942016,1.6261834995648905,0.5111228823661804,3.1375595737712403,0.020291864871978815,1.5113760742063498
Dune,Rhombur Vernius,0.5480297207832336,0.3569623769988124,0.5683475732803345,0.7308611305292908,0.02031785249710083,0.3738987535304784
Dune,Sheeana Brugh,0.5156224370002747,0.6778219155931189,0.5360752940177917,0.6813749779522014,0.02045285701751709,0.0035530623590824817
Dune,Alia Atreides,0.5008636116981506,0.6454515420887584,0.5214312076568604,0.2923913554490708,0.020567595958709717,-0.35306018663968763
The Lord of the Rings,Thranduil,0.5371208190917969,0.0007781050621102,0.557759702205658,0.0115690835173304,0.020638883113861084,0.0107909784552202
The Hitchhiker's Guide to the Galaxy,Judiciary Pag,0.5128049850463867,1.2943539963747523,0.5335613489151001,2.388537958569867,0.02075636386871338,1.0941839621951146
Dune,Leto Atreides II/DE,0.5542869567871094,0.4475875365685639,0.5751059651374817,0.1193105515496551,0.020819008350372314,-0.32827698501890884
Dune,Hwi Noree,0.5291639566421509,0.551620659027599,0.5500906705856323,0.8076787215781113,0.020926713943481445,0.2560580625505122
The Hunger Games,Livia Cardew,0.5129340291023254,0.9153382742936784,0.5340738892555237,1.0419284082801596,0.021139860153198242,0.12659013398648122
The Hitchhiker's Guide to the Galaxy,Enid Kapelsen,0.5014968514442444,1.2156483907879778,0.5227397680282593,1.103893689268279,0.021242916584014893,-0.1117547015196989
Dune,Schwangyu,0.4926276504993438,1.0669962422332284,0.5143282413482666,2.7588991693321026,0.021700590848922785,1.6919029270988741
Dune,Wensicia Corrino/XD,0.548549473285675,0.4475773439032078,0.570370614528656,1.2279254044224142,0.021821141242980957,0.7803480605192064
Harry Potter,Sirius Black,0.4357708096504211,6.297694725523204e-17,0.4576578736305237,9.219409673178091e-17,0.021887063980102595,2.9217149476548874e-17
The Hunger Games,Clemensia Dovecote,0.5132126212120056,0.0291443250384277,0.535294234752655,0.006016564539793,0.022081613540649414,-0.0231277604986347
Harry Potter,Minerva McGonagall,0.4399511814117431,2.9665046241767284e-41,0.4620523452758789,1.3101767665931176e-38,0.022101163864135798,1.307210261968941e-38
Harry Potter,Padma Patil,0.5311715602874756,0.004458751136146,0.5534011125564575,0.0852731723972241,0.022229552268981934,0.0808144212610781
Harry Potter,Wilhelmina Grubbly-Plank,0.5589131116867065,0.5504047508112356,0.5811431407928467,1.6592923667941,0.022230029106140137,1.1088876159828644
The Hitchhiker's Guide to the Galaxy,Emperor of the Galaxy,0.4611309766769409,2.3626019202895314,0.4836393892765045,3.6042548550150553,0.0225084125995636,1.2416529347255238
The Lord of the Rings,Smaug,0.5200979709625244,1.7712451251066602e-07,0.542619526386261,4.944384382225629e-09,0.022521555423736572,-1.7218012812844038e-07
Dune,Tylwyth Waff/XD,0.5080717206001282,0.3968409474797653,0.5306202173233032,0.3928300081596736,0.02254849672317505,-0.0040109393200916665
Dune,Alef Burzmali,0.5162997245788574,0.6853367647984849,0.5388713479042053,0.943789855045517,0.0225716233253479,0.2584530902470321
Dune,Shaddam Corrino IV,0.4953395128250122,0.172399584012771,0.518018364906311,0.563532481815849,0.022678852081298828,0.39113289780307803
Dune,Dominic Vernius,0.5195322632789612,0.527845759373703,0.5422945618629456,0.6359396060986324,0.022762298583984375,0.10809384672492939
Dune,Kwisatz Haderach/XD,0.5335668921470642,0.0361378965727395,0.5564238429069519,0.0130610556716856,0.022856950759887695,-0.0230768409010539
The Lord of the Rings,Faramir,0.5335369110107422,2.196711129757189e-08,0.5567378401756287,2.8856669039196348e-05,0.023200929164886475,2.8834701927898776e-05
Harry Potter,Hedwig,0.5528015494346619,1.3236348290723768e-06,0.5762235522270203,0.1659381307088989,0.0234220027923584,0.16593680707406983
Dune,Piter de Vries/DE,0.5194000601768494,0.3959634119992083,0.5429386496543884,0.7523480200734194,0.023538589477539062,0.3563846080742111
Harry Potter,Salazar Slytherin,0.5497920513153076,0.061225645023432,0.5736891627311707,0.0664121999216053,0.023897111415863037,0.005186554898173296
The Hunger Games,Lucretius Flickerman,0.5141594409942627,0.2501040595794248,0.5382243990898132,0.1860783794133212,0.024064958095550537,-0.06402568016610358
The Lord of the Rings,Bard,0.5182429552078247,0.0021621457001736,0.5426632761955261,0.1547218337105939,0.024420320987701416,0.1525596880104203
The Hunger Games,Treech,0.4908248484134674,0.2685506368472463,0.5155394077301025,0.207682672770323,0.024714559316635132,-0.06086796407692327
The Hitchhiker's Guide to the Galaxy,Agda,0.4889400005340576,1.2845804230061522,0.5137884616851807,5.051950156275736,0.024848461151123047,3.767369733269584
Dune,Gurney Halleck/XD,0.5749003291130066,0.003947025194662,0.5998854041099548,0.0038915791044542,0.024985074996948242,-5.544609020779979e-05
Dune,Elrood Corrino IX,0.5210123062133789,1.4066134364200111,0.5460413098335266,2.592456088742047,0.025029003620147705,1.1858426523220358
The Hunger Games,Reaper Ash,0.4779620170593261,0.0037166572521146,0.5030179619789124,0.118957654153587,0.025055944919586237,0.1152409969014724
The Hitchhiker's Guide to the Galaxy,Max Quordlepleen,0.4817720949649811,2.1863611587165366,0.5069513916969299,5.508965424518062,0.025179296731948853,3.322604265801526
The Hitchhiker's Guide to the Galaxy,Mella,0.471651017665863,1.428438122375747,0.4970147311687469,0.8538650908509379,0.02536371350288391,-0.5745730315248091
Harry Potter,Igor Karkaroff,0.5404753088951111,1.3930114715393042e-05,0.5658594369888306,2.2256878363812945e-06,0.025384128093719482,-1.1704426879011748e-05
Dune,Gaius Helen Mohiam/XD,0.5221415162086487,0.0782840551330186,0.5475896596908569,0.2298595203861384,0.025448143482208252,0.15157546525311982
Harry Potter,Vernon Dursley,0.5057438015937805,5.016438302964028e-08,0.5312067866325378,6.536296984128919e-06,0.025462985038757324,6.486132601099279e-06
Dune,Otheym,0.5396402478218079,1.581951840468952,0.565533459186554,1.196589792217731,0.025893211364746094,-0.385362048251221
The Hitchhiker's Guide to the Galaxy,Random Dent,0.4641633927822113,0.9790948260609776,0.4900609850883484,2.355361022691568,0.025897592306137085,1.3762661966305902
Dune,Margot Fenring/XD,0.5214381814002991,0.0573976079166477,0.5475935339927673,0.2202881246994731,0.02615535259246826,0.1628905167828254
Dune,Miles Teg,0.5338758230209351,0.5553853662788213,0.5601738095283508,1.099096592885546,0.02629798650741577,0.5437112266067248
The Lord of the Rings,Gil-galad,0.5680932998657227,0.0019113964772533,0.5944396257400513,0.0233249965493323,0.026346325874328613,0.021413600072079
The Hunger Games,Felix Ravinstill,0.4978830218315124,1.3126049466053806,0.524251401424408,2.7069989618803443,0.026368379592895563,1.3943940152749636
Twilight,Sasha,0.4814028441905975,0.49466531978256,0.5079740881919861,0.9649262742737336,0.026571244001388605,0.47026095449117356
Dune,Chani Kynes/XD,0.5300175547599792,0.2624940632480937,0.5566100478172302,0.3986957932826357,0.026592493057250977,0.136201730034542
Harry Potter,Hannah Abbott,0.5094707608222961,0.0009951666786909,0.5361484885215759,0.0069513709932772,0.026677727699279785,0.0059562043145863
Twilight,Vasilii,0.4878039360046386,1.177484514311104,0.5145131349563599,0.7154535525507003,0.026709198951721247,-0.4620309617604036
Dune,Abulurd Harkonnen/XD,0.5286328196525574,0.1461555783251214,0.5561712980270386,0.2427497900691261,0.0275384783744812,0.09659421174400468
The Lord of the Rings,Treebeard,0.5466518998146057,1.3780849338300738,0.5745113492012024,1.1244812229406924,0.02785944938659668,-0.2536037108893814
Twilight,Sue Clearwater,0.5033526420593262,0.0093077736757037,0.5312262773513794,0.1308123491629559,0.027873635292053223,0.12150457548725219
Harry Potter,Nicholas de Mimsy-Porpington,0.4939811825752258,1.0020451783122212e-05,0.5219674110412598,8.088148671777645e-06,0.02798622846603399,-1.9323031113445663e-06
The Hitchhiker's Guide to the Galaxy,Barman,0.4879155457019806,0.7203177013797761,0.5159683227539062,1.2035000664552176,0.02805277705192566,0.48318236507544143
The Hitchhiker's Guide to the Galaxy,The Lord,0.4767702221870422,1.191764036608358,0.5048403143882751,1.5856247393623424,0.028070092201232966,0.39386070275398444
Dune,Hasimir Fenring/XD,0.5090423822402954,0.0024095958081605,0.5372745990753174,0.0197848501907009,0.028232216835021973,0.0173752543825404
Dune,Minotauros Atreides,0.5035611391067505,0.8671570303325307,0.5322391390800476,1.170607102901288,0.02867799997329712,0.30345007256875745
Dune,Stilgar,0.5141476392745972,0.0252189956389754,0.5429798364639282,0.9279516979442336,0.028832197189331055,0.9027327023052582
The Lord of the Rings,Morgoth,0.53725266456604,8.902471080308492e-18,0.5663423538208008,1.498850148253101e-07,0.029089689254760742,1.4988501481640762e-07
The Hitchhiker's Guide to the Galaxy,Googleplex Starthinker,0.5077226758003235,1.4366898551814142,0.5368738174438477,2.07225874033409,0.02915114164352417,0.635568885152676
Dune,Kailea Vernius,0.5280104279518127,0.3548715464064059,0.5572851300239563,0.7615478963840646,0.029274702072143555,0.4066763499776587
Harry Potter,Fred Weasley,0.4305632412433624,5.380239781082516e-12,0.4600191712379455,8.513870796137716e-12,0.029455929994583074,3.1336310150551997e-12
Dune,Vladimir Harkonnen/XD,0.4725960195064544,0.0093236739650149,0.5022215843200684,0.011078739114,0.029625564813613947,0.0017550651489850987
Dune,Dama,0.4958432018756866,0.6506029249206801,0.5257421731948853,0.7785557080623421,0.029898971319198664,0.12795278314166203
Harry Potter,Aberforth Dumbledore,0.5199927091598511,4.7387577071428475e-11,0.5499390363693237,6.159790962777714e-10,0.029946327209472656,5.685915192063429e-10
The Hunger Games,Mizzen,0.4820497334003448,0.0033708382232349,0.5119963884353638,0.0447357894518732,0.029946655035018976,0.0413649512286383
Dune,Daniel,0.5054863095283508,1.156260320294123,0.5355330109596252,3.150722277861901,0.030046701431274414,1.994461957567778
The Hitchhiker's Guide to the Galaxy,Dan Streetmentioner,0.5099366903305054,1.643850886403297,0.5405710339546204,3.1816142765946127,0.03063434362411499,1.5377633901913157
Harry Potter,Ernest Prang,0.5294076204299927,1.4324730684956046,0.560053825378418,3.37059206821222,0.030646204948425293,1.9381189997166155
The Hunger Games,Palmyra Monty,0.4854088723659515,1.0346429652319125,0.5160622596740723,2.59834323367383,0.030653387308120783,1.5637002684419175
The Hunger Games,Dill,0.4967287182807922,0.7968083927554982,0.5278428792953491,2.485262715655405,0.03111416101455694,1.6884543228999065
Dune,Helena Atreides,0.5223349928855896,0.5269385506040045,0.5534923672676086,1.3100626785103442,0.031157374382019043,0.7831241279063397
Dune,Glossu Rabban Harkonnen/XD,0.5044286847114563,3.070460455948732,0.5358280539512634,3.032928582811936,0.03139936923980713,-0.037531873136795735
The Hitchhiker's Guide to the Galaxy,Lig Lury Jr,0.5144686102867126,2.094207957017673,0.546027421951294,4.128605340021927,0.0315588116645813,2.0343973830042543
Dune,Liet Kynes/XD,0.5198890566825867,0.0384979796916463,0.5515170097351074,0.2048986887031006,0.03162795305252075,0.16640070901145432
Harry Potter,Galatea Merrythought,0.5108742713928223,0.8897644041633969,0.542755126953125,4.277539392633426,0.031880855560302734,3.3877749884700292
The Lord of the Rings,Celebrimbor,0.5228293538093567,5.406107067514158e-07,0.5549890995025635,0.0012554807472471,0.03215974569320679,0.0012549401365403484
Dune,Stilgar/XD,0.5113525390625,0.0770754488839971,0.5439133644104004,0.0541094954961076,0.03256082534790039,-0.022965953387889503
The Lord of the Rings,Galadriel,0.5303605198860168,7.340048864021387e-05,0.5638503432273865,7.3263597196728e-08,0.03348982334136963,-7.332722504301714e-05
Dune,Scytale,0.5036069750785828,0.461790914533974,0.5371549129486084,0.5362548753112207,0.033547937870025635,0.07446396077724676
The Hitchhiker's Guide to the Galaxy,Hig Hurtenflurst,0.4311544895172119,0.7357034993535283,0.4648569822311401,0.9106205941102864,0.03370249271392817,0.1749170947567581
Harry Potter,Armando Dippet,0.5370591282844543,0.0046637098170933,0.5710315704345703,0.0133321775144196,0.03397244215011597,0.0086684676973263
The Lord of the Rings,Saruman,0.5446438193321228,1.6455604895171072e-08,0.5790364742279053,1.015569751092595e-09,0.03439265489578247,-1.5440035144078477e-08
Harry Potter,Ernest Macmillan,0.4952795207500458,1.6434782895073462e-05,0.5296837687492371,0.0009536290820799,0.034404247999191284,0.0009371942991848265
The Hitchhiker's Guide to the Galaxy,Hillman Hunter,0.4651113450527191,3.1014311124889375e-08,0.5008059740066528,2.6112248955490758,0.035694628953933716,2.6112248645347647
Harry Potter,Marlene McKinnon,0.5079734921455383,1.271044782279647,0.5446146726608276,3.679384671792475,0.03664118051528931,2.4083398895128285
Dune,Fafnir Corrino,0.47784024477005,0.5293927539006357,0.5147947072982788,1.057409332232301,0.036954462528228815,0.5280165783316654
Dune,Scytale/XD,0.4761505424976349,0.2093171868761611,0.5132747888565063,0.3960213198969362,0.03712424635887146,0.18670413302077507
Twilight,Rachel Black,0.4747436642646789,0.4269007168682477,0.5118807554244995,0.5438843928779266,0.03713709115982061,0.11698367600967885
Dune,Lucilla,0.5170367956161499,1.0097791824721207,0.5555893778800964,2.019183275173184,0.03855258226394653,1.0094040927010635
Harry Potter,Petunia Dursley,0.509734034538269,4.115191044364605e-08,0.5488658547401428,2.227847527575818e-09,0.03913182020187378,-3.892406291607023e-08
Harry Potter,Nicolas Flamel,0.5249547362327576,0.0005279197922514,0.5642802715301514,0.076181577995533,0.0393255352973938,0.0756536582032816
Twilight,Heidi,0.4594801962375641,0.0058870873388134,0.4990042746067047,0.3615343875953516,0.039524078369140625,0.35564730025653823
The Hitchhiker's Guide to the Galaxy,Lajestic Vantrashell of Lob,0.5107476711273193,0.8317512375873324,0.5502901673316956,3.3094251256544345,0.03954249620437622,2.477673888067102
The Hitchhiker's Guide to the Galaxy,Elvis Presley,0.4751115143299103,1.169051481893415,0.516801655292511,1.716701048061448,0.04169014096260071,0.547649566168033
Twilight,Embry Call,0.4719495773315429,0.000983085711177,0.5144363045692444,0.1021525339987424,0.04248672723770147,0.1011694482875654
Dune,Nayla,0.4948665201663971,1.0085290196960552,0.5376885533332825,1.5682694401101744,0.042822033166885376,0.5597404204141192
Twilight,Eric Yorkie,0.4812694489955902,0.8048415657502396,0.5250717401504517,1.5095038559063598,0.04380229115486145,0.7046622901561203
The Lord of the Rings,Beorn,0.5504730343818665,0.085132550300705,0.5943840146064758,0.7126986481207102,0.043910980224609375,0.6275660978200052
Harry Potter,Myrtle Warren,0.514105498790741,8.240942170410794e-06,0.5586952567100525,5.824812801505383e-05,0.04458975791931152,5.000718584464303e-05
Dune,Margot Fenring,0.5036774277687073,1.652360164183928,0.5483601689338684,3.3254174345263,0.04468274116516113,1.673057270342372
The Lord of the Rings,Celeborn,0.5485987067222595,0.0219010547711914,0.5946420431137085,0.1645314083319311,0.046043336391448975,0.14263035356073972
Dune,Feyd-Rautha Harkonnen/XD,0.5111600160598755,0.5703391772389732,0.5592771768569946,1.0971041940287012,0.04811716079711914,0.526765016789728
The Lord of the Rings,Gollum,0.5052807927131653,0.0013260696356764,0.554164707660675,0.0014607184556538,0.048883914947509766,0.00013464881997740001
The Lord of the Rings,Gandalf,0.5118842720985413,3.945079369957593e-45,0.5626420974731445,4.3113945387056216e-11,0.05075782537460327,4.3113945387056216e-11
Harry Potter,Ariana Dumbledore,0.5008694529533386,0.0002828632642388,0.5517812967300415,0.0340819504573428,0.05091184377670288,0.033799087193104004
The Lord of the Rings,Khamûl,0.4991201758384704,0.1582936136919527,0.5586355328559875,1.793892514561512,0.059515357017517145,1.6355989008695595
Dune,Jessica Atreides/XD,0.502534806728363,0.0003550848322854,0.5862270593643188,0.0824652509622763,0.08369225263595581,0.0821101661299909
Dune,Jessica Atreides,0.3590573072433471,7.54236875157511e-57,0.4818017780780792,0.2374086048378717,0.12274447083473211,0.2374086048378717
